ASIC,PLL A,PLL B,PLL C
UADAQFEE:UTaX_1AT_M1E.Chip0,-3,0,0
UADAQFEE:UTaX_1AT_M1E.Chip1,-1,-1,0
UADAQFEE:UTaX_1AT_M1E.Chip2,0,-2,0
UADAQFEE:UTaX_1AT_M1E.Chip3,-6,-3,0
UADAQFEE:UTaX_1AT_M1W.Chip0,-2,-1,0
UADAQFEE:UTaX_1AT_M1W.Chip1,2,0,0
UADAQFEE:UTaX_1AT_M1W.Chip2,2,2,0
UADAQFEE:UTaX_1AT_M1W.Chip3,-3,1,0
UADAQFEE:UTaX_1AT_M2.Chip0,-1,2,0
UADAQFEE:UTaX_1AT_M2.Chip1,-4,-15,0
UADAQFEE:UTaX_1AT_M2.Chip2,-5,-1,0
UADAQFEE:UTaX_1AT_M2.Chip3,4,4,0
UADAQFEE:UTaX_1AT_M3.Chip0,1,1,0
UADAQFEE:UTaX_1AT_M3.Chip1,-1,0,0
UADAQFEE:UTaX_1AT_M3.Chip2,3,1,0
UADAQFEE:UTaX_1AT_M3.Chip3,3,3,0
UADAQFEE:UTaX_1AT_M4.Chip0,0,1,0
UADAQFEE:UTaX_1AT_M4.Chip1,2,3,0
UADAQFEE:UTaX_1AT_M4.Chip2,-1,-3,0
UADAQFEE:UTaX_1AT_M4.Chip3,1,1,0
UADAQFEE:UTaX_1AT_S1E.Chip0,-1,2,0
UADAQFEE:UTaX_1AT_S1E.Chip1,-2,-2,0
UADAQFEE:UTaX_1AT_S1E.Chip2,-4,-3,0
UADAQFEE:UTaX_1AT_S1E.Chip3,1,-1,0
UADAQFEE:UTaX_1AT_S1W.Chip0,3,2,0
UADAQFEE:UTaX_1AT_S1W.Chip1,-3,-3,0
UADAQFEE:UTaX_1AT_S1W.Chip2,1,1,0
UADAQFEE:UTaX_1AT_S1W.Chip3,-1,-3,0
UADAQFEE:UTaX_1AT_S2E.Chip0,1,-4,0
UADAQFEE:UTaX_1AT_S2E.Chip1,2,0,0
UADAQFEE:UTaX_1AT_S2E.Chip2,-3,-4,0
UADAQFEE:UTaX_1AT_S2E.Chip3,-2,-1,0
UADAQFEE:UTaX_1AT_S2W.Chip0,0,1,0
UADAQFEE:UTaX_1AT_S2W.Chip1,0,2,0
UADAQFEE:UTaX_1AT_S2W.Chip2,-3,1,0
UADAQFEE:UTaX_1AT_S2W.Chip3,-1,-2,0
UADAQFEE:UTaX_1AT_S3.Chip0,3,2,0
UADAQFEE:UTaX_1AT_S3.Chip1,2,1,0
UADAQFEE:UTaX_1AT_S3.Chip2,-5,-13,0
UADAQFEE:UTaX_1AT_S3.Chip3,1,2,0
UADAQFEE:UTaX_1AT_S4.Chip0,1,0,0
UADAQFEE:UTaX_1AT_S4.Chip1,-1,-2,0
UADAQFEE:UTaX_1AT_S4.Chip2,-2,1,0
UADAQFEE:UTaX_1AT_S4.Chip3,-3,-4,0
UADAQFEE:UTaX_2AT_M1E.Chip0,2,0,0
UADAQFEE:UTaX_2AT_M1E.Chip1,3,-1,0
UADAQFEE:UTaX_2AT_M1E.Chip2,0,-2,0
UADAQFEE:UTaX_2AT_M1E.Chip3,1,3,0
UADAQFEE:UTaX_2AT_M1W.Chip0,-3,0,0
UADAQFEE:UTaX_2AT_M1W.Chip1,0,-1,0
UADAQFEE:UTaX_2AT_M1W.Chip2,0,0,0
UADAQFEE:UTaX_2AT_M1W.Chip3,-1,1,0
UADAQFEE:UTaX_2AT_M2.Chip0,2,2,0
UADAQFEE:UTaX_2AT_M2.Chip1,-1,-5,0
UADAQFEE:UTaX_2AT_M2.Chip2,2,3,0
UADAQFEE:UTaX_2AT_M2.Chip3,1,3,0
UADAQFEE:UTaX_2AT_M3.Chip0,-2,-4,0
UADAQFEE:UTaX_2AT_M3.Chip1,0,3,0
UADAQFEE:UTaX_2AT_M3.Chip2,4,0,0
UADAQFEE:UTaX_2AT_M3.Chip3,-1,-2,0
UADAQFEE:UTaX_2AT_M4.Chip0,1,-2,0
UADAQFEE:UTaX_2AT_M4.Chip1,-2,-2,0
UADAQFEE:UTaX_2AT_M4.Chip2,2,0,0
UADAQFEE:UTaX_2AT_M4.Chip3,-1,-1,0
UADAQFEE:UTaX_2AT_S1E.Chip0,1,0,0
UADAQFEE:UTaX_2AT_S1E.Chip1,3,2,0
UADAQFEE:UTaX_2AT_S1E.Chip2,-4,-1,0
UADAQFEE:UTaX_2AT_S1E.Chip3,-1,-1,0
UADAQFEE:UTaX_2AT_S1W.Chip0,2,2,0
UADAQFEE:UTaX_2AT_S1W.Chip1,3,0,0
UADAQFEE:UTaX_2AT_S1W.Chip2,-2,-2,0
UADAQFEE:UTaX_2AT_S1W.Chip3,-2,1,0
UADAQFEE:UTaX_2AT_S2.Chip0,0,-1,0
UADAQFEE:UTaX_2AT_S2.Chip1,-2,0,0
UADAQFEE:UTaX_2AT_S2.Chip2,-2,-6,0
UADAQFEE:UTaX_2AT_S2.Chip3,-3,-4,0
UADAQFEE:UTaX_2AT_S3.Chip0,4,-2,0
UADAQFEE:UTaX_2AT_S3.Chip1,2,-2,0
UADAQFEE:UTaX_2AT_S3.Chip2,-4,-1,0
UADAQFEE:UTaX_2AT_S3.Chip3,0,-1,0
UADAQFEE:UTaX_3AT_M1.Chip0,3,2,0
UADAQFEE:UTaX_3AT_M1.Chip1,1,1,0
UADAQFEE:UTaX_3AT_M1.Chip2,0,1,0
UADAQFEE:UTaX_3AT_M1.Chip3,-1,0,0
UADAQFEE:UTaX_3AT_M2.Chip0,1,1,0
UADAQFEE:UTaX_3AT_M2.Chip1,2,3,0
UADAQFEE:UTaX_3AT_M2.Chip2,-2,-2,0
UADAQFEE:UTaX_3AT_M2.Chip3,1,1,0
UADAQFEE:UTaX_3AT_M3.Chip0,-1,0,0
UADAQFEE:UTaX_3AT_M3.Chip1,1,1,0
UADAQFEE:UTaX_3AT_M3.Chip2,3,3,0
UADAQFEE:UTaX_3AT_M3.Chip3,2,2,0
UADAQFEE:UTaX_3AT_M4.Chip0,1,-2,0
UADAQFEE:UTaX_3AT_M4.Chip1,-3,-3,0
UADAQFEE:UTaX_3AT_M4.Chip2,1,0,0
UADAQFEE:UTaX_3AT_M4.Chip3,-2,-2,0
UADAQFEE:UTaX_3AT_S1.Chip0,-7,-4,0
UADAQFEE:UTaX_3AT_S1.Chip1,0,1,0
UADAQFEE:UTaX_3AT_S1.Chip2,-1,0,0
UADAQFEE:UTaX_3AT_S1.Chip3,-1,-2,0
UADAQFEE:UTaX_3AT_S2.Chip0,-4,-2,0
UADAQFEE:UTaX_3AT_S2.Chip1,3,2,0
UADAQFEE:UTaX_3AT_S2.Chip2,1,1,0
UADAQFEE:UTaX_3AT_S2.Chip3,0,0,0
UADAQFEE:UTaX_3AT_S3.Chip0,0,0,0
UADAQFEE:UTaX_3AT_S3.Chip1,0,-3,0
UADAQFEE:UTaX_3AT_S3.Chip2,-2,-2,0
UADAQFEE:UTaX_3AT_S3.Chip3,2,1,0
UADAQFEE:UTaU_1AT_M1E.Chip0,3,2,0
UADAQFEE:UTaU_1AT_M1E.Chip1,0,-1,0
UADAQFEE:UTaU_1AT_M1E.Chip2,3,0,0
UADAQFEE:UTaU_1AT_M1E.Chip3,2,2,0
UADAQFEE:UTaU_1AT_M1W.Chip0,2,1,0
UADAQFEE:UTaU_1AT_M1W.Chip1,2,0,0
UADAQFEE:UTaU_1AT_M1W.Chip2,2,2,0
UADAQFEE:UTaU_1AT_M1W.Chip3,0,2,0
UADAQFEE:UTaU_1AT_M2.Chip0,-2,-2,0
UADAQFEE:UTaU_1AT_M2.Chip1,2,0,0
UADAQFEE:UTaU_1AT_M2.Chip2,3,-3,0
UADAQFEE:UTaU_1AT_M2.Chip3,-1,3,1
UADAQFEE:UTaU_1AT_M3.Chip0,-1,-2,0
UADAQFEE:UTaU_1AT_M3.Chip1,-3,4,0
UADAQFEE:UTaU_1AT_M3.Chip2,0,2,0
UADAQFEE:UTaU_1AT_M3.Chip3,2,0,0
UADAQFEE:UTaU_1AT_M4.Chip0,-4,-2,0
UADAQFEE:UTaU_1AT_M4.Chip1,1,1,0
UADAQFEE:UTaU_1AT_M4.Chip2,2,-1,0
UADAQFEE:UTaU_1AT_M4.Chip3,1,1,0
UADAQFEE:UTaU_1AT_S1E.Chip0,3,1,0
UADAQFEE:UTaU_1AT_S1E.Chip1,-30,-14,0
UADAQFEE:UTaU_1AT_S1E.Chip2,1,0,0
UADAQFEE:UTaU_1AT_S1E.Chip3,2,0,0
UADAQFEE:UTaU_1AT_S1W.Chip0,-5,-6,0
UADAQFEE:UTaU_1AT_S1W.Chip1,0,-3,0
UADAQFEE:UTaU_1AT_S1W.Chip2,2,5,0
UADAQFEE:UTaU_1AT_S1W.Chip3,2,3,0
UADAQFEE:UTaU_1AT_S2E.Chip0,0,-1,0
UADAQFEE:UTaU_1AT_S2E.Chip1,-1,-4,0
UADAQFEE:UTaU_1AT_S2E.Chip2,-1,1,0
UADAQFEE:UTaU_1AT_S2E.Chip3,-6,3,0
UADAQFEE:UTaU_1AT_S2W.Chip0,2,-2,0
UADAQFEE:UTaU_1AT_S2W.Chip1,1,3,0
UADAQFEE:UTaU_1AT_S2W.Chip2,-3,-5,0
UADAQFEE:UTaU_1AT_S2W.Chip3,0,-4,0
UADAQFEE:UTaU_1AT_S3.Chip0,2,1,0
UADAQFEE:UTaU_1AT_S3.Chip1,-5,-2,0
UADAQFEE:UTaU_1AT_S3.Chip2,0,3,0
UADAQFEE:UTaU_1AT_S3.Chip3,3,0,0
UADAQFEE:UTaU_1AT_S4.Chip0,2,-1,0
UADAQFEE:UTaU_1AT_S4.Chip1,-2,1,0
UADAQFEE:UTaU_1AT_S4.Chip2,1,1,0
UADAQFEE:UTaU_1AT_S4.Chip3,1,0,0
UADAQFEE:UTaU_2AT_M1E.Chip0,1,-1,0
UADAQFEE:UTaU_2AT_M1E.Chip1,0,0,0
UADAQFEE:UTaU_2AT_M1E.Chip2,1,-1,0
UADAQFEE:UTaU_2AT_M1E.Chip3,3,-1,0
UADAQFEE:UTaU_2AT_M1W.Chip0,-1,-3,0
UADAQFEE:UTaU_2AT_M1W.Chip1,2,4,0
UADAQFEE:UTaU_2AT_M1W.Chip2,3,3,0
UADAQFEE:UTaU_2AT_M1W.Chip3,-2,0,0
UADAQFEE:UTaU_2AT_M2.Chip0,-4,1,0
UADAQFEE:UTaU_2AT_M2.Chip1,-11,1,0
UADAQFEE:UTaU_2AT_M2.Chip2,4,-5,0
UADAQFEE:UTaU_2AT_M2.Chip3,2,0,0
UADAQFEE:UTaU_2AT_M3.Chip0,4,4,0
UADAQFEE:UTaU_2AT_M3.Chip1,0,-2,0
UADAQFEE:UTaU_2AT_M3.Chip2,1,3,0
UADAQFEE:UTaU_2AT_M3.Chip3,-1,-2,0
UADAQFEE:UTaU_2AT_M4.Chip0,-2,-3,0
UADAQFEE:UTaU_2AT_M4.Chip1,-2,-2,0
UADAQFEE:UTaU_2AT_M4.Chip2,0,-4,0
UADAQFEE:UTaU_2AT_M4.Chip3,1,0,0
UADAQFEE:UTaU_2AT_S1E.Chip0,3,3,0
UADAQFEE:UTaU_2AT_S1E.Chip1,-1,1,0
UADAQFEE:UTaU_2AT_S1E.Chip2,-2,0,0
UADAQFEE:UTaU_2AT_S1E.Chip3,3,5,0
UADAQFEE:UTaU_2AT_S1W.Chip0,-4,-5,0
UADAQFEE:UTaU_2AT_S1W.Chip1,0,-3,0
UADAQFEE:UTaU_2AT_S1W.Chip2,-5,-7,0
UADAQFEE:UTaU_2AT_S1W.Chip3,0,-1,0
UADAQFEE:UTaU_2AT_S2.Chip0,0,-3,0
UADAQFEE:UTaU_2AT_S2.Chip1,1,-2,0
UADAQFEE:UTaU_2AT_S2.Chip2,0,-2,0
UADAQFEE:UTaU_2AT_S2.Chip3,-4,-3,0
UADAQFEE:UTaU_2AT_S3.Chip0,3,0,0
UADAQFEE:UTaU_2AT_S3.Chip1,0,-1,0
UADAQFEE:UTaU_2AT_S3.Chip2,-1,1,0
UADAQFEE:UTaU_2AT_S3.Chip3,0,2,0
UADAQFEE:UTaU_3AT_M1.Chip0,3,1,0
UADAQFEE:UTaU_3AT_M1.Chip1,0,-2,1
UADAQFEE:UTaU_3AT_M1.Chip2,-1,-5,0
UADAQFEE:UTaU_3AT_M1.Chip3,2,0,0
UADAQFEE:UTaU_3AT_M2.Chip0,0,2,0
UADAQFEE:UTaU_3AT_M2.Chip1,-3,-1,0
UADAQFEE:UTaU_3AT_M2.Chip2,0,-2,0
UADAQFEE:UTaU_3AT_M2.Chip3,-1,-2,0
UADAQFEE:UTaU_3AT_M3.Chip0,-1,-2,0
UADAQFEE:UTaU_3AT_M3.Chip1,0,2,0
UADAQFEE:UTaU_3AT_M3.Chip2,-1,0,0
UADAQFEE:UTaU_3AT_M3.Chip3,-2,-4,0
UADAQFEE:UTaU_3AT_M4.Chip0,2,0,0
UADAQFEE:UTaU_3AT_M4.Chip1,4,2,0
UADAQFEE:UTaU_3AT_M4.Chip2,1,0,1
UADAQFEE:UTaU_3AT_M4.Chip3,-1,-1,0
UADAQFEE:UTaU_3AT_S1.Chip0,-1,1,0
UADAQFEE:UTaU_3AT_S1.Chip1,-1,-2,0
UADAQFEE:UTaU_3AT_S1.Chip2,-4,-1,0
UADAQFEE:UTaU_3AT_S1.Chip3,0,-1,0
UADAQFEE:UTaU_3AT_S2.Chip0,-4,-2,0
UADAQFEE:UTaU_3AT_S2.Chip1,-2,-6,0
UADAQFEE:UTaU_3AT_S2.Chip2,2,2,0
UADAQFEE:UTaU_3AT_S2.Chip3,1,-1,0
UADAQFEE:UTaU_3AT_S3.Chip0,1,-4,0
UADAQFEE:UTaU_3AT_S3.Chip1,-9,-4,0
UADAQFEE:UTaU_3AT_S3.Chip2,0,1,0
UADAQFEE:UTaU_3AT_S3.Chip3,-3,-6,0
UADAQFEE:UTaX_4AT_M1.Chip0,0,-1,0
UADAQFEE:UTaX_4AT_M1.Chip1,-2,-1,0
UADAQFEE:UTaX_4AT_M1.Chip2,-2,1,0
UADAQFEE:UTaX_4AT_M1.Chip3,1,-1,0
UADAQFEE:UTaX_4AT_M2.Chip0,2,1,0
UADAQFEE:UTaX_4AT_M2.Chip1,-1,-1,0
UADAQFEE:UTaX_4AT_M2.Chip2,-1,-1,0
UADAQFEE:UTaX_4AT_M2.Chip3,0,2,0
UADAQFEE:UTaX_4AT_M3.Chip0,-2,-3,0
UADAQFEE:UTaX_4AT_M3.Chip1,-2,2,1
UADAQFEE:UTaX_4AT_M3.Chip2,-3,-3,0
UADAQFEE:UTaX_4AT_M3.Chip3,-3,-2,0
UADAQFEE:UTaX_4AT_M4.Chip0,-1,0,0
UADAQFEE:UTaX_4AT_M4.Chip1,-1,-2,0
UADAQFEE:UTaX_4AT_M4.Chip2,-2,2,0
UADAQFEE:UTaX_4AT_M4.Chip3,-3,-6,0
UADAQFEE:UTaX_4AT_S1.Chip0,2,2,0
UADAQFEE:UTaX_4AT_S1.Chip1,1,3,0
UADAQFEE:UTaX_4AT_S1.Chip2,4,3,0
UADAQFEE:UTaX_4AT_S1.Chip3,-3,1,0
UADAQFEE:UTaX_4AT_S2.Chip0,0,1,0
UADAQFEE:UTaX_4AT_S2.Chip1,-7,-8,1
UADAQFEE:UTaX_4AT_S2.Chip2,-6,-2,0
UADAQFEE:UTaX_4AT_S2.Chip3,-2,1,0
UADAQFEE:UTaX_4AT_S3.Chip0,-3,-2,0
UADAQFEE:UTaX_4AT_S3.Chip1,2,0,0
UADAQFEE:UTaX_4AT_S3.Chip2,-2,-1,0
UADAQFEE:UTaX_4AT_S3.Chip3,-7,-4,0
UADAQFEE:UTaX_5AT_M1.Chip0,-4,-3,1
UADAQFEE:UTaX_5AT_M1.Chip1,-1,2,0
UADAQFEE:UTaX_5AT_M1.Chip2,-1,2,0
UADAQFEE:UTaX_5AT_M1.Chip3,3,2,0
UADAQFEE:UTaX_5AT_M2.Chip0,1,-2,0
UADAQFEE:UTaX_5AT_M2.Chip1,1,-1,0
UADAQFEE:UTaX_5AT_M2.Chip2,2,2,0
UADAQFEE:UTaX_5AT_M2.Chip3,-3,0,0
UADAQFEE:UTaX_5AT_M3.Chip0,1,0,0
UADAQFEE:UTaX_5AT_M3.Chip1,2,3,0
UADAQFEE:UTaX_5AT_M3.Chip2,1,2,0
UADAQFEE:UTaX_5AT_M3.Chip3,2,3,0
UADAQFEE:UTaX_5AT_M4.Chip0,1,0,0
UADAQFEE:UTaX_5AT_M4.Chip1,1,5,0
UADAQFEE:UTaX_5AT_M4.Chip2,1,-3,0
UADAQFEE:UTaX_5AT_M4.Chip3,-2,0,0
UADAQFEE:UTaX_5AT_S1.Chip0,4,1,0
UADAQFEE:UTaX_5AT_S1.Chip1,2,1,0
UADAQFEE:UTaX_5AT_S1.Chip2,2,2,0
UADAQFEE:UTaX_5AT_S1.Chip3,-1,-2,0
UADAQFEE:UTaX_5AT_S2.Chip0,1,-2,0
UADAQFEE:UTaX_5AT_S2.Chip1,0,0,0
UADAQFEE:UTaX_5AT_S2.Chip2,3,0,0
UADAQFEE:UTaX_5AT_S2.Chip3,-4,-3,0
UADAQFEE:UTaX_5AT_S3.Chip0,1,2,0
UADAQFEE:UTaX_5AT_S3.Chip1,-3,1,0
UADAQFEE:UTaX_5AT_S3.Chip2,0,1,0
UADAQFEE:UTaX_5AT_S3.Chip3,-1,1,0
UADAQFEE:UTaX_6AT_M1.Chip0,-1,-2,0
UADAQFEE:UTaX_6AT_M1.Chip1,0,1,0
UADAQFEE:UTaX_6AT_M1.Chip2,-2,0,0
UADAQFEE:UTaX_6AT_M2.Chip0,2,2,0
UADAQFEE:UTaX_6AT_M2.Chip1,1,2,0
UADAQFEE:UTaX_6AT_M2.Chip2,1,4,0
UADAQFEE:UTaX_6AT_M2.Chip3,0,1,0
UADAQFEE:UTaX_6AT_M3.Chip0,-4,-2,0
UADAQFEE:UTaX_6AT_M3.Chip1,1,4,0
UADAQFEE:UTaX_6AT_M3.Chip2,2,3,0
UADAQFEE:UTaX_6AT_M3.Chip3,2,-2,0
UADAQFEE:UTaX_6AT_M4.Chip0,3,3,0
UADAQFEE:UTaX_6AT_M4.Chip1,1,-1,0
UADAQFEE:UTaX_6AT_M4.Chip2,-1,3,0
UADAQFEE:UTaX_6AT_M4.Chip3,-4,-3,0
UADAQFEE:UTaX_6AT_S1.Chip0,-2,0,0
UADAQFEE:UTaX_6AT_S1.Chip1,-7,2,0
UADAQFEE:UTaX_6AT_S1.Chip2,0,1,0
UADAQFEE:UTaX_6AT_S1.Chip3,1,1,0
UADAQFEE:UTaX_6AT_S2.Chip0,-2,-1,0
UADAQFEE:UTaX_6AT_S2.Chip1,2,2,0
UADAQFEE:UTaX_6AT_S2.Chip2,0,-4,0
UADAQFEE:UTaX_6AT_S2.Chip3,4,4,1
UADAQFEE:UTaX_6AT_S3.Chip0,4,-3,0
UADAQFEE:UTaX_6AT_S3.Chip1,3,3,0
UADAQFEE:UTaX_6AT_S3.Chip2,-1,1,0
UADAQFEE:UTaX_6AT_S3.Chip3,-3,0,0
UADAQFEE:UTaU_4AT_M1.Chip0,2,3,0
UADAQFEE:UTaU_4AT_M1.Chip1,-2,-2,0
UADAQFEE:UTaU_4AT_M1.Chip2,-1,-2,0
UADAQFEE:UTaU_4AT_M1.Chip3,-1,0,0
UADAQFEE:UTaU_4AT_M2.Chip0,2,-1,0
UADAQFEE:UTaU_4AT_M2.Chip1,0,2,1
UADAQFEE:UTaU_4AT_M2.Chip2,4,2,0
UADAQFEE:UTaU_4AT_M2.Chip3,2,3,0
UADAQFEE:UTaU_4AT_M3.Chip0,1,0,0
UADAQFEE:UTaU_4AT_M3.Chip1,1,3,0
UADAQFEE:UTaU_4AT_M3.Chip2,1,1,0
UADAQFEE:UTaU_4AT_M3.Chip3,-1,0,0
UADAQFEE:UTaU_4AT_S1.Chip0,-6,-12,0
UADAQFEE:UTaU_4AT_S1.Chip1,1,-1,1
UADAQFEE:UTaU_4AT_S1.Chip2,-5,-6,0
UADAQFEE:UTaU_4AT_S1.Chip3,1,3,0
UADAQFEE:UTaU_4AT_S2.Chip0,-4,-2,0
UADAQFEE:UTaU_4AT_S2.Chip1,1,-1,0
UADAQFEE:UTaU_4AT_S2.Chip2,-2,0,0
UADAQFEE:UTaU_4AT_S2.Chip3,-3,-4,0
UADAQFEE:UTaU_4AT_S3.Chip0,3,2,0
UADAQFEE:UTaU_4AT_S3.Chip1,1,2,0
UADAQFEE:UTaU_4AT_S3.Chip2,3,-3,1
UADAQFEE:UTaU_4AT_S3.Chip3,-4,-4,0
UADAQFEE:UTaU_5AT_M1.Chip0,0,0,0
UADAQFEE:UTaU_5AT_M1.Chip1,-3,-11,0
UADAQFEE:UTaU_5AT_M1.Chip2,-1,-1,0
UADAQFEE:UTaU_5AT_M1.Chip3,3,7,0
UADAQFEE:UTaU_5AT_M2.Chip0,1,-1,0
UADAQFEE:UTaU_5AT_M2.Chip1,-4,-1,0
UADAQFEE:UTaU_5AT_M2.Chip2,0,0,0
UADAQFEE:UTaU_5AT_M2.Chip3,1,0,1
UADAQFEE:UTaU_5AT_M3.Chip0,-1,2,0
UADAQFEE:UTaU_5AT_M3.Chip1,3,1,0
UADAQFEE:UTaU_5AT_M3.Chip2,-4,-2,0
UADAQFEE:UTaU_5AT_M3.Chip3,1,1,0
UADAQFEE:UTaU_5AT_M4.Chip0,0,0,0
UADAQFEE:UTaU_5AT_M4.Chip1,-2,2,1
UADAQFEE:UTaU_5AT_M4.Chip2,-6,-2,0
UADAQFEE:UTaU_5AT_M4.Chip3,1,-2,0
UADAQFEE:UTaU_5AT_S1.Chip0,2,2,0
UADAQFEE:UTaU_5AT_S1.Chip1,0,0,0
UADAQFEE:UTaU_5AT_S1.Chip2,4,0,0
UADAQFEE:UTaU_5AT_S1.Chip3,0,1,0
UADAQFEE:UTaU_5AT_S2.Chip0,-1,-1,0
UADAQFEE:UTaU_5AT_S2.Chip1,-3,-2,0
UADAQFEE:UTaU_5AT_S2.Chip2,-3,-2,0
UADAQFEE:UTaU_5AT_S2.Chip3,-4,-2,0
UADAQFEE:UTaU_5AT_S3.Chip0,2,0,0
UADAQFEE:UTaU_5AT_S3.Chip1,1,4,0
UADAQFEE:UTaU_5AT_S3.Chip2,-1,1,0
UADAQFEE:UTaU_5AT_S3.Chip3,-1,1,0
UADAQFEE:UTaU_6AT_M1.Chip0,-3,0,0
UADAQFEE:UTaU_6AT_M1.Chip1,1,2,0
UADAQFEE:UTaU_6AT_M1.Chip2,2,1,0
UADAQFEE:UTaU_6AT_M1.Chip3,2,-2,0
UADAQFEE:UTaU_6AT_M2.Chip0,2,2,0
UADAQFEE:UTaU_6AT_M2.Chip1,2,-1,0
UADAQFEE:UTaU_6AT_M2.Chip2,1,-2,0
UADAQFEE:UTaU_6AT_M2.Chip3,1,-2,0
UADAQFEE:UTaU_6AT_M3.Chip0,-1,-4,1
UADAQFEE:UTaU_6AT_M3.Chip1,0,1,0
UADAQFEE:UTaU_6AT_M3.Chip2,3,4,1
UADAQFEE:UTaU_6AT_M3.Chip3,-5,-1,0
UADAQFEE:UTaU_6AT_M4.Chip0,-1,-7,0
UADAQFEE:UTaU_6AT_M4.Chip1,-2,-3,0
UADAQFEE:UTaU_6AT_M4.Chip2,-3,-1,0
UADAQFEE:UTaU_6AT_M4.Chip3,-1,2,0
UADAQFEE:UTaU_6AT_S1.Chip0,-2,-2,0
UADAQFEE:UTaU_6AT_S1.Chip1,-2,-2,0
UADAQFEE:UTaU_6AT_S1.Chip2,0,0,0
UADAQFEE:UTaU_6AT_S1.Chip3,-4,-2,0
UADAQFEE:UTaU_6AT_S2.Chip0,3,5,0
UADAQFEE:UTaU_6AT_S2.Chip1,3,3,0
UADAQFEE:UTaU_6AT_S2.Chip2,-1,0,0
UADAQFEE:UTaU_6AT_S2.Chip3,-3,1,0
UADAQFEE:UTaU_6AT_S3.Chip0,-2,-3,0
UADAQFEE:UTaU_6AT_S3.Chip1,-1,-1,0
UADAQFEE:UTaU_6AT_S3.Chip2,2,2,0
UADAQFEE:UTaU_6AT_S3.Chip3,-2,-1,0
UADAQFEE:UTaX_7AT_M1.Chip0,2,2,0
UADAQFEE:UTaX_7AT_M1.Chip1,3,2,0
UADAQFEE:UTaX_7AT_M1.Chip2,1,-5,0
UADAQFEE:UTaX_7AT_M1.Chip3,-1,2,0
UADAQFEE:UTaX_7AT_M2.Chip0,0,-2,0
UADAQFEE:UTaX_7AT_M2.Chip1,-2,-4,0
UADAQFEE:UTaX_7AT_M2.Chip2,2,-1,0
UADAQFEE:UTaX_7AT_M2.Chip3,2,3,0
UADAQFEE:UTaX_7AT_M3.Chip0,-8,-5,0
UADAQFEE:UTaX_7AT_M3.Chip1,0,-1,0
UADAQFEE:UTaX_7AT_M3.Chip2,-1,-1,0
UADAQFEE:UTaX_7AT_M3.Chip3,1,4,0
UADAQFEE:UTaX_7AT_M4.Chip0,-1,-3,0
UADAQFEE:UTaX_7AT_M4.Chip1,-2,1,0
UADAQFEE:UTaX_7AT_M4.Chip2,1,0,0
UADAQFEE:UTaX_7AT_M4.Chip3,-3,-2,0
UADAQFEE:UTaX_7AT_S1.Chip0,0,1,0
UADAQFEE:UTaX_7AT_S1.Chip1,-1,-5,0
UADAQFEE:UTaX_7AT_S1.Chip2,-4,-2,0
UADAQFEE:UTaX_7AT_S1.Chip3,2,0,0
UADAQFEE:UTaX_7AT_S2.Chip0,1,0,0
UADAQFEE:UTaX_7AT_S2.Chip1,1,1,0
UADAQFEE:UTaX_7AT_S2.Chip2,1,2,0
UADAQFEE:UTaX_7AT_S2.Chip3,1,-1,0
UADAQFEE:UTaX_7AT_S3.Chip0,0,2,0
UADAQFEE:UTaX_7AT_S3.Chip1,1,0,0
UADAQFEE:UTaX_7AT_S3.Chip2,1,0,0
UADAQFEE:UTaX_7AT_S3.Chip3,1,0,0
UADAQFEE:UTaX_8AT_M1.Chip0,1,0,0
UADAQFEE:UTaX_8AT_M1.Chip1,-3,-2,0
UADAQFEE:UTaX_8AT_M1.Chip2,-2,-4,0
UADAQFEE:UTaX_8AT_M1.Chip3,0,0,0
UADAQFEE:UTaX_8AT_M3.Chip0,-12,-15,0
UADAQFEE:UTaX_8AT_M3.Chip1,1,2,0
UADAQFEE:UTaX_8AT_M3.Chip2,-3,-4,0
UADAQFEE:UTaX_8AT_M3.Chip3,3,5,0
UADAQFEE:UTaX_8AT_M4.Chip0,4,2,0
UADAQFEE:UTaX_8AT_M4.Chip1,2,3,0
UADAQFEE:UTaX_8AT_M4.Chip2,0,1,0
UADAQFEE:UTaX_8AT_M4.Chip3,-3,-2,0
UADAQFEE:UTaX_8AT_S1.Chip0,2,-6,0
UADAQFEE:UTaX_8AT_S1.Chip1,1,1,0
UADAQFEE:UTaX_8AT_S1.Chip2,-1,-1,0
UADAQFEE:UTaX_8AT_S1.Chip3,-1,-2,0
UADAQFEE:UTaX_8AT_S2.Chip0,1,-2,0
UADAQFEE:UTaX_8AT_S2.Chip1,-2,1,0
UADAQFEE:UTaX_8AT_S2.Chip2,2,1,0
UADAQFEE:UTaX_8AT_S2.Chip3,-2,2,0
UADAQFEE:UTaX_8AT_S3.Chip0,1,0,0
UADAQFEE:UTaX_8AT_S3.Chip1,-5,-8,0
UADAQFEE:UTaX_8AT_S3.Chip2,1,0,0
UADAQFEE:UTaX_8AT_S3.Chip3,-4,-4,0
UADAQFEE:UTaU_7AT_M1.Chip0,-3,-4,0
UADAQFEE:UTaU_7AT_M1.Chip1,0,-2,0
UADAQFEE:UTaU_7AT_M1.Chip2,-1,2,0
UADAQFEE:UTaU_7AT_M1.Chip3,-1,-1,0
UADAQFEE:UTaU_7AT_M2.Chip0,2,1,0
UADAQFEE:UTaU_7AT_M2.Chip1,1,-3,0
UADAQFEE:UTaU_7AT_M2.Chip2,3,3,0
UADAQFEE:UTaU_7AT_M2.Chip3,0,1,0
UADAQFEE:UTaU_7AT_M3.Chip0,3,3,0
UADAQFEE:UTaU_7AT_M3.Chip1,4,3,0
UADAQFEE:UTaU_7AT_M3.Chip2,0,1,0
UADAQFEE:UTaU_7AT_M3.Chip3,-6,-10,0
UADAQFEE:UTaU_7AT_M4.Chip0,2,0,0
UADAQFEE:UTaU_7AT_M4.Chip1,2,2,0
UADAQFEE:UTaU_7AT_M4.Chip2,0,1,0
UADAQFEE:UTaU_7AT_M4.Chip3,-6,2,0
UADAQFEE:UTaU_7AT_S1.Chip0,1,2,0
UADAQFEE:UTaU_7AT_S1.Chip1,-4,-4,0
UADAQFEE:UTaU_7AT_S1.Chip2,4,2,0
UADAQFEE:UTaU_7AT_S1.Chip3,0,2,0
UADAQFEE:UTaU_7AT_S2.Chip0,-4,-2,0
UADAQFEE:UTaU_7AT_S2.Chip1,3,2,1
UADAQFEE:UTaU_7AT_S2.Chip2,-7,-4,0
UADAQFEE:UTaU_7AT_S2.Chip3,-1,-2,0
UADAQFEE:UTaU_7AT_S3.Chip0,-2,-2,0
UADAQFEE:UTaU_7AT_S3.Chip1,0,-2,0
UADAQFEE:UTaU_7AT_S3.Chip2,-4,0,0
UADAQFEE:UTaU_7AT_S3.Chip3,1,-4,0
UADAQFEE:UTaU_8AT_M1.Chip0,0,-1,0
UADAQFEE:UTaU_8AT_M1.Chip1,1,-1,0
UADAQFEE:UTaU_8AT_M1.Chip2,2,-1,0
UADAQFEE:UTaU_8AT_M1.Chip3,-1,-4,0
UADAQFEE:UTaU_8AT_M3.Chip0,-3,-3,0
UADAQFEE:UTaU_8AT_M3.Chip1,-6,-4,0
UADAQFEE:UTaU_8AT_M3.Chip2,5,0,0
UADAQFEE:UTaU_8AT_M3.Chip3,1,0,0
UADAQFEE:UTaU_8AT_M4.Chip0,1,4,0
UADAQFEE:UTaU_8AT_M4.Chip1,-2,0,0
UADAQFEE:UTaU_8AT_M4.Chip2,0,1,0
UADAQFEE:UTaU_8AT_M4.Chip3,-1,0,0
UADAQFEE:UTaU_8AT_S1.Chip0,-1,-5,0
UADAQFEE:UTaU_8AT_S1.Chip1,1,3,0
UADAQFEE:UTaU_8AT_S1.Chip2,1,1,0
UADAQFEE:UTaU_8AT_S1.Chip3,-1,0,1
UADAQFEE:UTaU_8AT_S2.Chip0,-1,0,0
UADAQFEE:UTaU_8AT_S2.Chip1,-4,-7,0
UADAQFEE:UTaU_8AT_S2.Chip2,2,2,0
UADAQFEE:UTaU_8AT_S2.Chip3,-2,-8,0
UADAQFEE:UTaU_8AT_S3.Chip0,-4,-6,0
UADAQFEE:UTaU_8AT_S3.Chip1,1,-2,0
UADAQFEE:UTaU_8AT_S3.Chip2,-2,-1,0
UADAQFEE:UTaU_8AT_S3.Chip3,2,2,0
UADAQFEE:UTaX_1AB_M1E.Chip0,-1,-1,0
UADAQFEE:UTaX_1AB_M1E.Chip1,-2,1,0
UADAQFEE:UTaX_1AB_M1E.Chip2,-2,-2,0
UADAQFEE:UTaX_1AB_M1E.Chip3,-1,1,0
UADAQFEE:UTaX_1AB_M1W.Chip0,3,2,0
UADAQFEE:UTaX_1AB_M1W.Chip1,-12,-18,0
UADAQFEE:UTaX_1AB_M1W.Chip2,-1,-4,0
UADAQFEE:UTaX_1AB_M1W.Chip3,0,-1,0
UADAQFEE:UTaX_1AB_M2.Chip0,-2,0,0
UADAQFEE:UTaX_1AB_M2.Chip1,1,2,0
UADAQFEE:UTaX_1AB_M2.Chip2,1,-5,0
UADAQFEE:UTaX_1AB_M2.Chip3,2,2,0
UADAQFEE:UTaX_1AB_M3.Chip0,-4,-9,0
UADAQFEE:UTaX_1AB_M3.Chip1,2,1,0
UADAQFEE:UTaX_1AB_M3.Chip2,-5,-2,0
UADAQFEE:UTaX_1AB_M3.Chip3,-2,2,0
UADAQFEE:UTaX_1AB_M4.Chip0,-4,-2,0
UADAQFEE:UTaX_1AB_M4.Chip1,-3,1,0
UADAQFEE:UTaX_1AB_M4.Chip2,-2,-4,0
UADAQFEE:UTaX_1AB_M4.Chip3,-1,2,0
UADAQFEE:UTaX_1AB_S1E.Chip0,-2,2,0
UADAQFEE:UTaX_1AB_S1E.Chip1,0,1,0
UADAQFEE:UTaX_1AB_S1E.Chip2,-2,2,0
UADAQFEE:UTaX_1AB_S1E.Chip3,2,3,0
UADAQFEE:UTaX_1AB_S1W.Chip0,0,2,0
UADAQFEE:UTaX_1AB_S1W.Chip1,3,5,0
UADAQFEE:UTaX_1AB_S1W.Chip2,0,-3,-1
UADAQFEE:UTaX_1AB_S1W.Chip3,2,1,0
UADAQFEE:UTaX_1AB_S2E.Chip0,-5,-7,0
UADAQFEE:UTaX_1AB_S2E.Chip1,3,3,0
UADAQFEE:UTaX_1AB_S2E.Chip2,-2,-3,0
UADAQFEE:UTaX_1AB_S2E.Chip3,0,-1,0
UADAQFEE:UTaX_1AB_S2W.Chip0,-3,-2,0
UADAQFEE:UTaX_1AB_S2W.Chip1,-2,1,1
UADAQFEE:UTaX_1AB_S2W.Chip2,2,-1,0
UADAQFEE:UTaX_1AB_S2W.Chip3,0,-3,0
UADAQFEE:UTaX_1AB_S3.Chip0,0,2,0
UADAQFEE:UTaX_1AB_S3.Chip1,2,3,0
UADAQFEE:UTaX_1AB_S3.Chip2,1,-3,0
UADAQFEE:UTaX_1AB_S3.Chip3,2,1,0
UADAQFEE:UTaX_1AB_S4.Chip0,1,1,0
UADAQFEE:UTaX_1AB_S4.Chip1,0,1,0
UADAQFEE:UTaX_1AB_S4.Chip2,-1,1,0
UADAQFEE:UTaX_1AB_S4.Chip3,-1,-2,0
UADAQFEE:UTaX_2AB_M1E.Chip0,-3,-1,0
UADAQFEE:UTaX_2AB_M1E.Chip1,3,5,0
UADAQFEE:UTaX_2AB_M1E.Chip2,2,0,0
UADAQFEE:UTaX_2AB_M1E.Chip3,-2,-3,0
UADAQFEE:UTaX_2AB_M1W.Chip0,-2,-2,0
UADAQFEE:UTaX_2AB_M1W.Chip1,0,2,0
UADAQFEE:UTaX_2AB_M1W.Chip2,-2,2,0
UADAQFEE:UTaX_2AB_M1W.Chip3,1,-6,0
UADAQFEE:UTaX_2AB_M2.Chip0,-5,-6,0
UADAQFEE:UTaX_2AB_M2.Chip1,3,3,1
UADAQFEE:UTaX_2AB_M2.Chip2,0,1,0
UADAQFEE:UTaX_2AB_M2.Chip3,-2,0,0
UADAQFEE:UTaX_2AB_M3.Chip0,2,2,0
UADAQFEE:UTaX_2AB_M3.Chip1,1,2,0
UADAQFEE:UTaX_2AB_M3.Chip2,0,1,0
UADAQFEE:UTaX_2AB_M3.Chip3,2,1,0
UADAQFEE:UTaX_2AB_M4.Chip0,-3,-2,0
UADAQFEE:UTaX_2AB_M4.Chip1,-1,0,0
UADAQFEE:UTaX_2AB_M4.Chip2,0,1,0
UADAQFEE:UTaX_2AB_M4.Chip3,-1,0,0
UADAQFEE:UTaX_2AB_S1E.Chip0,0,1,0
UADAQFEE:UTaX_2AB_S1E.Chip1,2,1,0
UADAQFEE:UTaX_2AB_S1E.Chip2,2,-1,0
UADAQFEE:UTaX_2AB_S1E.Chip3,1,0,0
UADAQFEE:UTaX_2AB_S1W.Chip0,0,0,0
UADAQFEE:UTaX_2AB_S1W.Chip1,1,2,0
UADAQFEE:UTaX_2AB_S1W.Chip2,-1,-3,0
UADAQFEE:UTaX_2AB_S1W.Chip3,-3,-3,0
UADAQFEE:UTaX_2AB_S2.Chip0,0,-1,0
UADAQFEE:UTaX_2AB_S2.Chip1,0,-1,0
UADAQFEE:UTaX_2AB_S2.Chip2,0,3,0
UADAQFEE:UTaX_2AB_S2.Chip3,-3,-1,0
UADAQFEE:UTaX_2AB_S3.Chip0,-2,-1,0
UADAQFEE:UTaX_2AB_S3.Chip1,4,3,0
UADAQFEE:UTaX_2AB_S3.Chip2,-2,-2,0
UADAQFEE:UTaX_2AB_S3.Chip3,0,3,0
UADAQFEE:UTaX_3AB_M1.Chip0,3,3,0
UADAQFEE:UTaX_3AB_M1.Chip1,2,2,0
UADAQFEE:UTaX_3AB_M1.Chip2,3,3,0
UADAQFEE:UTaX_3AB_M1.Chip3,3,1,0
UADAQFEE:UTaX_3AB_M2.Chip0,3,-3,0
UADAQFEE:UTaX_3AB_M2.Chip1,-2,-2,0
UADAQFEE:UTaX_3AB_M2.Chip2,-1,-1,0
UADAQFEE:UTaX_3AB_M2.Chip3,0,1,1
UADAQFEE:UTaX_3AB_M3.Chip0,2,-1,0
UADAQFEE:UTaX_3AB_M3.Chip1,0,1,0
UADAQFEE:UTaX_3AB_M3.Chip2,2,2,0
UADAQFEE:UTaX_3AB_M3.Chip3,1,-1,0
UADAQFEE:UTaX_3AB_M4.Chip0,-2,-2,0
UADAQFEE:UTaX_3AB_M4.Chip1,2,-2,0
UADAQFEE:UTaX_3AB_M4.Chip2,-2,-2,0
UADAQFEE:UTaX_3AB_M4.Chip3,0,3,0
UADAQFEE:UTaX_3AB_S1.Chip0,-2,-3,0
UADAQFEE:UTaX_3AB_S1.Chip1,-2,-2,0
UADAQFEE:UTaX_3AB_S1.Chip2,0,-3,0
UADAQFEE:UTaX_3AB_S1.Chip3,-1,1,0
UADAQFEE:UTaX_3AB_S2.Chip0,1,-3,0
UADAQFEE:UTaX_3AB_S2.Chip1,1,-2,0
UADAQFEE:UTaX_3AB_S2.Chip2,1,-3,0
UADAQFEE:UTaX_3AB_S2.Chip3,1,-1,0
UADAQFEE:UTaX_3AB_S3.Chip0,-1,1,0
UADAQFEE:UTaX_3AB_S3.Chip1,2,0,0
UADAQFEE:UTaX_3AB_S3.Chip2,1,2,0
UADAQFEE:UTaX_3AB_S3.Chip3,2,-3,0
UADAQFEE:UTaU_1AB_M1W.Chip0,2,1,0
UADAQFEE:UTaU_1AB_M1W.Chip1,1,-2,0
UADAQFEE:UTaU_1AB_M1W.Chip2,-4,-3,0
UADAQFEE:UTaU_1AB_M1W.Chip3,-3,-1,0
UADAQFEE:UTaU_1AB_M2.Chip0,-1,-1,0
UADAQFEE:UTaU_1AB_M2.Chip1,-4,-3,0
UADAQFEE:UTaU_1AB_M2.Chip2,1,0,0
UADAQFEE:UTaU_1AB_M2.Chip3,-1,-3,0
UADAQFEE:UTaU_1AB_M3.Chip0,-2,1,0
UADAQFEE:UTaU_1AB_M3.Chip1,-2,0,0
UADAQFEE:UTaU_1AB_M3.Chip2,-1,-5,0
UADAQFEE:UTaU_1AB_M3.Chip3,1,-1,0
UADAQFEE:UTaU_1AB_M4.Chip0,0,-1,0
UADAQFEE:UTaU_1AB_M4.Chip1,0,1,0
UADAQFEE:UTaU_1AB_M4.Chip2,0,1,0
UADAQFEE:UTaU_1AB_M4.Chip3,-3,2,0
UADAQFEE:UTaU_1AB_S1E.Chip0,-2,1,0
UADAQFEE:UTaU_1AB_S1E.Chip1,3,1,0
UADAQFEE:UTaU_1AB_S1E.Chip2,-1,1,0
UADAQFEE:UTaU_1AB_S1E.Chip3,2,3,0
UADAQFEE:UTaU_1AB_S1W.Chip0,3,-2,0
UADAQFEE:UTaU_1AB_S1W.Chip1,-6,-6,0
UADAQFEE:UTaU_1AB_S1W.Chip2,-4,-2,0
UADAQFEE:UTaU_1AB_S1W.Chip3,0,1,0
UADAQFEE:UTaU_1AB_S2E.Chip0,-4,0,0
UADAQFEE:UTaU_1AB_S2E.Chip1,1,-1,0
UADAQFEE:UTaU_1AB_S2E.Chip2,0,2,0
UADAQFEE:UTaU_1AB_S2E.Chip3,-1,-1,0
UADAQFEE:UTaU_1AB_S2W.Chip0,0,-1,0
UADAQFEE:UTaU_1AB_S2W.Chip1,1,2,0
UADAQFEE:UTaU_1AB_S2W.Chip2,-4,-6,0
UADAQFEE:UTaU_1AB_S2W.Chip3,-3,-2,0
UADAQFEE:UTaU_1AB_S3.Chip0,-2,-2,0
UADAQFEE:UTaU_1AB_S3.Chip1,2,0,0
UADAQFEE:UTaU_1AB_S3.Chip2,-1,-3,0
UADAQFEE:UTaU_1AB_S3.Chip3,0,0,0
UADAQFEE:UTaU_1AB_S4.Chip0,0,-2,0
UADAQFEE:UTaU_1AB_S4.Chip1,-2,-1,0
UADAQFEE:UTaU_1AB_S4.Chip2,-2,0,0
UADAQFEE:UTaU_1AB_S4.Chip3,-2,1,0
UADAQFEE:UTaU_2AB_M1E.Chip0,-3,0,0
UADAQFEE:UTaU_2AB_M1E.Chip1,-2,1,0
UADAQFEE:UTaU_2AB_M1E.Chip2,-1,2,0
UADAQFEE:UTaU_2AB_M1E.Chip3,1,-1,0
UADAQFEE:UTaU_2AB_M1W.Chip0,-1,-2,0
UADAQFEE:UTaU_2AB_M1W.Chip1,-1,1,0
UADAQFEE:UTaU_2AB_M1W.Chip2,-8,-2,0
UADAQFEE:UTaU_2AB_M1W.Chip3,4,4,0
UADAQFEE:UTaU_2AB_M2.Chip0,-4,-5,0
UADAQFEE:UTaU_2AB_M2.Chip1,-1,-1,0
UADAQFEE:UTaU_2AB_M2.Chip2,1,-1,0
UADAQFEE:UTaU_2AB_M2.Chip3,0,2,0
UADAQFEE:UTaU_2AB_M3.Chip0,-1,-1,0
UADAQFEE:UTaU_2AB_M3.Chip1,1,1,0
UADAQFEE:UTaU_2AB_M3.Chip2,-3,0,0
UADAQFEE:UTaU_2AB_M3.Chip3,-2,2,0
UADAQFEE:UTaU_2AB_M4.Chip0,2,-2,0
UADAQFEE:UTaU_2AB_M4.Chip1,1,-2,0
UADAQFEE:UTaU_2AB_M4.Chip2,-3,-1,0
UADAQFEE:UTaU_2AB_M4.Chip3,-2,-2,0
UADAQFEE:UTaU_2AB_S1E.Chip0,-3,0,1
UADAQFEE:UTaU_2AB_S1E.Chip1,5,3,0
UADAQFEE:UTaU_2AB_S1E.Chip2,2,3,0
UADAQFEE:UTaU_2AB_S1E.Chip3,0,-3,0
UADAQFEE:UTaU_2AB_S1W.Chip0,3,-2,0
UADAQFEE:UTaU_2AB_S1W.Chip1,4,3,0
UADAQFEE:UTaU_2AB_S1W.Chip2,0,-1,0
UADAQFEE:UTaU_2AB_S1W.Chip3,4,-1,0
UADAQFEE:UTaU_2AB_S2.Chip0,1,1,0
UADAQFEE:UTaU_2AB_S2.Chip1,-7,0,0
UADAQFEE:UTaU_2AB_S2.Chip2,0,1,0
UADAQFEE:UTaU_2AB_S2.Chip3,-3,0,0
UADAQFEE:UTaU_2AB_S3.Chip0,4,1,0
UADAQFEE:UTaU_2AB_S3.Chip1,0,2,0
UADAQFEE:UTaU_2AB_S3.Chip2,-1,0,0
UADAQFEE:UTaU_2AB_S3.Chip3,1,1,0
UADAQFEE:UTaU_3AB_M1.Chip0,-1,-4,0
UADAQFEE:UTaU_3AB_M1.Chip1,3,3,0
UADAQFEE:UTaU_3AB_M1.Chip2,2,1,0
UADAQFEE:UTaU_3AB_M1.Chip3,-1,0,0
UADAQFEE:UTaU_3AB_M2.Chip1,1,1,0
UADAQFEE:UTaU_3AB_M2.Chip2,3,4,0
UADAQFEE:UTaU_3AB_M2.Chip3,-3,-2,0
UADAQFEE:UTaU_3AB_M3.Chip0,3,3,0
UADAQFEE:UTaU_3AB_M3.Chip1,1,1,0
UADAQFEE:UTaU_3AB_M3.Chip2,-5,-3,0
UADAQFEE:UTaU_3AB_M3.Chip3,1,-2,0
UADAQFEE:UTaU_3AB_M4.Chip0,-2,0,0
UADAQFEE:UTaU_3AB_M4.Chip1,-2,2,0
UADAQFEE:UTaU_3AB_M4.Chip2,-5,-4,0
UADAQFEE:UTaU_3AB_M4.Chip3,0,2,0
UADAQFEE:UTaU_3AB_S1.Chip0,2,0,0
UADAQFEE:UTaU_3AB_S1.Chip1,3,1,0
UADAQFEE:UTaU_3AB_S1.Chip2,0,-5,0
UADAQFEE:UTaU_3AB_S1.Chip3,1,-4,0
UADAQFEE:UTaU_3AB_S2.Chip0,0,-2,0
UADAQFEE:UTaU_3AB_S2.Chip1,3,2,0
UADAQFEE:UTaU_3AB_S2.Chip2,-2,-2,1
UADAQFEE:UTaU_3AB_S2.Chip3,0,2,0
UADAQFEE:UTaU_3AB_S3.Chip0,-1,-1,0
UADAQFEE:UTaU_3AB_S3.Chip1,0,1,0
UADAQFEE:UTaU_3AB_S3.Chip2,0,1,0
UADAQFEE:UTaU_3AB_S3.Chip3,2,1,0
UADAQFEE:UTaX_4AB_M1.Chip0,1,0,0
UADAQFEE:UTaX_4AB_M1.Chip1,-2,-1,0
UADAQFEE:UTaX_4AB_M1.Chip2,0,2,0
UADAQFEE:UTaX_4AB_M1.Chip3,1,0,0
UADAQFEE:UTaX_4AB_M2.Chip0,0,2,0
UADAQFEE:UTaX_4AB_M2.Chip1,-1,1,0
UADAQFEE:UTaX_4AB_M2.Chip2,0,-2,0
UADAQFEE:UTaX_4AB_M2.Chip3,2,1,0
UADAQFEE:UTaX_4AB_M3.Chip0,-2,-3,0
UADAQFEE:UTaX_4AB_M3.Chip1,-3,-3,0
UADAQFEE:UTaX_4AB_M3.Chip2,1,-4,0
UADAQFEE:UTaX_4AB_M3.Chip3,2,2,0
UADAQFEE:UTaX_4AB_M4.Chip0,4,2,0
UADAQFEE:UTaX_4AB_M4.Chip1,-2,-2,0
UADAQFEE:UTaX_4AB_M4.Chip2,2,-1,0
UADAQFEE:UTaX_4AB_M4.Chip3,2,2,0
UADAQFEE:UTaX_4AB_S1.Chip0,3,0,0
UADAQFEE:UTaX_4AB_S1.Chip1,2,2,0
UADAQFEE:UTaX_4AB_S1.Chip2,0,0,0
UADAQFEE:UTaX_4AB_S1.Chip3,3,0,0
UADAQFEE:UTaX_4AB_S2.Chip0,1,-1,0
UADAQFEE:UTaX_4AB_S2.Chip1,1,1,0
UADAQFEE:UTaX_4AB_S2.Chip2,1,-1,0
UADAQFEE:UTaX_4AB_S2.Chip3,-4,-4,0
UADAQFEE:UTaX_4AB_S3.Chip0,-2,3,1
UADAQFEE:UTaX_4AB_S3.Chip1,1,-2,0
UADAQFEE:UTaX_4AB_S3.Chip2,-3,-4,0
UADAQFEE:UTaX_4AB_S3.Chip3,3,2,0
UADAQFEE:UTaX_5AB_M1.Chip0,1,1,0
UADAQFEE:UTaX_5AB_M1.Chip1,3,1,1
UADAQFEE:UTaX_5AB_M1.Chip2,1,0,0
UADAQFEE:UTaX_5AB_M1.Chip3,2,3,0
UADAQFEE:UTaX_5AB_M2.Chip0,-1,-1,0
UADAQFEE:UTaX_5AB_M2.Chip1,-1,-2,0
UADAQFEE:UTaX_5AB_M2.Chip2,-2,0,0
UADAQFEE:UTaX_5AB_M2.Chip3,2,2,0
UADAQFEE:UTaX_5AB_M3.Chip0,1,2,0
UADAQFEE:UTaX_5AB_M3.Chip1,4,2,1
UADAQFEE:UTaX_5AB_M3.Chip2,3,2,0
UADAQFEE:UTaX_5AB_M3.Chip3,3,-1,0
UADAQFEE:UTaX_5AB_M4.Chip0,3,1,1
UADAQFEE:UTaX_5AB_M4.Chip1,4,1,0
UADAQFEE:UTaX_5AB_M4.Chip2,-3,-1,0
UADAQFEE:UTaX_5AB_M4.Chip3,1,-1,0
UADAQFEE:UTaX_5AB_S1.Chip0,-1,-1,0
UADAQFEE:UTaX_5AB_S1.Chip1,-2,-3,1
UADAQFEE:UTaX_5AB_S1.Chip2,4,3,0
UADAQFEE:UTaX_5AB_S1.Chip3,-2,2,0
UADAQFEE:UTaX_5AB_S2.Chip0,0,0,0
UADAQFEE:UTaX_5AB_S2.Chip1,1,-1,0
UADAQFEE:UTaX_5AB_S2.Chip2,4,3,0
UADAQFEE:UTaX_5AB_S2.Chip3,1,2,0
UADAQFEE:UTaX_5AB_S3.Chip0,0,2,0
UADAQFEE:UTaX_5AB_S3.Chip1,-1,0,0
UADAQFEE:UTaX_5AB_S3.Chip2,0,-1,0
UADAQFEE:UTaX_5AB_S3.Chip3,0,1,0
UADAQFEE:UTaX_6AB_M1.Chip0,3,3,0
UADAQFEE:UTaX_6AB_M1.Chip1,-1,-3,0
UADAQFEE:UTaX_6AB_M1.Chip2,2,1,0
UADAQFEE:UTaX_6AB_M1.Chip3,2,1,0
UADAQFEE:UTaX_6AB_M2.Chip0,2,0,0
UADAQFEE:UTaX_6AB_M2.Chip1,-3,-3,0
UADAQFEE:UTaX_6AB_M2.Chip2,4,2,0
UADAQFEE:UTaX_6AB_M2.Chip3,2,1,0
UADAQFEE:UTaX_6AB_M3.Chip0,2,1,0
UADAQFEE:UTaX_6AB_M3.Chip1,-5,-12,1
UADAQFEE:UTaX_6AB_M3.Chip2,2,-1,0
UADAQFEE:UTaX_6AB_M3.Chip3,-1,0,0
UADAQFEE:UTaX_6AB_M4.Chip0,0,-1,0
UADAQFEE:UTaX_6AB_M4.Chip1,-6,-4,0
UADAQFEE:UTaX_6AB_M4.Chip2,2,3,0
UADAQFEE:UTaX_6AB_M4.Chip3,-5,1,0
UADAQFEE:UTaX_6AB_S1.Chip0,-1,-2,0
UADAQFEE:UTaX_6AB_S1.Chip1,0,1,0
UADAQFEE:UTaX_6AB_S1.Chip2,0,0,1
UADAQFEE:UTaX_6AB_S2.Chip0,2,4,0
UADAQFEE:UTaX_6AB_S2.Chip1,3,-1,0
UADAQFEE:UTaX_6AB_S2.Chip2,-6,-9,0
UADAQFEE:UTaX_6AB_S2.Chip3,3,1,0
UADAQFEE:UTaX_6AB_S3.Chip0,1,-6,0
UADAQFEE:UTaX_6AB_S3.Chip1,2,0,0
UADAQFEE:UTaX_6AB_S3.Chip2,1,-3,0
UADAQFEE:UTaX_6AB_S3.Chip3,0,-3,0
UADAQFEE:UTaU_4AB_M1.Chip0,0,1,0
UADAQFEE:UTaU_4AB_M1.Chip1,4,3,1
UADAQFEE:UTaU_4AB_M1.Chip2,-4,-2,0
UADAQFEE:UTaU_4AB_M1.Chip3,2,-1,0
UADAQFEE:UTaU_4AB_M2.Chip0,1,0,0
UADAQFEE:UTaU_4AB_M2.Chip1,-2,-1,0
UADAQFEE:UTaU_4AB_M2.Chip2,1,-1,0
UADAQFEE:UTaU_4AB_M2.Chip3,-2,-1,0
UADAQFEE:UTaU_4AB_M3.Chip0,3,0,0
UADAQFEE:UTaU_4AB_M3.Chip1,-2,2,0
UADAQFEE:UTaU_4AB_M3.Chip2,4,1,0
UADAQFEE:UTaU_4AB_M3.Chip3,0,-1,0
UADAQFEE:UTaU_4AB_M4.Chip0,3,3,0
UADAQFEE:UTaU_4AB_M4.Chip1,-2,-3,0
UADAQFEE:UTaU_4AB_M4.Chip2,-2,1,0
UADAQFEE:UTaU_4AB_M4.Chip3,-1,-1,0
UADAQFEE:UTaU_4AB_S1.Chip0,-6,-1,0
UADAQFEE:UTaU_4AB_S1.Chip1,1,-2,1
UADAQFEE:UTaU_4AB_S1.Chip2,1,-2,0
UADAQFEE:UTaU_4AB_S1.Chip3,1,3,0
UADAQFEE:UTaU_4AB_S2.Chip0,0,-2,0
UADAQFEE:UTaU_4AB_S2.Chip1,1,0,0
UADAQFEE:UTaU_4AB_S2.Chip2,0,2,0
UADAQFEE:UTaU_4AB_S2.Chip3,-3,0,0
UADAQFEE:UTaU_4AB_S3.Chip0,3,2,0
UADAQFEE:UTaU_4AB_S3.Chip1,-1,-2,0
UADAQFEE:UTaU_4AB_S3.Chip2,0,1,0
UADAQFEE:UTaU_4AB_S3.Chip3,1,-2,0
UADAQFEE:UTaU_5AB_M1.Chip0,-3,-2,0
UADAQFEE:UTaU_5AB_M1.Chip1,2,-3,1
UADAQFEE:UTaU_5AB_M1.Chip2,3,2,0
UADAQFEE:UTaU_5AB_M1.Chip3,-1,-1,0
UADAQFEE:UTaU_5AB_M2.Chip0,-1,0,0
UADAQFEE:UTaU_5AB_M2.Chip1,-3,-1,0
UADAQFEE:UTaU_5AB_M2.Chip2,3,2,0
UADAQFEE:UTaU_5AB_M2.Chip3,2,3,0
UADAQFEE:UTaU_5AB_M3.Chip0,4,1,0
UADAQFEE:UTaU_5AB_M3.Chip1,2,1,0
UADAQFEE:UTaU_5AB_M3.Chip2,-1,0,0
UADAQFEE:UTaU_5AB_M3.Chip3,-1,0,0
UADAQFEE:UTaU_5AB_M4.Chip0,2,3,0
UADAQFEE:UTaU_5AB_M4.Chip1,-4,-3,0
UADAQFEE:UTaU_5AB_M4.Chip2,-1,1,0
UADAQFEE:UTaU_5AB_M4.Chip3,2,2,0
UADAQFEE:UTaU_5AB_S1.Chip0,0,-2,0
UADAQFEE:UTaU_5AB_S1.Chip1,-1,-4,0
UADAQFEE:UTaU_5AB_S1.Chip2,3,3,0
UADAQFEE:UTaU_5AB_S1.Chip3,1,3,0
UADAQFEE:UTaU_5AB_S2.Chip0,3,0,0
UADAQFEE:UTaU_5AB_S2.Chip1,-1,-2,0
UADAQFEE:UTaU_5AB_S2.Chip2,-2,-2,0
UADAQFEE:UTaU_5AB_S2.Chip3,-1,-1,0
UADAQFEE:UTaU_6AB_M1.Chip0,3,-2,0
UADAQFEE:UTaU_6AB_M1.Chip1,1,2,0
UADAQFEE:UTaU_6AB_M1.Chip2,-2,-1,0
UADAQFEE:UTaU_6AB_M1.Chip3,1,3,1
UADAQFEE:UTaU_6AB_M2.Chip0,-3,-3,0
UADAQFEE:UTaU_6AB_M2.Chip1,4,1,0
UADAQFEE:UTaU_6AB_M2.Chip2,-3,-4,0
UADAQFEE:UTaU_6AB_M2.Chip3,1,2,0
UADAQFEE:UTaU_6AB_M3.Chip0,2,2,0
UADAQFEE:UTaU_6AB_M3.Chip1,-2,-2,0
UADAQFEE:UTaU_6AB_M3.Chip2,-3,-5,0
UADAQFEE:UTaU_6AB_M3.Chip3,-5,-2,0
UADAQFEE:UTaU_6AB_M4.Chip0,-3,1,0
UADAQFEE:UTaU_6AB_M4.Chip1,0,-2,0
UADAQFEE:UTaU_6AB_M4.Chip2,1,-1,0
UADAQFEE:UTaU_6AB_M4.Chip3,-5,-7,0
UADAQFEE:UTaU_6AB_S1.Chip0,-5,-3,0
UADAQFEE:UTaU_6AB_S1.Chip1,-4,-2,0
UADAQFEE:UTaU_6AB_S1.Chip2,1,2,0
UADAQFEE:UTaU_6AB_S1.Chip3,2,4,0
UADAQFEE:UTaU_6AB_S2.Chip0,2,1,0
UADAQFEE:UTaU_6AB_S2.Chip1,2,2,0
UADAQFEE:UTaU_6AB_S2.Chip2,0,2,0
UADAQFEE:UTaU_6AB_S2.Chip3,1,4,0
UADAQFEE:UTaU_6AB_S3.Chip0,3,1,0
UADAQFEE:UTaU_6AB_S3.Chip1,-6,-6,0
UADAQFEE:UTaU_6AB_S3.Chip2,0,1,0
UADAQFEE:UTaU_6AB_S3.Chip3,-1,1,0
UADAQFEE:UTaX_7AB_M1.Chip0,1,4,0
UADAQFEE:UTaX_7AB_M1.Chip1,1,-1,0
UADAQFEE:UTaX_7AB_M1.Chip2,4,4,0
UADAQFEE:UTaX_7AB_M1.Chip3,-4,-2,0
UADAQFEE:UTaX_7AB_M2.Chip0,-2,3,0
UADAQFEE:UTaX_7AB_M2.Chip1,-3,-4,0
UADAQFEE:UTaX_7AB_M2.Chip2,-2,3,0
UADAQFEE:UTaX_7AB_M2.Chip3,0,-3,0
UADAQFEE:UTaX_7AB_M3.Chip0,1,1,0
UADAQFEE:UTaX_7AB_M3.Chip1,1,-1,0
UADAQFEE:UTaX_7AB_M3.Chip2,2,0,0
UADAQFEE:UTaX_7AB_M3.Chip3,2,1,0
UADAQFEE:UTaX_7AB_M4.Chip0,1,-2,0
UADAQFEE:UTaX_7AB_M4.Chip1,-5,-5,0
UADAQFEE:UTaX_7AB_M4.Chip2,-4,-4,0
UADAQFEE:UTaX_7AB_M4.Chip3,-3,1,0
UADAQFEE:UTaX_7AB_S1.Chip0,-2,-2,0
UADAQFEE:UTaX_7AB_S1.Chip1,2,4,0
UADAQFEE:UTaX_7AB_S1.Chip2,2,3,0
UADAQFEE:UTaX_7AB_S1.Chip3,-1,-4,0
UADAQFEE:UTaX_7AB_S2.Chip0,-1,-1,0
UADAQFEE:UTaX_7AB_S2.Chip1,2,0,0
UADAQFEE:UTaX_7AB_S2.Chip2,-4,-2,0
UADAQFEE:UTaX_7AB_S2.Chip3,-6,-2,0
UADAQFEE:UTaX_7AB_S3.Chip0,4,-1,0
UADAQFEE:UTaX_7AB_S3.Chip1,0,3,0
UADAQFEE:UTaX_7AB_S3.Chip2,2,1,0
UADAQFEE:UTaX_7AB_S3.Chip3,-2,-3,0
UADAQFEE:UTaX_8AB_M1.Chip0,2,0,0
UADAQFEE:UTaX_8AB_M1.Chip1,1,2,0
UADAQFEE:UTaX_8AB_M1.Chip2,-6,-4,0
UADAQFEE:UTaX_8AB_M1.Chip3,-2,-3,0
UADAQFEE:UTaX_8AB_M2.Chip0,-2,-2,0
UADAQFEE:UTaX_8AB_M2.Chip1,-1,0,0
UADAQFEE:UTaX_8AB_M2.Chip2,3,2,0
UADAQFEE:UTaX_8AB_M2.Chip3,1,2,0
UADAQFEE:UTaX_8AB_M3.Chip0,-3,-1,0
UADAQFEE:UTaX_8AB_M3.Chip1,1,0,0
UADAQFEE:UTaX_8AB_M3.Chip2,-3,0,0
UADAQFEE:UTaX_8AB_M3.Chip3,-1,-4,0
UADAQFEE:UTaX_8AB_M4.Chip0,0,0,0
UADAQFEE:UTaX_8AB_M4.Chip1,1,-3,0
UADAQFEE:UTaX_8AB_M4.Chip2,0,-4,0
UADAQFEE:UTaX_8AB_M4.Chip3,-2,-5,0
UADAQFEE:UTaX_8AB_S1.Chip0,1,-1,0
UADAQFEE:UTaX_8AB_S1.Chip2,3,1,0
UADAQFEE:UTaX_8AB_S2.Chip0,-26,-24,0
UADAQFEE:UTaX_8AB_S2.Chip1,-4,-3,0
UADAQFEE:UTaX_8AB_S2.Chip2,0,-2,0
UADAQFEE:UTaX_8AB_S2.Chip3,1,2,0
UADAQFEE:UTaX_8AB_S3.Chip0,2,3,0
UADAQFEE:UTaX_8AB_S3.Chip1,-2,-1,0
UADAQFEE:UTaX_8AB_S3.Chip2,1,1,0
UADAQFEE:UTaX_8AB_S3.Chip3,0,0,0
UADAQFEE:UTaU_7AB_M1.Chip0,-1,2,0
UADAQFEE:UTaU_7AB_M1.Chip1,1,-1,0
UADAQFEE:UTaU_7AB_M1.Chip2,-7,-4,0
UADAQFEE:UTaU_7AB_M1.Chip3,-1,0,0
UADAQFEE:UTaU_7AB_M2.Chip0,-2,-3,0
UADAQFEE:UTaU_7AB_M2.Chip1,-1,-2,0
UADAQFEE:UTaU_7AB_M2.Chip2,-1,0,0
UADAQFEE:UTaU_7AB_M2.Chip3,0,1,0
UADAQFEE:UTaU_7AB_M3.Chip0,-5,-2,0
UADAQFEE:UTaU_7AB_M3.Chip1,-3,-2,0
UADAQFEE:UTaU_7AB_M3.Chip2,-1,0,0
UADAQFEE:UTaU_7AB_M3.Chip3,0,1,0
UADAQFEE:UTaU_7AB_M4.Chip0,1,0,0
UADAQFEE:UTaU_7AB_M4.Chip1,4,1,0
UADAQFEE:UTaU_7AB_M4.Chip2,-3,-3,0
UADAQFEE:UTaU_7AB_M4.Chip3,1,1,0
UADAQFEE:UTaU_7AB_S1.Chip0,0,1,0
UADAQFEE:UTaU_7AB_S1.Chip1,0,0,0
UADAQFEE:UTaU_7AB_S1.Chip2,-3,-3,0
UADAQFEE:UTaU_7AB_S1.Chip3,-5,-7,0
UADAQFEE:UTaU_7AB_S2.Chip0,-3,-3,0
UADAQFEE:UTaU_7AB_S2.Chip1,2,0,0
UADAQFEE:UTaU_7AB_S2.Chip2,-1,1,0
UADAQFEE:UTaU_7AB_S2.Chip3,1,2,0
UADAQFEE:UTaU_7AB_S3.Chip0,1,-1,0
UADAQFEE:UTaU_7AB_S3.Chip1,0,-1,0
UADAQFEE:UTaU_7AB_S3.Chip2,3,1,0
UADAQFEE:UTaU_7AB_S3.Chip3,2,0,0
UADAQFEE:UTaU_8AB_M1.Chip0,1,-2,0
UADAQFEE:UTaU_8AB_M1.Chip1,2,1,1
UADAQFEE:UTaU_8AB_M1.Chip2,-3,-2,0
UADAQFEE:UTaU_8AB_M1.Chip3,1,-3,0
UADAQFEE:UTaU_8AB_M2.Chip0,1,2,0
UADAQFEE:UTaU_8AB_M2.Chip1,1,2,0
UADAQFEE:UTaU_8AB_M2.Chip2,1,2,0
UADAQFEE:UTaU_8AB_M2.Chip3,-3,-1,0
UADAQFEE:UTaU_8AB_M3.Chip0,3,0,0
UADAQFEE:UTaU_8AB_M3.Chip1,-1,-1,0
UADAQFEE:UTaU_8AB_M3.Chip2,1,0,0
UADAQFEE:UTaU_8AB_M3.Chip3,2,2,0
UADAQFEE:UTaU_8AB_M4.Chip0,0,2,0
UADAQFEE:UTaU_8AB_M4.Chip1,3,0,0
UADAQFEE:UTaU_8AB_M4.Chip2,0,3,0
UADAQFEE:UTaU_8AB_M4.Chip3,1,2,0
UADAQFEE:UTaU_8AB_S1.Chip0,-2,0,0
UADAQFEE:UTaU_8AB_S1.Chip1,4,2,0
UADAQFEE:UTaU_8AB_S1.Chip2,-2,1,0
UADAQFEE:UTaU_8AB_S1.Chip3,2,2,0
UADAQFEE:UTaU_8AB_S2.Chip0,2,2,0
UADAQFEE:UTaU_8AB_S2.Chip1,0,-1,0
UADAQFEE:UTaU_8AB_S2.Chip2,2,3,0
UADAQFEE:UTaU_8AB_S2.Chip3,3,1,0
UADAQFEE:UTaU_8AB_S3.Chip0,-5,-7,0
UADAQFEE:UTaU_8AB_S3.Chip1,1,0,0
UADAQFEE:UTaU_8AB_S3.Chip2,4,4,0
UADAQFEE:UTaU_8AB_S3.Chip3,-2,-2,0
UADAQFEE:UTbV_1AT_M1E.Chip0,-1,-4,0
UADAQFEE:UTbV_1AT_M1E.Chip1,-2,-1,0
UADAQFEE:UTbV_1AT_M1E.Chip2,0,1,0
UADAQFEE:UTbV_1AT_M1E.Chip3,0,-2,0
UADAQFEE:UTbV_1AT_M1W.Chip0,2,1,0
UADAQFEE:UTbV_1AT_M1W.Chip1,3,-1,0
UADAQFEE:UTbV_1AT_M1W.Chip2,0,0,0
UADAQFEE:UTbV_1AT_M1W.Chip3,2,3,0
UADAQFEE:UTbV_1AT_M2.Chip0,-1,-2,0
UADAQFEE:UTbV_1AT_M2.Chip1,-1,-1,0
UADAQFEE:UTbV_1AT_M2.Chip2,1,1,0
UADAQFEE:UTbV_1AT_M2.Chip3,2,-3,0
UADAQFEE:UTbV_1AT_M3.Chip0,-2,1,0
UADAQFEE:UTbV_1AT_M3.Chip1,3,1,0
UADAQFEE:UTbV_1AT_M3.Chip2,1,-2,0
UADAQFEE:UTbV_1AT_M3.Chip3,1,-2,0
UADAQFEE:UTbV_1AT_M4.Chip0,0,0,0
UADAQFEE:UTbV_1AT_M4.Chip1,-1,-1,0
UADAQFEE:UTbV_1AT_M4.Chip2,-4,-4,0
UADAQFEE:UTbV_1AT_M4.Chip3,0,3,0
UADAQFEE:UTbV_1AT_S1E.Chip0,3,-3,0
UADAQFEE:UTbV_1AT_S1E.Chip1,1,3,0
UADAQFEE:UTbV_1AT_S1E.Chip2,-2,0,0
UADAQFEE:UTbV_1AT_S1E.Chip3,-3,-2,0
UADAQFEE:UTbV_1AT_S1W.Chip0,2,1,0
UADAQFEE:UTbV_1AT_S1W.Chip1,-3,0,0
UADAQFEE:UTbV_1AT_S1W.Chip2,-5,-2,0
UADAQFEE:UTbV_1AT_S1W.Chip3,1,2,0
UADAQFEE:UTbV_1AT_S2E.Chip0,-2,-4,0
UADAQFEE:UTbV_1AT_S2E.Chip1,1,-2,0
UADAQFEE:UTbV_1AT_S2E.Chip2,2,1,0
UADAQFEE:UTbV_1AT_S2E.Chip3,0,-4,0
UADAQFEE:UTbV_1AT_S2W.Chip0,1,2,0
UADAQFEE:UTbV_1AT_S2W.Chip1,3,-2,0
UADAQFEE:UTbV_1AT_S2W.Chip2,0,1,0
UADAQFEE:UTbV_1AT_S2W.Chip3,-3,1,0
UADAQFEE:UTbV_1AT_S3.Chip0,2,2,0
UADAQFEE:UTbV_1AT_S3.Chip1,0,-5,1
UADAQFEE:UTbV_1AT_S3.Chip2,-2,-4,0
UADAQFEE:UTbV_1AT_S3.Chip3,0,0,1
UADAQFEE:UTbV_1AT_S4.Chip0,0,1,0
UADAQFEE:UTbV_1AT_S4.Chip1,-1,-1,0
UADAQFEE:UTbV_1AT_S4.Chip2,-1,2,0
UADAQFEE:UTbV_1AT_S4.Chip3,2,2,0
UADAQFEE:UTbV_2AT_M1E.Chip0,0,-2,0
UADAQFEE:UTbV_2AT_M1E.Chip1,0,-4,0
UADAQFEE:UTbV_2AT_M1E.Chip2,2,2,0
UADAQFEE:UTbV_2AT_M1E.Chip3,-1,1,0
UADAQFEE:UTbV_2AT_M1W.Chip0,3,3,0
UADAQFEE:UTbV_2AT_M1W.Chip1,-2,-1,0
UADAQFEE:UTbV_2AT_M1W.Chip2,0,-2,0
UADAQFEE:UTbV_2AT_M1W.Chip3,0,-1,0
UADAQFEE:UTbV_2AT_M2.Chip0,-6,-5,0
UADAQFEE:UTbV_2AT_M2.Chip1,-3,2,0
UADAQFEE:UTbV_2AT_M2.Chip2,2,2,0
UADAQFEE:UTbV_2AT_M2.Chip3,-2,2,0
UADAQFEE:UTbV_2AT_M3.Chip0,0,1,0
UADAQFEE:UTbV_2AT_M3.Chip1,-1,0,0
UADAQFEE:UTbV_2AT_M3.Chip2,0,-1,0
UADAQFEE:UTbV_2AT_M3.Chip3,-1,-6,0
UADAQFEE:UTbV_2AT_M4.Chip0,0,1,0
UADAQFEE:UTbV_2AT_M4.Chip1,0,0,0
UADAQFEE:UTbV_2AT_M4.Chip2,-3,-3,0
UADAQFEE:UTbV_2AT_M4.Chip3,-5,-6,0
UADAQFEE:UTbV_2AT_S1E.Chip0,0,0,0
UADAQFEE:UTbV_2AT_S1E.Chip1,-1,0,0
UADAQFEE:UTbV_2AT_S1E.Chip2,-2,1,0
UADAQFEE:UTbV_2AT_S1E.Chip3,-1,-1,0
UADAQFEE:UTbV_2AT_S1W.Chip0,4,2,0
UADAQFEE:UTbV_2AT_S1W.Chip1,2,3,0
UADAQFEE:UTbV_2AT_S1W.Chip2,-3,-1,0
UADAQFEE:UTbV_2AT_S1W.Chip3,2,1,0
UADAQFEE:UTbV_2AT_S2.Chip0,-4,-1,0
UADAQFEE:UTbV_2AT_S2.Chip1,-2,0,0
UADAQFEE:UTbV_2AT_S2.Chip2,-3,-1,0
UADAQFEE:UTbV_2AT_S2.Chip3,-5,-7,0
UADAQFEE:UTbV_2AT_S3.Chip0,-1,-2,0
UADAQFEE:UTbV_2AT_S3.Chip1,0,1,0
UADAQFEE:UTbV_2AT_S3.Chip2,-1,-2,0
UADAQFEE:UTbV_2AT_S3.Chip3,2,2,0
UADAQFEE:UTbV_3AT_M1.Chip0,2,2,0
UADAQFEE:UTbV_3AT_M1.Chip1,0,-3,0
UADAQFEE:UTbV_3AT_M1.Chip2,2,6,0
UADAQFEE:UTbV_3AT_M1.Chip3,0,2,0
UADAQFEE:UTbV_3AT_M2.Chip0,-3,0,0
UADAQFEE:UTbV_3AT_M2.Chip1,-4,-1,0
UADAQFEE:UTbV_3AT_M2.Chip2,-1,0,0
UADAQFEE:UTbV_3AT_M2.Chip3,-2,-1,0
UADAQFEE:UTbV_3AT_M3.Chip0,2,3,0
UADAQFEE:UTbV_3AT_M3.Chip1,-2,1,0
UADAQFEE:UTbV_3AT_M3.Chip2,-5,-1,0
UADAQFEE:UTbV_3AT_M3.Chip3,2,2,0
UADAQFEE:UTbV_3AT_M4.Chip0,-3,0,0
UADAQFEE:UTbV_3AT_M4.Chip1,1,0,0
UADAQFEE:UTbV_3AT_M4.Chip2,-2,-1,0
UADAQFEE:UTbV_3AT_M4.Chip3,-4,0,0
UADAQFEE:UTbV_3AT_S1.Chip0,4,0,0
UADAQFEE:UTbV_3AT_S1.Chip1,1,1,0
UADAQFEE:UTbV_3AT_S1.Chip2,-1,1,0
UADAQFEE:UTbV_3AT_S1.Chip3,2,-2,0
UADAQFEE:UTbV_3AT_S2.Chip0,-24,-28,-27
UADAQFEE:UTbV_3AT_S2.Chip1,-28,-27,-25
UADAQFEE:UTbV_3AT_S2.Chip2,-28,-25,-22
UADAQFEE:UTbV_3AT_S2.Chip3,-23,-29,-24
UADAQFEE:UTbV_3AT_S3.Chip0,-1,1,0
UADAQFEE:UTbV_3AT_S3.Chip1,0,4,0
UADAQFEE:UTbV_3AT_S3.Chip2,-3,-1,0
UADAQFEE:UTbV_3AT_S3.Chip3,3,0,0
UADAQFEE:UTbX_1AT_M1E.Chip0,3,0,0
UADAQFEE:UTbX_1AT_M1E.Chip1,-2,-2,0
UADAQFEE:UTbX_1AT_M1E.Chip2,2,2,0
UADAQFEE:UTbX_1AT_M1E.Chip3,-2,0,0
UADAQFEE:UTbX_1AT_M1W.Chip0,1,-2,0
UADAQFEE:UTbX_1AT_M1W.Chip1,1,0,0
UADAQFEE:UTbX_1AT_M1W.Chip2,1,-3,0
UADAQFEE:UTbX_1AT_M1W.Chip3,1,1,0
UADAQFEE:UTbX_1AT_M2.Chip0,-9,-4,0
UADAQFEE:UTbX_1AT_M2.Chip1,-1,-3,0
UADAQFEE:UTbX_1AT_M2.Chip2,0,-4,0
UADAQFEE:UTbX_1AT_M2.Chip3,2,1,0
UADAQFEE:UTbX_1AT_M3.Chip0,1,3,0
UADAQFEE:UTbX_1AT_M3.Chip1,3,3,0
UADAQFEE:UTbX_1AT_M3.Chip2,-5,-3,0
UADAQFEE:UTbX_1AT_M3.Chip3,2,1,0
UADAQFEE:UTbX_1AT_M4.Chip0,-2,0,0
UADAQFEE:UTbX_1AT_M4.Chip1,-2,-2,0
UADAQFEE:UTbX_1AT_M4.Chip2,1,1,0
UADAQFEE:UTbX_1AT_M4.Chip3,-2,-4,0
UADAQFEE:UTbX_1AT_S1E.Chip0,-1,3,0
UADAQFEE:UTbX_1AT_S1E.Chip1,2,2,0
UADAQFEE:UTbX_1AT_S1E.Chip2,2,2,0
UADAQFEE:UTbX_1AT_S1E.Chip3,2,4,1
UADAQFEE:UTbX_1AT_S1W.Chip0,0,0,0
UADAQFEE:UTbX_1AT_S1W.Chip1,2,-3,0
UADAQFEE:UTbX_1AT_S1W.Chip2,-1,-2,0
UADAQFEE:UTbX_1AT_S1W.Chip3,2,-2,0
UADAQFEE:UTbX_1AT_S2E.Chip0,-4,-2,0
UADAQFEE:UTbX_1AT_S2E.Chip1,1,2,0
UADAQFEE:UTbX_1AT_S2E.Chip2,-1,-1,0
UADAQFEE:UTbX_1AT_S2E.Chip3,4,0,0
UADAQFEE:UTbX_1AT_S2W.Chip0,0,0,0
UADAQFEE:UTbX_1AT_S2W.Chip1,0,-1,0
UADAQFEE:UTbX_1AT_S2W.Chip2,6,4,0
UADAQFEE:UTbX_1AT_S2W.Chip3,2,-1,0
UADAQFEE:UTbX_1AT_S3.Chip0,-1,1,0
UADAQFEE:UTbX_1AT_S3.Chip1,2,-1,0
UADAQFEE:UTbX_1AT_S3.Chip2,0,-2,0
UADAQFEE:UTbX_1AT_S3.Chip3,0,0,0
UADAQFEE:UTbX_1AT_S4.Chip0,2,-1,0
UADAQFEE:UTbX_1AT_S4.Chip1,2,1,0
UADAQFEE:UTbX_1AT_S4.Chip2,1,2,0
UADAQFEE:UTbX_1AT_S4.Chip3,-2,-4,1
UADAQFEE:UTbX_2AT_M1E.Chip0,4,0,0
UADAQFEE:UTbX_2AT_M1E.Chip1,1,0,0
UADAQFEE:UTbX_2AT_M1E.Chip2,-2,0,0
UADAQFEE:UTbX_2AT_M1E.Chip3,-3,-3,0
UADAQFEE:UTbX_2AT_M1W.Chip0,5,1,0
UADAQFEE:UTbX_2AT_M1W.Chip1,1,1,0
UADAQFEE:UTbX_2AT_M1W.Chip2,-1,-4,0
UADAQFEE:UTbX_2AT_M1W.Chip3,-1,2,0
UADAQFEE:UTbX_2AT_M2.Chip0,5,4,0
UADAQFEE:UTbX_2AT_M2.Chip1,-2,0,0
UADAQFEE:UTbX_2AT_M2.Chip2,-2,-1,0
UADAQFEE:UTbX_2AT_M2.Chip3,1,0,0
UADAQFEE:UTbX_2AT_M3.Chip0,3,0,0
UADAQFEE:UTbX_2AT_M3.Chip1,-5,-2,0
UADAQFEE:UTbX_2AT_M3.Chip2,2,2,0
UADAQFEE:UTbX_2AT_M3.Chip3,-1,3,0
UADAQFEE:UTbX_2AT_M4.Chip0,-2,-4,0
UADAQFEE:UTbX_2AT_M4.Chip1,1,1,0
UADAQFEE:UTbX_2AT_M4.Chip2,-2,-1,0
UADAQFEE:UTbX_2AT_M4.Chip3,1,0,0
UADAQFEE:UTbX_2AT_S1E.Chip0,-2,-2,0
UADAQFEE:UTbX_2AT_S1E.Chip1,0,-1,0
UADAQFEE:UTbX_2AT_S1E.Chip2,0,-1,0
UADAQFEE:UTbX_2AT_S1E.Chip3,-1,-1,0
UADAQFEE:UTbX_2AT_S1W.Chip0,2,1,0
UADAQFEE:UTbX_2AT_S1W.Chip1,-1,-1,0
UADAQFEE:UTbX_2AT_S1W.Chip2,1,1,0
UADAQFEE:UTbX_2AT_S1W.Chip3,0,1,0
UADAQFEE:UTbX_2AT_S2.Chip0,0,3,0
UADAQFEE:UTbX_2AT_S2.Chip1,-2,-5,0
UADAQFEE:UTbX_2AT_S2.Chip2,3,1,0
UADAQFEE:UTbX_2AT_S2.Chip3,-3,-1,0
UADAQFEE:UTbX_2AT_S3.Chip0,1,0,0
UADAQFEE:UTbX_2AT_S3.Chip1,2,3,0
UADAQFEE:UTbX_2AT_S3.Chip2,-1,-2,1
UADAQFEE:UTbX_2AT_S3.Chip3,-2,2,0
UADAQFEE:UTbX_3AT_M1.Chip0,-4,-5,0
UADAQFEE:UTbX_3AT_M1.Chip1,-2,-3,0
UADAQFEE:UTbX_3AT_M1.Chip2,-3,1,1
UADAQFEE:UTbX_3AT_M1.Chip3,0,0,0
UADAQFEE:UTbX_3AT_M2.Chip0,0,-1,0
UADAQFEE:UTbX_3AT_M2.Chip1,2,0,0
UADAQFEE:UTbX_3AT_M2.Chip2,-2,-3,1
UADAQFEE:UTbX_3AT_M2.Chip3,3,1,0
UADAQFEE:UTbX_3AT_M3.Chip0,2,1,0
UADAQFEE:UTbX_3AT_M3.Chip1,1,1,0
UADAQFEE:UTbX_3AT_M3.Chip2,-2,-5,0
UADAQFEE:UTbX_3AT_M3.Chip3,1,0,0
UADAQFEE:UTbX_3AT_M4.Chip0,3,-1,1
UADAQFEE:UTbX_3AT_M4.Chip1,3,1,1
UADAQFEE:UTbX_3AT_M4.Chip2,2,1,0
UADAQFEE:UTbX_3AT_M4.Chip3,1,-2,0
UADAQFEE:UTbX_3AT_S1.Chip0,1,-1,0
UADAQFEE:UTbX_3AT_S1.Chip1,-1,-2,0
UADAQFEE:UTbX_3AT_S1.Chip2,3,-1,0
UADAQFEE:UTbX_3AT_S1.Chip3,2,2,0
UADAQFEE:UTbX_3AT_S2.Chip0,-1,1,0
UADAQFEE:UTbX_3AT_S2.Chip1,-2,1,0
UADAQFEE:UTbX_3AT_S2.Chip2,0,0,0
UADAQFEE:UTbX_3AT_S2.Chip3,2,-1,0
UADAQFEE:UTbX_3AT_S3.Chip0,-4,-1,0
UADAQFEE:UTbX_3AT_S3.Chip1,0,-2,0
UADAQFEE:UTbX_3AT_S3.Chip2,-2,-1,0
UADAQFEE:UTbX_3AT_S3.Chip3,-1,-2,0
UADAQFEE:UTbV_4AT_M1.Chip0,-1,0,0
UADAQFEE:UTbV_4AT_M1.Chip1,4,1,0
UADAQFEE:UTbV_4AT_M1.Chip2,-3,-2,0
UADAQFEE:UTbV_4AT_M1.Chip3,2,1,0
UADAQFEE:UTbV_4AT_M2.Chip0,-5,-3,0
UADAQFEE:UTbV_4AT_M2.Chip1,-2,1,0
UADAQFEE:UTbV_4AT_M2.Chip2,2,0,0
UADAQFEE:UTbV_4AT_M2.Chip3,1,-4,0
UADAQFEE:UTbV_4AT_M3.Chip0,2,0,0
UADAQFEE:UTbV_4AT_M3.Chip1,1,-2,0
UADAQFEE:UTbV_4AT_M3.Chip2,1,0,0
UADAQFEE:UTbV_4AT_M3.Chip3,-3,2,0
UADAQFEE:UTbV_4AT_M4.Chip0,1,0,0
UADAQFEE:UTbV_4AT_M4.Chip1,1,0,0
UADAQFEE:UTbV_4AT_M4.Chip2,2,1,0
UADAQFEE:UTbV_4AT_M4.Chip3,3,2,0
UADAQFEE:UTbV_4AT_S1.Chip0,1,-5,0
UADAQFEE:UTbV_4AT_S1.Chip1,3,-1,0
UADAQFEE:UTbV_4AT_S1.Chip2,0,0,0
UADAQFEE:UTbV_4AT_S1.Chip3,-4,0,0
UADAQFEE:UTbV_4AT_S2.Chip0,0,1,0
UADAQFEE:UTbV_4AT_S2.Chip1,-1,-3,0
UADAQFEE:UTbV_4AT_S2.Chip2,-1,2,0
UADAQFEE:UTbV_4AT_S2.Chip3,-2,-4,0
UADAQFEE:UTbV_4AT_S3.Chip0,0,2,0
UADAQFEE:UTbV_4AT_S3.Chip1,1,0,0
UADAQFEE:UTbV_4AT_S3.Chip2,1,-1,0
UADAQFEE:UTbV_4AT_S3.Chip3,-3,-1,0
UADAQFEE:UTbV_5AT_M1.Chip0,-2,-1,0
UADAQFEE:UTbV_5AT_M1.Chip1,0,-2,0
UADAQFEE:UTbV_5AT_M1.Chip2,1,1,0
UADAQFEE:UTbV_5AT_M1.Chip3,1,1,0
UADAQFEE:UTbV_5AT_M3.Chip0,1,1,0
UADAQFEE:UTbV_5AT_M3.Chip1,2,1,0
UADAQFEE:UTbV_5AT_M3.Chip2,-5,-1,0
UADAQFEE:UTbV_5AT_M3.Chip3,0,-1,0
UADAQFEE:UTbV_5AT_M4.Chip0,-2,-1,0
UADAQFEE:UTbV_5AT_M4.Chip1,0,-3,0
UADAQFEE:UTbV_5AT_M4.Chip2,3,3,1
UADAQFEE:UTbV_5AT_M4.Chip3,4,3,0
UADAQFEE:UTbV_5AT_S1.Chip0,2,3,0
UADAQFEE:UTbV_5AT_S1.Chip1,2,-1,0
UADAQFEE:UTbV_5AT_S1.Chip2,1,2,0
UADAQFEE:UTbV_5AT_S1.Chip3,-1,0,0
UADAQFEE:UTbV_5AT_S2.Chip0,1,1,1
UADAQFEE:UTbV_5AT_S2.Chip1,3,3,0
UADAQFEE:UTbV_5AT_S2.Chip2,-2,-8,0
UADAQFEE:UTbV_5AT_S2.Chip3,3,1,0
UADAQFEE:UTbV_5AT_S3.Chip0,-1,-3,0
UADAQFEE:UTbV_5AT_S3.Chip1,-2,1,0
UADAQFEE:UTbV_5AT_S3.Chip2,-2,1,0
UADAQFEE:UTbV_5AT_S3.Chip3,-2,-2,0
UADAQFEE:UTbV_6AT_M1.Chip0,-1,3,0
UADAQFEE:UTbV_6AT_M1.Chip1,2,2,0
UADAQFEE:UTbV_6AT_M1.Chip2,-3,0,0
UADAQFEE:UTbV_6AT_M1.Chip3,-7,-4,0
UADAQFEE:UTbV_6AT_M2.Chip1,1,-1,0
UADAQFEE:UTbV_6AT_M2.Chip2,-1,-2,0
UADAQFEE:UTbV_6AT_M2.Chip3,-3,-1,0
UADAQFEE:UTbV_6AT_M3.Chip0,0,1,0
UADAQFEE:UTbV_6AT_M3.Chip1,1,0,0
UADAQFEE:UTbV_6AT_M3.Chip2,0,-2,0
UADAQFEE:UTbV_6AT_M3.Chip3,2,-2,0
UADAQFEE:UTbV_6AT_M4.Chip0,0,-4,0
UADAQFEE:UTbV_6AT_M4.Chip1,2,1,0
UADAQFEE:UTbV_6AT_M4.Chip2,2,-1,0
UADAQFEE:UTbV_6AT_M4.Chip3,0,-2,0
UADAQFEE:UTbV_6AT_S2.Chip0,-2,-1,1
UADAQFEE:UTbV_6AT_S2.Chip1,2,0,1
UADAQFEE:UTbV_6AT_S2.Chip2,1,0,0
UADAQFEE:UTbV_6AT_S2.Chip3,2,2,0
UADAQFEE:UTbV_6AT_S3.Chip0,-1,1,0
UADAQFEE:UTbV_6AT_S3.Chip1,-1,2,0
UADAQFEE:UTbV_6AT_S3.Chip2,1,3,0
UADAQFEE:UTbV_6AT_S3.Chip3,-2,-6,0
UADAQFEE:UTbX_4AT_M1.Chip0,1,-4,0
UADAQFEE:UTbX_4AT_M1.Chip1,1,-1,0
UADAQFEE:UTbX_4AT_M1.Chip2,-2,1,0
UADAQFEE:UTbX_4AT_M1.Chip3,2,0,0
UADAQFEE:UTbX_4AT_M2.Chip0,-2,0,0
UADAQFEE:UTbX_4AT_M2.Chip1,3,1,0
UADAQFEE:UTbX_4AT_M2.Chip2,2,2,0
UADAQFEE:UTbX_4AT_M2.Chip3,-1,-4,0
UADAQFEE:UTbX_4AT_M3.Chip0,-2,0,0
UADAQFEE:UTbX_4AT_M3.Chip1,-2,1,0
UADAQFEE:UTbX_4AT_M3.Chip2,0,2,0
UADAQFEE:UTbX_4AT_M3.Chip3,2,3,0
UADAQFEE:UTbX_4AT_M4.Chip0,1,-4,0
UADAQFEE:UTbX_4AT_M4.Chip1,2,1,0
UADAQFEE:UTbX_4AT_M4.Chip2,-2,2,0
UADAQFEE:UTbX_4AT_M4.Chip3,1,-1,0
UADAQFEE:UTbX_4AT_S1.Chip0,0,2,0
UADAQFEE:UTbX_4AT_S1.Chip1,1,2,0
UADAQFEE:UTbX_4AT_S1.Chip2,-1,4,0
UADAQFEE:UTbX_4AT_S1.Chip3,0,4,0
UADAQFEE:UTbX_4AT_S2.Chip0,-3,-2,0
UADAQFEE:UTbX_4AT_S2.Chip1,1,-1,0
UADAQFEE:UTbX_4AT_S2.Chip2,2,3,0
UADAQFEE:UTbX_4AT_S2.Chip3,-1,0,0
UADAQFEE:UTbX_4AT_S3.Chip0,0,2,0
UADAQFEE:UTbX_4AT_S3.Chip1,-1,1,0
UADAQFEE:UTbX_4AT_S3.Chip2,4,-1,0
UADAQFEE:UTbX_4AT_S3.Chip3,1,2,0
UADAQFEE:UTbX_5AT_M1.Chip0,-1,2,0
UADAQFEE:UTbX_5AT_M1.Chip1,2,1,0
UADAQFEE:UTbX_5AT_M1.Chip2,0,1,0
UADAQFEE:UTbX_5AT_M1.Chip3,4,2,0
UADAQFEE:UTbX_5AT_M2.Chip0,2,1,0
UADAQFEE:UTbX_5AT_M2.Chip1,0,-2,0
UADAQFEE:UTbX_5AT_M2.Chip2,4,1,0
UADAQFEE:UTbX_5AT_M2.Chip3,-1,2,0
UADAQFEE:UTbX_5AT_S1.Chip1,2,0,0
UADAQFEE:UTbX_5AT_S1.Chip2,0,0,0
UADAQFEE:UTbX_5AT_S1.Chip3,-1,-4,0
UADAQFEE:UTbX_5AT_S2.Chip0,2,-4,0
UADAQFEE:UTbX_5AT_S2.Chip1,-3,-2,0
UADAQFEE:UTbX_5AT_S2.Chip2,-1,-8,0
UADAQFEE:UTbX_5AT_S2.Chip3,3,1,0
UADAQFEE:UTbX_6AT_M1.Chip0,-3,1,0
UADAQFEE:UTbX_6AT_M1.Chip1,-2,1,0
UADAQFEE:UTbX_6AT_M1.Chip2,0,-4,0
UADAQFEE:UTbX_6AT_M1.Chip3,-3,-1,0
UADAQFEE:UTbX_6AT_M2.Chip0,-2,-3,0
UADAQFEE:UTbX_6AT_M2.Chip1,1,1,0
UADAQFEE:UTbX_6AT_M2.Chip2,0,2,0
UADAQFEE:UTbX_6AT_M2.Chip3,-1,-1,0
UADAQFEE:UTbX_6AT_M3.Chip0,1,-3,0
UADAQFEE:UTbX_6AT_M3.Chip1,2,0,0
UADAQFEE:UTbX_6AT_M3.Chip2,1,0,0
UADAQFEE:UTbX_6AT_M3.Chip3,1,1,0
UADAQFEE:UTbX_6AT_M4.Chip0,-6,-3,0
UADAQFEE:UTbX_6AT_M4.Chip1,-1,2,0
UADAQFEE:UTbX_6AT_M4.Chip2,-1,-6,0
UADAQFEE:UTbX_6AT_M4.Chip3,2,4,0
UADAQFEE:UTbX_6AT_S1.Chip0,3,1,0
UADAQFEE:UTbX_6AT_S1.Chip1,-4,0,0
UADAQFEE:UTbX_6AT_S1.Chip2,-5,-9,0
UADAQFEE:UTbX_6AT_S1.Chip3,2,2,0
UADAQFEE:UTbX_6AT_S2.Chip0,1,-1,1
UADAQFEE:UTbX_6AT_S2.Chip1,2,0,0
UADAQFEE:UTbX_6AT_S2.Chip2,1,-1,0
UADAQFEE:UTbX_6AT_S2.Chip3,0,-1,1
UADAQFEE:UTbX_6AT_S3.Chip0,1,3,0
UADAQFEE:UTbX_6AT_S3.Chip1,0,0,0
UADAQFEE:UTbX_6AT_S3.Chip2,-8,-8,0
UADAQFEE:UTbX_6AT_S3.Chip3,3,1,0
UADAQFEE:UTbV_7AT_M1.Chip0,3,2,0
UADAQFEE:UTbV_7AT_M1.Chip1,-2,2,1
UADAQFEE:UTbV_7AT_M1.Chip2,3,2,0
UADAQFEE:UTbV_7AT_M1.Chip3,1,1,0
UADAQFEE:UTbV_7AT_M2.Chip0,2,1,0
UADAQFEE:UTbV_7AT_M2.Chip1,2,-2,0
UADAQFEE:UTbV_7AT_M2.Chip2,-3,-8,0
UADAQFEE:UTbV_7AT_M2.Chip3,-5,0,0
UADAQFEE:UTbV_7AT_M3.Chip0,1,2,0
UADAQFEE:UTbV_7AT_M3.Chip1,3,4,0
UADAQFEE:UTbV_7AT_M3.Chip2,-2,-2,0
UADAQFEE:UTbV_7AT_M3.Chip3,-1,-1,0
UADAQFEE:UTbV_7AT_M4.Chip0,0,-1,0
UADAQFEE:UTbV_7AT_M4.Chip1,-2,-1,0
UADAQFEE:UTbV_7AT_M4.Chip2,1,1,0
UADAQFEE:UTbV_7AT_M4.Chip3,2,-2,0
UADAQFEE:UTbV_7AT_S1.Chip0,2,0,0
UADAQFEE:UTbV_7AT_S1.Chip1,3,3,0
UADAQFEE:UTbV_7AT_S1.Chip2,1,-3,0
UADAQFEE:UTbV_7AT_S1.Chip3,4,1,0
UADAQFEE:UTbV_7AT_S2.Chip0,3,1,0
UADAQFEE:UTbV_7AT_S2.Chip1,2,-1,0
UADAQFEE:UTbV_7AT_S2.Chip2,1,0,0
UADAQFEE:UTbV_7AT_S2.Chip3,-1,1,0
UADAQFEE:UTbV_7AT_S3.Chip0,-2,2,0
UADAQFEE:UTbV_7AT_S3.Chip1,-1,-2,0
UADAQFEE:UTbV_7AT_S3.Chip2,1,1,0
UADAQFEE:UTbV_7AT_S3.Chip3,-1,1,1
UADAQFEE:UTbV_8AT_M1.Chip0,1,0,1
UADAQFEE:UTbV_8AT_M1.Chip1,-2,-2,0
UADAQFEE:UTbV_8AT_M1.Chip2,0,0,0
UADAQFEE:UTbV_8AT_M1.Chip3,-2,0,0
UADAQFEE:UTbV_8AT_M2.Chip0,2,1,0
UADAQFEE:UTbV_8AT_M2.Chip1,0,2,0
UADAQFEE:UTbV_8AT_M2.Chip2,1,-3,0
UADAQFEE:UTbV_8AT_M2.Chip3,-2,1,0
UADAQFEE:UTbV_8AT_M3.Chip0,0,2,0
UADAQFEE:UTbV_8AT_M3.Chip1,4,2,0
UADAQFEE:UTbV_8AT_M3.Chip2,-6,-3,0
UADAQFEE:UTbV_8AT_M3.Chip3,2,1,0
UADAQFEE:UTbV_8AT_M4.Chip0,4,0,0
UADAQFEE:UTbV_8AT_M4.Chip1,1,2,0
UADAQFEE:UTbV_8AT_M4.Chip2,1,3,0
UADAQFEE:UTbV_8AT_M4.Chip3,2,-5,0
UADAQFEE:UTbV_8AT_S1.Chip0,-1,1,0
UADAQFEE:UTbV_8AT_S1.Chip1,1,-3,0
UADAQFEE:UTbV_8AT_S1.Chip2,3,-1,0
UADAQFEE:UTbV_8AT_S1.Chip3,-3,-2,0
UADAQFEE:UTbV_8AT_S2.Chip0,-3,-3,0
UADAQFEE:UTbV_8AT_S2.Chip1,-3,-2,0
UADAQFEE:UTbV_8AT_S2.Chip2,-2,1,0
UADAQFEE:UTbV_8AT_S2.Chip3,-2,-6,0
UADAQFEE:UTbV_8AT_S3.Chip0,0,-2,0
UADAQFEE:UTbV_8AT_S3.Chip1,-1,-2,0
UADAQFEE:UTbV_8AT_S3.Chip2,1,2,0
UADAQFEE:UTbV_8AT_S3.Chip3,1,4,0
UADAQFEE:UTbV_9AT_M1.Chip0,-1,-4,0
UADAQFEE:UTbV_9AT_M1.Chip1,0,1,0
UADAQFEE:UTbV_9AT_M1.Chip2,-2,-2,0
UADAQFEE:UTbV_9AT_M1.Chip3,1,0,0
UADAQFEE:UTbV_9AT_M2.Chip0,-3,1,0
UADAQFEE:UTbV_9AT_M2.Chip1,1,2,1
UADAQFEE:UTbV_9AT_M2.Chip2,-5,-7,0
UADAQFEE:UTbV_9AT_M2.Chip3,2,-1,0
UADAQFEE:UTbV_9AT_M3.Chip0,0,1,0
UADAQFEE:UTbV_9AT_M3.Chip1,2,1,0
UADAQFEE:UTbV_9AT_M3.Chip2,1,4,0
UADAQFEE:UTbV_9AT_M3.Chip3,-1,2,0
UADAQFEE:UTbV_9AT_M4.Chip0,1,1,0
UADAQFEE:UTbV_9AT_M4.Chip1,4,0,0
UADAQFEE:UTbV_9AT_M4.Chip2,1,0,0
UADAQFEE:UTbV_9AT_M4.Chip3,-4,-2,0
UADAQFEE:UTbV_9AT_S1.Chip0,4,2,0
UADAQFEE:UTbV_9AT_S1.Chip1,2,2,0
UADAQFEE:UTbV_9AT_S1.Chip2,0,1,0
UADAQFEE:UTbV_9AT_S1.Chip3,1,1,0
UADAQFEE:UTbV_9AT_S2.Chip0,-4,-1,0
UADAQFEE:UTbV_9AT_S2.Chip1,-2,1,0
UADAQFEE:UTbV_9AT_S2.Chip2,3,3,0
UADAQFEE:UTbV_9AT_S2.Chip3,-1,0,1
UADAQFEE:UTbV_9AT_S3.Chip0,-1,-4,0
UADAQFEE:UTbV_9AT_S3.Chip1,1,2,0
UADAQFEE:UTbV_9AT_S3.Chip2,-2,2,0
UADAQFEE:UTbV_9AT_S3.Chip3,-1,-1,0
UADAQFEE:UTbX_7AT_M1.Chip0,-4,-3,0
UADAQFEE:UTbX_7AT_M1.Chip1,-3,-3,0
UADAQFEE:UTbX_7AT_M1.Chip2,-2,0,0
UADAQFEE:UTbX_7AT_M1.Chip3,2,0,0
UADAQFEE:UTbX_7AT_M2.Chip0,4,-1,0
UADAQFEE:UTbX_7AT_M2.Chip1,2,-2,0
UADAQFEE:UTbX_7AT_M2.Chip2,0,1,0
UADAQFEE:UTbX_7AT_M3.Chip0,2,3,0
UADAQFEE:UTbX_7AT_M3.Chip1,0,0,0
UADAQFEE:UTbX_7AT_M3.Chip2,-2,-3,0
UADAQFEE:UTbX_7AT_M3.Chip3,2,3,0
UADAQFEE:UTbX_7AT_M4.Chip0,-1,-2,0
UADAQFEE:UTbX_7AT_M4.Chip1,2,3,0
UADAQFEE:UTbX_7AT_M4.Chip2,0,0,0
UADAQFEE:UTbX_7AT_M4.Chip3,-3,-1,0
UADAQFEE:UTbX_7AT_S1.Chip0,-3,-3,0
UADAQFEE:UTbX_7AT_S1.Chip1,2,1,0
UADAQFEE:UTbX_7AT_S1.Chip2,-1,2,0
UADAQFEE:UTbX_7AT_S1.Chip3,-5,-4,0
UADAQFEE:UTbX_7AT_S2.Chip0,3,0,0
UADAQFEE:UTbX_7AT_S2.Chip1,-3,-4,0
UADAQFEE:UTbX_7AT_S2.Chip2,-3,-1,0
UADAQFEE:UTbX_7AT_S2.Chip3,0,3,0
UADAQFEE:UTbX_7AT_S3.Chip0,1,-2,0
UADAQFEE:UTbX_7AT_S3.Chip1,2,0,0
UADAQFEE:UTbX_7AT_S3.Chip2,3,3,0
UADAQFEE:UTbX_7AT_S3.Chip3,0,2,0
UADAQFEE:UTbX_8AT_M1.Chip0,2,1,0
UADAQFEE:UTbX_8AT_M1.Chip1,1,-1,0
UADAQFEE:UTbX_8AT_M1.Chip2,1,-1,0
UADAQFEE:UTbX_8AT_M1.Chip3,-2,-5,0
UADAQFEE:UTbX_8AT_M2.Chip0,-3,1,0
UADAQFEE:UTbX_8AT_M2.Chip1,2,2,0
UADAQFEE:UTbX_8AT_M2.Chip2,-4,-4,0
UADAQFEE:UTbX_8AT_M2.Chip3,3,1,0
UADAQFEE:UTbX_8AT_M3.Chip0,3,-1,0
UADAQFEE:UTbX_8AT_M3.Chip1,2,4,0
UADAQFEE:UTbX_8AT_M3.Chip2,1,1,0
UADAQFEE:UTbX_8AT_M3.Chip3,1,-1,0
UADAQFEE:UTbX_8AT_M4.Chip0,2,0,0
UADAQFEE:UTbX_8AT_M4.Chip1,-2,-5,0
UADAQFEE:UTbX_8AT_M4.Chip2,-2,1,0
UADAQFEE:UTbX_8AT_M4.Chip3,1,1,0
UADAQFEE:UTbX_8AT_S1.Chip0,4,0,0
UADAQFEE:UTbX_8AT_S1.Chip1,0,1,0
UADAQFEE:UTbX_8AT_S1.Chip2,5,1,0
UADAQFEE:UTbX_8AT_S1.Chip3,2,3,0
UADAQFEE:UTbX_8AT_S2.Chip0,1,0,0
UADAQFEE:UTbX_8AT_S2.Chip1,2,3,0
UADAQFEE:UTbX_8AT_S2.Chip2,1,1,0
UADAQFEE:UTbX_8AT_S2.Chip3,-2,-1,0
UADAQFEE:UTbX_8AT_S3.Chip0,2,-2,0
UADAQFEE:UTbX_8AT_S3.Chip1,0,3,0
UADAQFEE:UTbX_8AT_S3.Chip2,0,0,0
UADAQFEE:UTbX_8AT_S3.Chip3,-1,-1,0
UADAQFEE:UTbX_9AT_M1.Chip0,1,1,0
UADAQFEE:UTbX_9AT_M1.Chip1,-1,1,0
UADAQFEE:UTbX_9AT_M1.Chip2,1,2,0
UADAQFEE:UTbX_9AT_M1.Chip3,-2,-2,1
UADAQFEE:UTbX_9AT_M2.Chip0,-1,2,0
UADAQFEE:UTbX_9AT_M2.Chip1,-1,2,0
UADAQFEE:UTbX_9AT_M2.Chip2,4,0,0
UADAQFEE:UTbX_9AT_M2.Chip3,1,0,0
UADAQFEE:UTbX_9AT_M3.Chip0,4,4,1
UADAQFEE:UTbX_9AT_M3.Chip1,-5,-2,0
UADAQFEE:UTbX_9AT_M3.Chip2,2,2,0
UADAQFEE:UTbX_9AT_M3.Chip3,-11,-5,0
UADAQFEE:UTbX_9AT_M4.Chip0,2,1,0
UADAQFEE:UTbX_9AT_M4.Chip1,-3,-4,0
UADAQFEE:UTbX_9AT_M4.Chip2,-1,-4,0
UADAQFEE:UTbX_9AT_M4.Chip3,1,0,0
UADAQFEE:UTbX_9AT_S1.Chip0,1,2,0
UADAQFEE:UTbX_9AT_S1.Chip2,2,1,0
UADAQFEE:UTbX_9AT_S1.Chip3,2,0,0
UADAQFEE:UTbX_9AT_S2.Chip0,0,-2,0
UADAQFEE:UTbX_9AT_S2.Chip1,0,-2,0
UADAQFEE:UTbX_9AT_S2.Chip2,1,1,0
UADAQFEE:UTbX_9AT_S2.Chip3,-3,2,0
UADAQFEE:UTbX_9AT_S3.Chip0,-1,0,0
UADAQFEE:UTbX_9AT_S3.Chip1,-2,-5,0
UADAQFEE:UTbX_9AT_S3.Chip2,-2,-1,0
UADAQFEE:UTbX_9AT_S3.Chip3,0,1,0
UADAQFEE:UTbV_1AB_M1E.Chip0,-3,-2,1
UADAQFEE:UTbV_1AB_M1E.Chip1,-1,-2,0
UADAQFEE:UTbV_1AB_M1E.Chip2,-2,-1,0
UADAQFEE:UTbV_1AB_M1E.Chip3,-2,0,0
UADAQFEE:UTbV_1AB_M1W.Chip0,-1,0,0
UADAQFEE:UTbV_1AB_M1W.Chip1,0,2,0
UADAQFEE:UTbV_1AB_M1W.Chip2,1,1,0
UADAQFEE:UTbV_1AB_M1W.Chip3,-3,-7,0
UADAQFEE:UTbV_1AB_M2.Chip0,-1,1,0
UADAQFEE:UTbV_1AB_M2.Chip1,-4,-3,0
UADAQFEE:UTbV_1AB_M2.Chip2,-6,-4,0
UADAQFEE:UTbV_1AB_M2.Chip3,0,0,0
UADAQFEE:UTbV_1AB_M3.Chip0,-2,0,0
UADAQFEE:UTbV_1AB_M3.Chip1,1,-3,0
UADAQFEE:UTbV_1AB_M3.Chip2,0,-1,0
UADAQFEE:UTbV_1AB_M3.Chip3,1,2,0
UADAQFEE:UTbV_1AB_M4.Chip0,-2,3,0
UADAQFEE:UTbV_1AB_M4.Chip1,-1,1,0
UADAQFEE:UTbV_1AB_M4.Chip2,0,1,0
UADAQFEE:UTbV_1AB_M4.Chip3,-2,-1,0
UADAQFEE:UTbV_1AB_S1E.Chip0,-1,-2,1
UADAQFEE:UTbV_1AB_S1E.Chip1,-3,-4,0
UADAQFEE:UTbV_1AB_S1E.Chip2,-5,-5,0
UADAQFEE:UTbV_1AB_S1E.Chip3,2,3,0
UADAQFEE:UTbV_1AB_S1W.Chip0,2,3,0
UADAQFEE:UTbV_1AB_S1W.Chip1,-4,-1,0
UADAQFEE:UTbV_1AB_S1W.Chip2,1,2,0
UADAQFEE:UTbV_1AB_S1W.Chip3,2,1,0
UADAQFEE:UTbV_1AB_S2E.Chip1,-4,-1,0
UADAQFEE:UTbV_1AB_S2E.Chip2,2,-2,0
UADAQFEE:UTbV_1AB_S2E.Chip3,2,0,0
UADAQFEE:UTbV_1AB_S2W.Chip0,2,-4,1
UADAQFEE:UTbV_1AB_S2W.Chip1,3,3,0
UADAQFEE:UTbV_1AB_S2W.Chip2,-3,-6,0
UADAQFEE:UTbV_1AB_S2W.Chip3,-1,-2,0
UADAQFEE:UTbV_1AB_S3.Chip0,-1,1,0
UADAQFEE:UTbV_1AB_S3.Chip1,6,4,0
UADAQFEE:UTbV_1AB_S3.Chip2,2,6,0
UADAQFEE:UTbV_1AB_S3.Chip3,2,-2,0
UADAQFEE:UTbV_1AB_S4.Chip0,-2,1,0
UADAQFEE:UTbV_1AB_S4.Chip1,1,2,0
UADAQFEE:UTbV_1AB_S4.Chip2,1,-3,0
UADAQFEE:UTbV_1AB_S4.Chip3,-2,-1,0
UADAQFEE:UTbV_2AB_M1E.Chip0,1,2,0
UADAQFEE:UTbV_2AB_M1E.Chip1,0,1,0
UADAQFEE:UTbV_2AB_M1E.Chip2,-2,-2,0
UADAQFEE:UTbV_2AB_M1E.Chip3,2,1,0
UADAQFEE:UTbV_2AB_M1W.Chip0,2,2,0
UADAQFEE:UTbV_2AB_M1W.Chip1,2,3,0
UADAQFEE:UTbV_2AB_M1W.Chip2,0,0,0
UADAQFEE:UTbV_2AB_M1W.Chip3,1,-1,0
UADAQFEE:UTbV_2AB_M2.Chip0,-3,-7,0
UADAQFEE:UTbV_2AB_M2.Chip1,2,2,0
UADAQFEE:UTbV_2AB_M2.Chip2,1,-3,1
UADAQFEE:UTbV_2AB_M2.Chip3,2,0,0
UADAQFEE:UTbV_2AB_M3.Chip0,0,2,0
UADAQFEE:UTbV_2AB_M3.Chip1,3,1,0
UADAQFEE:UTbV_2AB_M3.Chip2,-2,1,0
UADAQFEE:UTbV_2AB_M3.Chip3,1,3,0
UADAQFEE:UTbV_2AB_M4.Chip0,2,3,0
UADAQFEE:UTbV_2AB_M4.Chip1,-1,2,0
UADAQFEE:UTbV_2AB_M4.Chip2,-1,-1,0
UADAQFEE:UTbV_2AB_M4.Chip3,4,2,0
UADAQFEE:UTbV_2AB_S1E.Chip0,-1,-1,0
UADAQFEE:UTbV_2AB_S1E.Chip1,3,2,0
UADAQFEE:UTbV_2AB_S1E.Chip2,1,0,0
UADAQFEE:UTbV_2AB_S1E.Chip3,0,5,0
UADAQFEE:UTbV_2AB_S1W.Chip0,0,-4,0
UADAQFEE:UTbV_2AB_S1W.Chip1,0,0,0
UADAQFEE:UTbV_2AB_S1W.Chip2,1,4,0
UADAQFEE:UTbV_2AB_S1W.Chip3,-2,-2,0
UADAQFEE:UTbV_2AB_S2.Chip0,-2,2,0
UADAQFEE:UTbV_2AB_S2.Chip1,-5,-1,0
UADAQFEE:UTbV_2AB_S2.Chip2,2,3,0
UADAQFEE:UTbV_2AB_S2.Chip3,-2,-1,0
UADAQFEE:UTbV_2AB_S3.Chip0,-2,-3,0
UADAQFEE:UTbV_2AB_S3.Chip1,-2,2,0
UADAQFEE:UTbV_2AB_S3.Chip2,0,0,0
UADAQFEE:UTbV_2AB_S3.Chip3,3,2,0
UADAQFEE:UTbV_3AB_M1.Chip0,-5,0,0
UADAQFEE:UTbV_3AB_M1.Chip1,0,1,0
UADAQFEE:UTbV_3AB_M1.Chip2,-4,-5,0
UADAQFEE:UTbV_3AB_M1.Chip3,-1,0,0
UADAQFEE:UTbV_3AB_M2.Chip0,2,2,0
UADAQFEE:UTbV_3AB_M2.Chip1,-4,-2,0
UADAQFEE:UTbV_3AB_M2.Chip2,1,0,0
UADAQFEE:UTbV_3AB_M2.Chip3,1,-2,0
UADAQFEE:UTbV_3AB_M3.Chip0,0,-2,0
UADAQFEE:UTbV_3AB_M3.Chip1,0,-1,0
UADAQFEE:UTbV_3AB_M3.Chip2,-4,0,1
UADAQFEE:UTbV_3AB_M3.Chip3,-5,2,0
UADAQFEE:UTbV_3AB_M4.Chip0,-2,-3,0
UADAQFEE:UTbV_3AB_M4.Chip1,-1,-3,0
UADAQFEE:UTbV_3AB_M4.Chip2,0,1,0
UADAQFEE:UTbV_3AB_M4.Chip3,-3,-2,0
UADAQFEE:UTbV_3AB_S1.Chip0,-2,-3,0
UADAQFEE:UTbV_3AB_S1.Chip1,0,2,0
UADAQFEE:UTbV_3AB_S1.Chip2,6,4,0
UADAQFEE:UTbV_3AB_S1.Chip3,-1,2,0
UADAQFEE:UTbV_3AB_S2.Chip0,2,1,0
UADAQFEE:UTbV_3AB_S2.Chip1,-3,-3,0
UADAQFEE:UTbV_3AB_S2.Chip2,-1,0,0
UADAQFEE:UTbV_3AB_S2.Chip3,1,-2,0
UADAQFEE:UTbX_1AB_M1E.Chip0,-2,-2,0
UADAQFEE:UTbX_1AB_M1E.Chip1,0,2,0
UADAQFEE:UTbX_1AB_M1E.Chip2,2,-1,0
UADAQFEE:UTbX_1AB_M1E.Chip3,-2,-3,0
UADAQFEE:UTbX_1AB_M1W.Chip0,1,2,0
UADAQFEE:UTbX_1AB_M1W.Chip1,0,3,0
UADAQFEE:UTbX_1AB_M1W.Chip2,2,3,0
UADAQFEE:UTbX_1AB_M1W.Chip3,-1,-1,0
UADAQFEE:UTbX_1AB_M2.Chip0,-6,-2,0
UADAQFEE:UTbX_1AB_M2.Chip1,-2,-1,0
UADAQFEE:UTbX_1AB_M2.Chip2,-1,2,0
UADAQFEE:UTbX_1AB_M2.Chip3,1,1,0
UADAQFEE:UTbX_1AB_M3.Chip0,2,-3,0
UADAQFEE:UTbX_1AB_M3.Chip1,3,1,0
UADAQFEE:UTbX_1AB_M3.Chip2,-8,-6,0
UADAQFEE:UTbX_1AB_M3.Chip3,3,3,0
UADAQFEE:UTbX_1AB_M4.Chip0,1,-2,0
UADAQFEE:UTbX_1AB_M4.Chip1,-4,3,0
UADAQFEE:UTbX_1AB_M4.Chip2,-3,-1,0
UADAQFEE:UTbX_1AB_M4.Chip3,2,1,0
UADAQFEE:UTbX_1AB_S1E.Chip0,2,-3,0
UADAQFEE:UTbX_1AB_S1E.Chip1,0,3,0
UADAQFEE:UTbX_1AB_S1E.Chip2,-5,-1,0
UADAQFEE:UTbX_1AB_S1E.Chip3,3,1,0
UADAQFEE:UTbX_1AB_S1W.Chip0,3,3,0
UADAQFEE:UTbX_1AB_S1W.Chip1,0,1,0
UADAQFEE:UTbX_1AB_S1W.Chip2,2,0,0
UADAQFEE:UTbX_1AB_S1W.Chip3,1,-1,0
UADAQFEE:UTbX_1AB_S3.Chip0,-1,0,0
UADAQFEE:UTbX_1AB_S3.Chip1,3,1,0
UADAQFEE:UTbX_1AB_S3.Chip2,-2,-1,1
UADAQFEE:UTbX_1AB_S3.Chip3,-8,1,0
UADAQFEE:UTbX_1AB_S4.Chip0,0,1,0
UADAQFEE:UTbX_1AB_S4.Chip1,1,0,0
UADAQFEE:UTbX_1AB_S4.Chip2,4,3,0
UADAQFEE:UTbX_1AB_S4.Chip3,1,-2,0
UADAQFEE:UTbX_2AB_M1E.Chip0,-2,-3,0
UADAQFEE:UTbX_2AB_M1E.Chip1,3,5,0
UADAQFEE:UTbX_2AB_M1E.Chip2,-5,-1,0
UADAQFEE:UTbX_2AB_M1E.Chip3,3,1,0
UADAQFEE:UTbX_2AB_M1W.Chip0,3,1,0
UADAQFEE:UTbX_2AB_M1W.Chip1,3,-1,0
UADAQFEE:UTbX_2AB_M1W.Chip2,-4,-1,0
UADAQFEE:UTbX_2AB_M1W.Chip3,2,0,0
UADAQFEE:UTbX_2AB_M2.Chip0,-1,0,0
UADAQFEE:UTbX_2AB_M2.Chip1,0,-3,0
UADAQFEE:UTbX_2AB_M2.Chip2,0,1,0
UADAQFEE:UTbX_2AB_M2.Chip3,1,-3,0
UADAQFEE:UTbX_2AB_M3.Chip0,0,-2,0
UADAQFEE:UTbX_2AB_M3.Chip1,2,-1,0
UADAQFEE:UTbX_2AB_M3.Chip3,5,-1,0
UADAQFEE:UTbX_2AB_M4.Chip0,1,1,0
UADAQFEE:UTbX_2AB_M4.Chip1,-1,0,0
UADAQFEE:UTbX_2AB_M4.Chip2,0,-1,0
UADAQFEE:UTbX_2AB_M4.Chip3,4,2,0
UADAQFEE:UTbX_2AB_S1E.Chip0,-6,-2,0
UADAQFEE:UTbX_2AB_S1E.Chip1,-6,-5,0
UADAQFEE:UTbX_2AB_S1E.Chip2,1,1,0
UADAQFEE:UTbX_2AB_S1E.Chip3,0,-2,0
UADAQFEE:UTbX_2AB_S1W.Chip0,2,2,0
UADAQFEE:UTbX_2AB_S1W.Chip1,2,1,0
UADAQFEE:UTbX_2AB_S1W.Chip2,2,3,0
UADAQFEE:UTbX_2AB_S1W.Chip3,-4,-5,0
UADAQFEE:UTbX_2AB_S2.Chip0,1,0,0
UADAQFEE:UTbX_2AB_S2.Chip1,-3,-1,0
UADAQFEE:UTbX_2AB_S2.Chip2,1,-1,0
UADAQFEE:UTbX_2AB_S2.Chip3,2,1,0
UADAQFEE:UTbX_2AB_S3.Chip0,2,-2,0
UADAQFEE:UTbX_2AB_S3.Chip1,2,0,0
UADAQFEE:UTbX_2AB_S3.Chip2,-2,-7,0
UADAQFEE:UTbX_2AB_S3.Chip3,-1,-2,0
UADAQFEE:UTbX_3AB_M1.Chip0,1,-4,0
UADAQFEE:UTbX_3AB_M1.Chip1,-4,-3,0
UADAQFEE:UTbX_3AB_M1.Chip2,-5,0,0
UADAQFEE:UTbX_3AB_M1.Chip3,3,0,0
UADAQFEE:UTbX_3AB_M2.Chip0,2,0,0
UADAQFEE:UTbX_3AB_M2.Chip1,2,3,1
UADAQFEE:UTbX_3AB_M2.Chip2,-3,-6,0
UADAQFEE:UTbX_3AB_M2.Chip3,0,-2,0
UADAQFEE:UTbX_3AB_M3.Chip0,0,0,0
UADAQFEE:UTbX_3AB_M3.Chip1,1,1,0
UADAQFEE:UTbX_3AB_M3.Chip2,-1,-1,0
UADAQFEE:UTbX_3AB_M3.Chip3,-2,1,0
UADAQFEE:UTbX_3AB_M4.Chip0,3,3,0
UADAQFEE:UTbX_3AB_M4.Chip1,2,3,0
UADAQFEE:UTbX_3AB_M4.Chip2,1,-1,0
UADAQFEE:UTbX_3AB_M4.Chip3,1,0,0
UADAQFEE:UTbX_3AB_S1.Chip0,-3,2,0
UADAQFEE:UTbX_3AB_S1.Chip1,-1,-5,0
UADAQFEE:UTbX_3AB_S1.Chip2,3,2,0
UADAQFEE:UTbX_3AB_S1.Chip3,-5,-5,0
UADAQFEE:UTbX_3AB_S2.Chip0,0,0,0
UADAQFEE:UTbX_3AB_S2.Chip1,-2,-2,0
UADAQFEE:UTbX_3AB_S2.Chip2,1,-1,0
UADAQFEE:UTbX_3AB_S2.Chip3,-4,2,0
UADAQFEE:UTbX_3AB_S3.Chip0,-2,-2,0
UADAQFEE:UTbX_3AB_S3.Chip1,1,-4,0
UADAQFEE:UTbX_3AB_S3.Chip2,-2,-2,0
UADAQFEE:UTbX_3AB_S3.Chip3,-2,-1,0
UADAQFEE:UTbV_4AB_M1.Chip0,4,0,0
UADAQFEE:UTbV_4AB_M1.Chip1,0,0,0
UADAQFEE:UTbV_4AB_M1.Chip2,1,2,0
UADAQFEE:UTbV_4AB_M1.Chip3,1,0,0
UADAQFEE:UTbV_4AB_M2.Chip0,-4,-3,0
UADAQFEE:UTbV_4AB_M2.Chip1,-2,1,1
UADAQFEE:UTbV_4AB_M2.Chip2,-3,0,0
UADAQFEE:UTbV_4AB_M2.Chip3,2,0,0
UADAQFEE:UTbV_4AB_M3.Chip0,2,2,0
UADAQFEE:UTbV_4AB_M3.Chip1,2,1,0
UADAQFEE:UTbV_4AB_M3.Chip2,0,-1,0
UADAQFEE:UTbV_4AB_M3.Chip3,1,-1,0
UADAQFEE:UTbV_4AB_M4.Chip0,2,3,0
UADAQFEE:UTbV_4AB_M4.Chip1,3,0,0
UADAQFEE:UTbV_4AB_M4.Chip2,2,-1,0
UADAQFEE:UTbV_4AB_M4.Chip3,2,1,0
UADAQFEE:UTbV_4AB_S1.Chip0,2,3,0
UADAQFEE:UTbV_4AB_S1.Chip1,-2,1,0
UADAQFEE:UTbV_4AB_S1.Chip2,1,0,0
UADAQFEE:UTbV_4AB_S1.Chip3,-2,-2,0
UADAQFEE:UTbV_4AB_S2.Chip0,-1,-1,0
UADAQFEE:UTbV_4AB_S2.Chip1,4,-2,0
UADAQFEE:UTbV_4AB_S2.Chip2,3,2,0
UADAQFEE:UTbV_4AB_S2.Chip3,3,1,0
UADAQFEE:UTbV_4AB_S3.Chip0,1,-1,1
UADAQFEE:UTbV_4AB_S3.Chip1,2,-1,0
UADAQFEE:UTbV_4AB_S3.Chip2,2,3,0
UADAQFEE:UTbV_4AB_S3.Chip3,1,2,0
UADAQFEE:UTbV_5AB_M1.Chip0,2,0,0
UADAQFEE:UTbV_5AB_M1.Chip1,3,2,0
UADAQFEE:UTbV_5AB_M1.Chip3,-1,-2,0
UADAQFEE:UTbV_5AB_M3.Chip0,2,2,0
UADAQFEE:UTbV_5AB_M3.Chip1,3,2,0
UADAQFEE:UTbV_5AB_M3.Chip2,-6,-4,0
UADAQFEE:UTbV_5AB_M3.Chip3,-3,0,0
UADAQFEE:UTbV_5AB_S1.Chip0,3,2,0
UADAQFEE:UTbV_5AB_S1.Chip1,-2,-1,0
UADAQFEE:UTbV_5AB_S1.Chip2,3,0,0
UADAQFEE:UTbV_5AB_S1.Chip3,-8,-8,0
UADAQFEE:UTbV_5AB_S2.Chip0,1,2,0
UADAQFEE:UTbV_5AB_S2.Chip1,1,0,1
UADAQFEE:UTbV_5AB_S2.Chip2,0,0,0
UADAQFEE:UTbV_5AB_S2.Chip3,-2,-3,0
UADAQFEE:UTbV_5AB_S3.Chip0,-1,-1,0
UADAQFEE:UTbV_5AB_S3.Chip1,-1,0,0
UADAQFEE:UTbV_5AB_S3.Chip2,-3,0,0
UADAQFEE:UTbV_5AB_S3.Chip3,1,2,0
UADAQFEE:UTbV_6AB_M1.Chip0,2,1,1
UADAQFEE:UTbV_6AB_M1.Chip1,-1,0,0
UADAQFEE:UTbV_6AB_M1.Chip2,-8,-3,0
UADAQFEE:UTbV_6AB_M1.Chip3,2,0,0
UADAQFEE:UTbV_6AB_M2.Chip0,0,2,0
UADAQFEE:UTbV_6AB_M2.Chip1,0,1,0
UADAQFEE:UTbV_6AB_M2.Chip2,-2,-2,0
UADAQFEE:UTbV_6AB_M2.Chip3,3,4,0
UADAQFEE:UTbV_6AB_M3.Chip0,0,0,0
UADAQFEE:UTbV_6AB_M3.Chip1,1,-1,1
UADAQFEE:UTbV_6AB_M3.Chip2,2,-1,0
UADAQFEE:UTbV_6AB_M3.Chip3,-6,-3,0
UADAQFEE:UTbV_6AB_M4.Chip0,1,2,0
UADAQFEE:UTbV_6AB_M4.Chip1,-1,0,0
UADAQFEE:UTbV_6AB_M4.Chip2,-1,0,0
UADAQFEE:UTbV_6AB_M4.Chip3,3,1,0
UADAQFEE:UTbV_6AB_S1.Chip0,4,0,0
UADAQFEE:UTbV_6AB_S1.Chip1,2,0,0
UADAQFEE:UTbV_6AB_S1.Chip2,-10,-9,0
UADAQFEE:UTbV_6AB_S1.Chip3,-1,-1,0
UADAQFEE:UTbV_6AB_S2.Chip0,-4,3,0
UADAQFEE:UTbV_6AB_S2.Chip1,-3,-9,0
UADAQFEE:UTbV_6AB_S2.Chip2,-5,-6,0
UADAQFEE:UTbV_6AB_S2.Chip3,-2,-3,0
UADAQFEE:UTbV_6AB_S3.Chip0,-4,-2,0
UADAQFEE:UTbV_6AB_S3.Chip1,3,3,0
UADAQFEE:UTbV_6AB_S3.Chip2,-4,-4,0
UADAQFEE:UTbV_6AB_S3.Chip3,1,-4,0
UADAQFEE:UTbX_4AB_M1.Chip0,1,1,0
UADAQFEE:UTbX_4AB_M1.Chip1,1,3,0
UADAQFEE:UTbX_4AB_M1.Chip2,1,1,0
UADAQFEE:UTbX_4AB_M1.Chip3,-3,-3,0
UADAQFEE:UTbX_4AB_M2.Chip0,3,5,0
UADAQFEE:UTbX_4AB_M2.Chip1,-1,0,0
UADAQFEE:UTbX_4AB_M2.Chip2,-2,2,0
UADAQFEE:UTbX_4AB_M2.Chip3,0,2,0
UADAQFEE:UTbX_4AB_M3.Chip0,-2,1,0
UADAQFEE:UTbX_4AB_M3.Chip1,-1,1,0
UADAQFEE:UTbX_4AB_M3.Chip2,-2,-1,0
UADAQFEE:UTbX_4AB_M3.Chip3,2,2,0
UADAQFEE:UTbX_4AB_M4.Chip0,-6,-6,0
UADAQFEE:UTbX_4AB_M4.Chip1,0,-4,0
UADAQFEE:UTbX_4AB_M4.Chip2,1,2,0
UADAQFEE:UTbX_4AB_M4.Chip3,-1,-2,0
UADAQFEE:UTbX_4AB_S1.Chip0,-2,-2,0
UADAQFEE:UTbX_4AB_S1.Chip1,2,2,0
UADAQFEE:UTbX_4AB_S1.Chip2,-2,-1,0
UADAQFEE:UTbX_4AB_S1.Chip3,1,0,0
UADAQFEE:UTbX_4AB_S2.Chip0,1,-1,0
UADAQFEE:UTbX_4AB_S2.Chip1,0,0,0
UADAQFEE:UTbX_4AB_S2.Chip2,2,1,0
UADAQFEE:UTbX_4AB_S2.Chip3,2,-3,0
UADAQFEE:UTbX_4AB_S3.Chip0,2,0,0
UADAQFEE:UTbX_4AB_S3.Chip1,-5,2,0
UADAQFEE:UTbX_4AB_S3.Chip2,0,1,0
UADAQFEE:UTbX_4AB_S3.Chip3,3,1,0
UADAQFEE:UTbX_5AB_M1.Chip0,1,-2,0
UADAQFEE:UTbX_5AB_M1.Chip1,0,0,0
UADAQFEE:UTbX_5AB_M1.Chip2,3,2,0
UADAQFEE:UTbX_5AB_M1.Chip3,0,2,0
UADAQFEE:UTbX_5AB_M2.Chip0,-4,-3,0
UADAQFEE:UTbX_5AB_M2.Chip1,1,2,0
UADAQFEE:UTbX_5AB_M2.Chip2,0,1,0
UADAQFEE:UTbX_5AB_M2.Chip3,-1,1,0
UADAQFEE:UTbX_5AB_M3.Chip0,-1,2,0
UADAQFEE:UTbX_5AB_M3.Chip1,0,0,0
UADAQFEE:UTbX_5AB_M3.Chip2,1,2,0
UADAQFEE:UTbX_5AB_M3.Chip3,2,0,0
UADAQFEE:UTbX_5AB_S1.Chip0,0,2,0
UADAQFEE:UTbX_5AB_S1.Chip1,0,2,0
UADAQFEE:UTbX_5AB_S1.Chip2,-1,0,0
UADAQFEE:UTbX_5AB_S1.Chip3,1,2,0
UADAQFEE:UTbX_5AB_S2.Chip0,-2,0,0
UADAQFEE:UTbX_5AB_S2.Chip1,1,2,0
UADAQFEE:UTbX_5AB_S2.Chip2,1,0,0
UADAQFEE:UTbX_5AB_S2.Chip3,-1,0,0
UADAQFEE:UTbX_5AB_S3.Chip0,-2,-2,0
UADAQFEE:UTbX_5AB_S3.Chip1,1,2,0
UADAQFEE:UTbX_5AB_S3.Chip2,2,1,0
UADAQFEE:UTbX_5AB_S3.Chip3,2,1,0
UADAQFEE:UTbX_6AB_M1.Chip0,1,2,0
UADAQFEE:UTbX_6AB_M1.Chip1,2,1,0
UADAQFEE:UTbX_6AB_M1.Chip2,4,2,0
UADAQFEE:UTbX_6AB_M1.Chip3,0,1,0
UADAQFEE:UTbX_6AB_M2.Chip0,2,1,0
UADAQFEE:UTbX_6AB_M2.Chip1,0,2,0
UADAQFEE:UTbX_6AB_M2.Chip2,-3,-4,0
UADAQFEE:UTbX_6AB_M2.Chip3,0,-2,1
UADAQFEE:UTbX_6AB_M3.Chip0,-1,-2,0
UADAQFEE:UTbX_6AB_M3.Chip1,1,-2,0
UADAQFEE:UTbX_6AB_M3.Chip2,1,2,0
UADAQFEE:UTbX_6AB_M3.Chip3,0,1,0
UADAQFEE:UTbX_6AB_M4.Chip0,1,0,0
UADAQFEE:UTbX_6AB_M4.Chip1,-7,-2,0
UADAQFEE:UTbX_6AB_M4.Chip2,-2,-3,0
UADAQFEE:UTbX_6AB_M4.Chip3,-2,-1,0
UADAQFEE:UTbX_6AB_S1.Chip0,3,1,1
UADAQFEE:UTbX_6AB_S1.Chip1,3,-1,0
UADAQFEE:UTbX_6AB_S1.Chip2,-6,-2,0
UADAQFEE:UTbX_6AB_S1.Chip3,3,3,0
UADAQFEE:UTbX_6AB_S2.Chip0,1,-1,0
UADAQFEE:UTbX_6AB_S2.Chip1,4,2,0
UADAQFEE:UTbX_6AB_S2.Chip2,-4,1,0
UADAQFEE:UTbX_6AB_S2.Chip3,3,1,0
UADAQFEE:UTbX_6AB_S3.Chip0,2,-1,0
UADAQFEE:UTbX_6AB_S3.Chip1,-2,0,0
UADAQFEE:UTbX_6AB_S3.Chip2,-2,-1,0
UADAQFEE:UTbX_6AB_S3.Chip3,3,3,0
UADAQFEE:UTbV_7AB_M1.Chip0,0,1,0
UADAQFEE:UTbV_7AB_M1.Chip1,-2,-2,0
UADAQFEE:UTbV_7AB_M1.Chip2,-1,-2,0
UADAQFEE:UTbV_7AB_M1.Chip3,2,-1,0
UADAQFEE:UTbV_7AB_M3.Chip0,-9,-4,0
UADAQFEE:UTbV_7AB_M3.Chip1,3,-2,0
UADAQFEE:UTbV_7AB_M3.Chip2,1,0,0
UADAQFEE:UTbV_7AB_M3.Chip3,-2,-1,0
UADAQFEE:UTbV_7AB_S2.Chip0,1,0,0
UADAQFEE:UTbV_7AB_S2.Chip1,-3,-8,0
UADAQFEE:UTbV_7AB_S2.Chip2,-2,-2,0
UADAQFEE:UTbV_7AB_S2.Chip3,-4,0,0
UADAQFEE:UTbV_7AB_S3.Chip0,2,2,0
UADAQFEE:UTbV_7AB_S3.Chip1,1,-1,0
UADAQFEE:UTbV_7AB_S3.Chip2,-3,-1,0
UADAQFEE:UTbV_7AB_S3.Chip3,3,1,0
UADAQFEE:UTbV_8AB_M1.Chip0,-26,-28,-28
UADAQFEE:UTbV_8AB_M1.Chip1,-28,-27,-25
UADAQFEE:UTbV_8AB_M1.Chip2,-27,-27,-23
UADAQFEE:UTbV_8AB_M1.Chip3,-25,-27,-27
UADAQFEE:UTbV_8AB_M2.Chip0,1,-3,0
UADAQFEE:UTbV_8AB_M2.Chip1,-3,4,0
UADAQFEE:UTbV_8AB_M2.Chip2,1,1,0
UADAQFEE:UTbV_8AB_M2.Chip3,-1,-3,0
UADAQFEE:UTbV_8AB_M4.Chip0,2,2,0
UADAQFEE:UTbV_8AB_M4.Chip1,2,-2,0
UADAQFEE:UTbV_8AB_M4.Chip2,1,-2,0
UADAQFEE:UTbV_8AB_M4.Chip3,2,2,0
UADAQFEE:UTbV_8AB_S1.Chip0,-1,2,0
UADAQFEE:UTbV_8AB_S1.Chip1,-2,0,0
UADAQFEE:UTbV_8AB_S1.Chip2,2,3,0
UADAQFEE:UTbV_8AB_S1.Chip3,2,1,0
UADAQFEE:UTbV_8AB_S2.Chip0,0,-3,1
UADAQFEE:UTbV_8AB_S2.Chip1,1,-2,0
UADAQFEE:UTbV_8AB_S2.Chip2,0,1,0
UADAQFEE:UTbV_8AB_S2.Chip3,0,2,0
UADAQFEE:UTbV_8AB_S3.Chip0,-3,-4,0
UADAQFEE:UTbV_8AB_S3.Chip1,-2,0,0
UADAQFEE:UTbV_8AB_S3.Chip2,-1,-1,0
UADAQFEE:UTbV_8AB_S3.Chip3,1,2,0
UADAQFEE:UTbV_9AB_M1.Chip0,3,2,0
UADAQFEE:UTbV_9AB_M1.Chip1,0,-2,0
UADAQFEE:UTbV_9AB_M1.Chip2,0,-1,0
UADAQFEE:UTbV_9AB_M1.Chip3,1,2,0
UADAQFEE:UTbV_9AB_M2.Chip0,0,0,0
UADAQFEE:UTbV_9AB_M2.Chip1,0,-2,0
UADAQFEE:UTbV_9AB_M2.Chip2,1,0,0
UADAQFEE:UTbV_9AB_M2.Chip3,-1,0,0
UADAQFEE:UTbV_9AB_M3.Chip0,-1,-2,0
UADAQFEE:UTbV_9AB_M3.Chip1,-3,-8,0
UADAQFEE:UTbV_9AB_M3.Chip2,1,1,0
UADAQFEE:UTbV_9AB_M3.Chip3,1,2,0
UADAQFEE:UTbV_9AB_M4.Chip0,0,3,0
UADAQFEE:UTbV_9AB_M4.Chip1,0,-2,0
UADAQFEE:UTbV_9AB_M4.Chip2,-2,1,0
UADAQFEE:UTbV_9AB_M4.Chip3,-3,-3,0
UADAQFEE:UTbV_9AB_S1.Chip0,0,0,0
UADAQFEE:UTbV_9AB_S1.Chip1,-1,2,0
UADAQFEE:UTbV_9AB_S1.Chip2,4,4,0
UADAQFEE:UTbV_9AB_S1.Chip3,-4,-2,1
UADAQFEE:UTbV_9AB_S2.Chip0,1,1,0
UADAQFEE:UTbV_9AB_S2.Chip1,0,-2,0
UADAQFEE:UTbV_9AB_S2.Chip2,4,4,0
UADAQFEE:UTbV_9AB_S2.Chip3,1,1,0
UADAQFEE:UTbV_9AB_S3.Chip0,-3,0,0
UADAQFEE:UTbV_9AB_S3.Chip1,0,1,0
UADAQFEE:UTbV_9AB_S3.Chip2,3,0,0
UADAQFEE:UTbV_9AB_S3.Chip3,1,3,0
UADAQFEE:UTbX_7AB_M1.Chip0,-5,1,0
UADAQFEE:UTbX_7AB_M1.Chip1,3,-1,0
UADAQFEE:UTbX_7AB_M1.Chip2,0,2,0
UADAQFEE:UTbX_7AB_M1.Chip3,0,1,0
UADAQFEE:UTbX_7AB_M3.Chip0,4,1,0
UADAQFEE:UTbX_7AB_M3.Chip1,-4,-5,0
UADAQFEE:UTbX_7AB_M3.Chip2,-1,-2,0
UADAQFEE:UTbX_7AB_M3.Chip3,0,-2,0
UADAQFEE:UTbX_7AB_S2.Chip0,-1,-2,0
UADAQFEE:UTbX_7AB_S2.Chip1,0,2,0
UADAQFEE:UTbX_7AB_S3.Chip0,-1,0,0
UADAQFEE:UTbX_7AB_S3.Chip1,-3,-2,0
UADAQFEE:UTbX_7AB_S3.Chip2,2,3,0
UADAQFEE:UTbX_7AB_S3.Chip3,0,0,0
UADAQFEE:UTbX_8AB_M1.Chip0,-5,-2,0
UADAQFEE:UTbX_8AB_M1.Chip1,2,2,0
UADAQFEE:UTbX_8AB_M1.Chip2,-1,-3,0
UADAQFEE:UTbX_8AB_M1.Chip3,-3,0,0
UADAQFEE:UTbX_8AB_M2.Chip0,-3,-1,0
UADAQFEE:UTbX_8AB_M2.Chip1,-1,-3,0
UADAQFEE:UTbX_8AB_M2.Chip2,3,2,0
UADAQFEE:UTbX_8AB_M2.Chip3,-3,-2,0
UADAQFEE:UTbX_8AB_M3.Chip0,-1,-1,0
UADAQFEE:UTbX_8AB_M3.Chip1,0,0,0
UADAQFEE:UTbX_8AB_M3.Chip2,-1,-3,0
UADAQFEE:UTbX_8AB_M3.Chip3,2,1,0
UADAQFEE:UTbX_8AB_M4.Chip0,2,-1,0
UADAQFEE:UTbX_8AB_M4.Chip1,-2,-5,0
UADAQFEE:UTbX_8AB_M4.Chip2,-3,-2,0
UADAQFEE:UTbX_8AB_M4.Chip3,-1,0,0
UADAQFEE:UTbX_8AB_S1.Chip0,1,0,0
UADAQFEE:UTbX_8AB_S1.Chip1,3,-1,0
UADAQFEE:UTbX_8AB_S1.Chip2,-3,-5,0
UADAQFEE:UTbX_8AB_S1.Chip3,0,-1,0
UADAQFEE:UTbX_8AB_S2.Chip0,-1,0,0
UADAQFEE:UTbX_8AB_S2.Chip1,4,2,0
UADAQFEE:UTbX_8AB_S2.Chip2,0,1,0
UADAQFEE:UTbX_8AB_S2.Chip3,-1,0,0
UADAQFEE:UTbX_8AB_S3.Chip0,-8,-4,0
UADAQFEE:UTbX_8AB_S3.Chip1,-3,0,0
UADAQFEE:UTbX_8AB_S3.Chip2,1,0,0
UADAQFEE:UTbX_8AB_S3.Chip3,1,1,0
UADAQFEE:UTbX_9AB_M1.Chip0,3,0,0
UADAQFEE:UTbX_9AB_M1.Chip1,2,2,0
UADAQFEE:UTbX_9AB_M1.Chip2,1,1,0
UADAQFEE:UTbX_9AB_M1.Chip3,-3,0,0
UADAQFEE:UTbX_9AB_M2.Chip0,-7,-3,0
UADAQFEE:UTbX_9AB_M2.Chip1,2,2,0
UADAQFEE:UTbX_9AB_M2.Chip2,3,-1,0
UADAQFEE:UTbX_9AB_M2.Chip3,-4,-6,0
UADAQFEE:UTbX_9AB_M3.Chip0,2,3,0
UADAQFEE:UTbX_9AB_M3.Chip1,1,-2,0
UADAQFEE:UTbX_9AB_M3.Chip2,0,-2,0
UADAQFEE:UTbX_9AB_M3.Chip3,3,0,0
UADAQFEE:UTbX_9AB_M4.Chip0,3,2,0
UADAQFEE:UTbX_9AB_M4.Chip1,-1,0,0
UADAQFEE:UTbX_9AB_M4.Chip2,-2,-1,0
UADAQFEE:UTbX_9AB_M4.Chip3,-4,-1,0
UADAQFEE:UTbX_9AB_S1.Chip0,-2,0,0
UADAQFEE:UTbX_9AB_S1.Chip1,-2,0,0
UADAQFEE:UTbX_9AB_S1.Chip2,-8,-5,0
UADAQFEE:UTbX_9AB_S1.Chip3,-2,4,0
UADAQFEE:UTbX_9AB_S2.Chip0,-6,-3,0
UADAQFEE:UTbX_9AB_S2.Chip1,-3,-2,0
UADAQFEE:UTbX_9AB_S2.Chip2,1,1,0
UADAQFEE:UTbX_9AB_S2.Chip3,0,0,0
UADAQFEE:UTbX_9AB_S3.Chip0,-5,-2,0
UADAQFEE:UTbX_9AB_S3.Chip1,1,1,0
UADAQFEE:UTbX_9AB_S3.Chip2,2,4,0
UADAQFEE:UTbX_9AB_S3.Chip3,-1,3,0
