ASIC,PLL A,PLL B,PLL C
UADAQFEE:UTaX_1AT_M1E.Chip0,0,2,2
UADAQFEE:UTaX_1AT_M1E.Chip1,0,0,1
UADAQFEE:UTaX_1AT_M1E.Chip2,0,-1,0
UADAQFEE:UTaX_1AT_M1E.Chip3,0,2,3
UADAQFEE:UTaX_1AT_M1W.Chip0,0,1,1
UADAQFEE:UTaX_1AT_M1W.Chip1,0,-3,-3
UADAQFEE:UTaX_1AT_M1W.Chip2,0,0,-3
UADAQFEE:UTaX_1AT_M1W.Chip3,0,2,2
UADAQFEE:UTaX_1AT_M2.Chip0,7,0,-1
UADAQFEE:UTaX_1AT_M2.Chip1,1,0,0
UADAQFEE:UTaX_1AT_M2.Chip2,0,1,0
UADAQFEE:UTaX_1AT_M2.Chip3,0,0,0
UADAQFEE:UTaX_1AT_M3.Chip0,0,1,0
UADAQFEE:UTaX_1AT_M3.Chip1,0,1,1
UADAQFEE:UTaX_1AT_M3.Chip2,0,-4,-4
UADAQFEE:UTaX_1AT_M3.Chip3,0,1,-4
UADAQFEE:UTaX_1AT_M4.Chip0,0,2,1
UADAQFEE:UTaX_1AT_M4.Chip1,0,2,-2
UADAQFEE:UTaX_1AT_M4.Chip2,0,-2,1
UADAQFEE:UTaX_1AT_M4.Chip3,0,0,-1
UADAQFEE:UTaX_1AT_S1E.Chip0,0,3,1
UADAQFEE:UTaX_1AT_S1E.Chip1,0,-1,1
UADAQFEE:UTaX_1AT_S1E.Chip2,0,0,2
UADAQFEE:UTaX_1AT_S1E.Chip3,0,-2,-2
UADAQFEE:UTaX_1AT_S1W.Chip0,0,-1,-4
UADAQFEE:UTaX_1AT_S1W.Chip1,0,0,3
UADAQFEE:UTaX_1AT_S1W.Chip2,0,0,-2
UADAQFEE:UTaX_1AT_S1W.Chip3,0,-3,1
UADAQFEE:UTaX_1AT_S2E.Chip0,0,-6,-2
UADAQFEE:UTaX_1AT_S2E.Chip1,0,-4,-3
UADAQFEE:UTaX_1AT_S2E.Chip2,0,-1,2
UADAQFEE:UTaX_1AT_S2E.Chip3,0,1,2
UADAQFEE:UTaX_1AT_S2W.Chip0,0,1,0
UADAQFEE:UTaX_1AT_S2W.Chip1,0,2,0
UADAQFEE:UTaX_1AT_S2W.Chip2,0,3,3
UADAQFEE:UTaX_1AT_S2W.Chip3,0,-2,1
UADAQFEE:UTaX_1AT_S3.Chip0,0,0,-4
UADAQFEE:UTaX_1AT_S3.Chip1,0,-1,-3
UADAQFEE:UTaX_1AT_S3.Chip2,0,-3,3
UADAQFEE:UTaX_1AT_S3.Chip3,0,1,-1
UADAQFEE:UTaX_1AT_S4.Chip0,0,-2,-1
UADAQFEE:UTaX_1AT_S4.Chip1,0,-2,1
UADAQFEE:UTaX_1AT_S4.Chip2,0,3,2
UADAQFEE:UTaX_1AT_S4.Chip3,1,0,3
UADAQFEE:UTaX_2AT_M1E.Chip0,0,-3,-2
UADAQFEE:UTaX_2AT_M1E.Chip1,0,-6,-5
UADAQFEE:UTaX_2AT_M1E.Chip2,0,-2,0
UADAQFEE:UTaX_2AT_M1E.Chip3,0,2,-1
UADAQFEE:UTaX_2AT_M1W.Chip0,0,2,2
UADAQFEE:UTaX_2AT_M1W.Chip1,0,-1,0
UADAQFEE:UTaX_2AT_M1W.Chip2,0,1,0
UADAQFEE:UTaX_2AT_M1W.Chip3,0,1,1
UADAQFEE:UTaX_2AT_M2.Chip0,0,1,-3
UADAQFEE:UTaX_2AT_M2.Chip1,0,-4,1
UADAQFEE:UTaX_2AT_M2.Chip2,0,1,-3
UADAQFEE:UTaX_2AT_M2.Chip3,0,2,0
UADAQFEE:UTaX_2AT_M3.Chip0,0,-2,1
UADAQFEE:UTaX_2AT_M3.Chip1,0,3,0
UADAQFEE:UTaX_2AT_M3.Chip2,0,-5,-6
UADAQFEE:UTaX_2AT_M3.Chip3,0,0,1
UADAQFEE:UTaX_2AT_M4.Chip0,0,-3,0
UADAQFEE:UTaX_2AT_M4.Chip1,0,0,2
UADAQFEE:UTaX_2AT_M4.Chip2,0,-2,-1
UADAQFEE:UTaX_2AT_M4.Chip3,0,0,1
UADAQFEE:UTaX_2AT_S1E.Chip0,0,0,0
UADAQFEE:UTaX_2AT_S1E.Chip1,0,-1,-3
UADAQFEE:UTaX_2AT_S1E.Chip2,0,2,2
UADAQFEE:UTaX_2AT_S1E.Chip3,0,0,1
UADAQFEE:UTaX_2AT_S1W.Chip0,0,0,-2
UADAQFEE:UTaX_2AT_S1W.Chip1,0,-4,-4
UADAQFEE:UTaX_2AT_S1W.Chip2,0,1,2
UADAQFEE:UTaX_2AT_S1W.Chip3,0,2,2
UADAQFEE:UTaX_2AT_S2.Chip0,0,0,0
UADAQFEE:UTaX_2AT_S2.Chip1,0,2,2
UADAQFEE:UTaX_2AT_S2.Chip2,0,-4,2
UADAQFEE:UTaX_2AT_S2.Chip3,0,-1,3
UADAQFEE:UTaX_2AT_S3.Chip0,0,-11,-6
UADAQFEE:UTaX_2AT_S3.Chip1,0,-5,-3
UADAQFEE:UTaX_2AT_S3.Chip2,0,3,3
UADAQFEE:UTaX_2AT_S3.Chip3,0,0,1
UADAQFEE:UTaX_3AT_M1.Chip0,0,0,-3
UADAQFEE:UTaX_3AT_M1.Chip1,0,0,-1
UADAQFEE:UTaX_3AT_M1.Chip2,0,2,0
UADAQFEE:UTaX_3AT_M1.Chip3,0,1,1
UADAQFEE:UTaX_3AT_M2.Chip0,0,1,-1
UADAQFEE:UTaX_3AT_M2.Chip1,0,2,-2
UADAQFEE:UTaX_3AT_M2.Chip2,0,0,1
UADAQFEE:UTaX_3AT_M2.Chip3,0,1,-1
UADAQFEE:UTaX_3AT_M3.Chip0,0,1,1
UADAQFEE:UTaX_3AT_M3.Chip1,0,1,0
UADAQFEE:UTaX_3AT_M3.Chip2,0,1,-4
UADAQFEE:UTaX_3AT_M3.Chip3,0,-1,-2
UADAQFEE:UTaX_3AT_M4.Chip0,0,-4,-1
UADAQFEE:UTaX_3AT_M4.Chip1,0,0,2
UADAQFEE:UTaX_3AT_M4.Chip2,1,-1,-1
UADAQFEE:UTaX_3AT_M4.Chip3,0,0,1
UADAQFEE:UTaX_3AT_S1.Chip0,1,1,4
UADAQFEE:UTaX_3AT_S1.Chip1,0,1,0
UADAQFEE:UTaX_3AT_S1.Chip2,0,1,1
UADAQFEE:UTaX_3AT_S1.Chip3,0,-2,1
UADAQFEE:UTaX_3AT_S2.Chip0,0,2,3
UADAQFEE:UTaX_3AT_S2.Chip1,0,-1,-3
UADAQFEE:UTaX_3AT_S2.Chip2,0,-1,-1
UADAQFEE:UTaX_3AT_S2.Chip3,0,0,0
UADAQFEE:UTaX_3AT_S3.Chip0,0,0,0
UADAQFEE:UTaX_3AT_S3.Chip1,0,-3,1
UADAQFEE:UTaX_3AT_S3.Chip2,0,0,1
UADAQFEE:UTaX_3AT_S3.Chip3,0,-1,-3
UADAQFEE:UTaU_1AT_M1E.Chip0,0,-3,-6
UADAQFEE:UTaU_1AT_M1E.Chip1,0,-1,0
UADAQFEE:UTaU_1AT_M1E.Chip2,0,-4,-3
UADAQFEE:UTaU_1AT_M1E.Chip3,0,0,-3
UADAQFEE:UTaU_1AT_M1W.Chip0,0,-1,-1
UADAQFEE:UTaU_1AT_M1W.Chip1,0,-3,-3
UADAQFEE:UTaU_1AT_M1W.Chip2,0,1,-2
UADAQFEE:UTaU_1AT_M1W.Chip3,0,2,0
UADAQFEE:UTaU_1AT_M2.Chip0,0,0,2
UADAQFEE:UTaU_1AT_M2.Chip1,0,-2,-3
UADAQFEE:UTaU_1AT_M2.Chip2,0,-9,-4
UADAQFEE:UTaU_1AT_M2.Chip3,0,4,1
UADAQFEE:UTaU_1AT_M3.Chip0,0,0,1
UADAQFEE:UTaU_1AT_M3.Chip1,0,6,3
UADAQFEE:UTaU_1AT_M3.Chip2,0,2,1
UADAQFEE:UTaU_1AT_M3.Chip3,0,-4,-3
UADAQFEE:UTaU_1AT_M4.Chip0,0,1,2
UADAQFEE:UTaU_1AT_M4.Chip1,0,0,-1
UADAQFEE:UTaU_1AT_M4.Chip2,0,-4,-2
UADAQFEE:UTaU_1AT_M4.Chip3,0,1,-1
UADAQFEE:UTaU_1AT_S1E.Chip0,0,-4,-6
UADAQFEE:UTaU_1AT_S1E.Chip1,0,-1,5
UADAQFEE:UTaU_1AT_S1E.Chip2,0,0,0
UADAQFEE:UTaU_1AT_S1E.Chip3,0,-4,-3
UADAQFEE:UTaU_1AT_S1W.Chip0,0,0,3
UADAQFEE:UTaU_1AT_S1W.Chip1,0,-3,0
UADAQFEE:UTaU_1AT_S1W.Chip2,0,3,-2
UADAQFEE:UTaU_1AT_S1W.Chip3,0,1,-2
UADAQFEE:UTaU_1AT_S2E.Chip0,0,0,1
UADAQFEE:UTaU_1AT_S2E.Chip1,0,-2,1
UADAQFEE:UTaU_1AT_S2E.Chip2,0,1,1
UADAQFEE:UTaU_1AT_S2E.Chip3,0,5,4
UADAQFEE:UTaU_1AT_S2W.Chip0,0,-5,-2
UADAQFEE:UTaU_1AT_S2W.Chip1,0,2,-2
UADAQFEE:UTaU_1AT_S2W.Chip2,0,-2,2
UADAQFEE:UTaU_1AT_S2W.Chip3,0,-3,1
UADAQFEE:UTaU_1AT_S3.Chip0,0,0,-2
UADAQFEE:UTaU_1AT_S3.Chip1,0,2,3
UADAQFEE:UTaU_1AT_S3.Chip2,0,3,0
UADAQFEE:UTaU_1AT_S3.Chip3,-1,-5,-6
UADAQFEE:UTaU_1AT_S4.Chip0,0,-3,-2
UADAQFEE:UTaU_1AT_S4.Chip1,1,3,2
UADAQFEE:UTaU_1AT_S4.Chip2,0,2,0
UADAQFEE:UTaU_1AT_S4.Chip3,0,0,-1
UADAQFEE:UTaU_2AT_M1E.Chip0,0,-2,-1
UADAQFEE:UTaU_2AT_M1E.Chip1,0,0,0
UADAQFEE:UTaU_2AT_M1E.Chip2,0,-1,-1
UADAQFEE:UTaU_2AT_M1E.Chip3,0,-6,-4
UADAQFEE:UTaU_2AT_M1W.Chip0,0,-3,1
UADAQFEE:UTaU_2AT_M1W.Chip1,0,2,-4
UADAQFEE:UTaU_2AT_M1W.Chip2,0,0,-4
UADAQFEE:UTaU_2AT_M1W.Chip3,0,1,1
UADAQFEE:UTaU_2AT_M2.Chip0,0,3,2
UADAQFEE:UTaU_2AT_M2.Chip1,-1,5,5
UADAQFEE:UTaU_2AT_M2.Chip2,0,-26,-5
UADAQFEE:UTaU_2AT_M2.Chip3,0,-2,-3
UADAQFEE:UTaU_2AT_M3.Chip0,0,1,-6
UADAQFEE:UTaU_2AT_M3.Chip1,0,-1,0
UADAQFEE:UTaU_2AT_M3.Chip2,0,2,-1
UADAQFEE:UTaU_2AT_M3.Chip3,0,0,1
UADAQFEE:UTaU_2AT_M4.Chip0,0,-1,1
UADAQFEE:UTaU_2AT_M4.Chip1,0,0,1
UADAQFEE:UTaU_2AT_M4.Chip2,0,-5,-1
UADAQFEE:UTaU_2AT_M4.Chip3,0,-1,-1
UADAQFEE:UTaU_2AT_S1E.Chip0,0,0,-4
UADAQFEE:UTaU_2AT_S1E.Chip1,0,2,1
UADAQFEE:UTaU_2AT_S1E.Chip2,0,1,2
UADAQFEE:UTaU_2AT_S1E.Chip3,0,3,-4
UADAQFEE:UTaU_2AT_S1W.Chip0,0,-1,2
UADAQFEE:UTaU_2AT_S1W.Chip1,0,-2,0
UADAQFEE:UTaU_2AT_S1W.Chip2,0,-2,3
UADAQFEE:UTaU_2AT_S1W.Chip3,0,-1,0
UADAQFEE:UTaU_2AT_S2.Chip0,0,-2,1
UADAQFEE:UTaU_2AT_S2.Chip1,0,-2,-1
UADAQFEE:UTaU_2AT_S2.Chip2,0,-2,0
UADAQFEE:UTaU_2AT_S2.Chip3,0,0,3
UADAQFEE:UTaU_2AT_S3.Chip0,0,-4,-3
UADAQFEE:UTaU_2AT_S3.Chip1,0,-1,0
UADAQFEE:UTaU_2AT_S3.Chip2,0,2,1
UADAQFEE:UTaU_2AT_S3.Chip3,0,2,1
UADAQFEE:UTaU_3AT_M1.Chip0,0,-2,-3
UADAQFEE:UTaU_3AT_M1.Chip1,0,-2,1
UADAQFEE:UTaU_3AT_M1.Chip2,0,-3,1
UADAQFEE:UTaU_3AT_M1.Chip3,0,-3,-3
UADAQFEE:UTaU_3AT_M2.Chip0,0,2,0
UADAQFEE:UTaU_3AT_M2.Chip1,0,2,2
UADAQFEE:UTaU_3AT_M2.Chip2,0,-3,0
UADAQFEE:UTaU_3AT_M2.Chip3,-1,-1,1
UADAQFEE:UTaU_3AT_M3.Chip0,0,0,1
UADAQFEE:UTaU_3AT_M3.Chip1,0,2,0
UADAQFEE:UTaU_3AT_M3.Chip2,0,1,1
UADAQFEE:UTaU_3AT_M3.Chip3,0,-2,1
UADAQFEE:UTaU_3AT_M4.Chip0,0,-2,-2
UADAQFEE:UTaU_3AT_M4.Chip1,0,-2,-6
UADAQFEE:UTaU_3AT_M4.Chip2,0,-2,-1
UADAQFEE:UTaU_3AT_M4.Chip3,0,-1,1
UADAQFEE:UTaU_3AT_S1.Chip0,0,2,1
UADAQFEE:UTaU_3AT_S1.Chip1,0,0,2
UADAQFEE:UTaU_3AT_S1.Chip2,0,2,3
UADAQFEE:UTaU_3AT_S1.Chip3,0,-1,0
UADAQFEE:UTaU_3AT_S2.Chip0,0,1,3
UADAQFEE:UTaU_3AT_S2.Chip1,0,-3,2
UADAQFEE:UTaU_3AT_S2.Chip2,0,-1,-3
UADAQFEE:UTaU_3AT_S2.Chip3,0,-2,0
UADAQFEE:UTaU_3AT_S3.Chip0,0,-5,0
UADAQFEE:UTaU_3AT_S3.Chip1,0,2,4
UADAQFEE:UTaU_3AT_S3.Chip2,0,1,0
UADAQFEE:UTaU_3AT_S3.Chip3,0,-2,2
UADAQFEE:UTaX_4AT_M1.Chip0,0,-1,0
UADAQFEE:UTaX_4AT_M1.Chip1,0,0,1
UADAQFEE:UTaX_4AT_M1.Chip2,0,2,2
UADAQFEE:UTaX_4AT_M1.Chip3,0,-3,-2
UADAQFEE:UTaX_4AT_M2.Chip0,0,-2,-2
UADAQFEE:UTaX_4AT_M2.Chip1,0,0,1
UADAQFEE:UTaX_4AT_M2.Chip2,0,0,1
UADAQFEE:UTaX_4AT_M2.Chip3,0,2,1
UADAQFEE:UTaX_4AT_M3.Chip0,0,-1,2
UADAQFEE:UTaX_4AT_M3.Chip1,0,3,2
UADAQFEE:UTaX_4AT_M3.Chip2,0,0,2
UADAQFEE:UTaX_4AT_M3.Chip3,0,1,2
UADAQFEE:UTaX_4AT_M4.Chip0,0,1,1
UADAQFEE:UTaX_4AT_M4.Chip1,0,-1,1
UADAQFEE:UTaX_4AT_M4.Chip2,0,3,2
UADAQFEE:UTaX_4AT_M4.Chip3,0,-2,2
UADAQFEE:UTaX_4AT_S1.Chip0,0,0,-2
UADAQFEE:UTaX_4AT_S1.Chip1,0,2,-2
UADAQFEE:UTaX_4AT_S1.Chip2,0,0,-6
UADAQFEE:UTaX_4AT_S1.Chip3,0,3,3
UADAQFEE:UTaX_4AT_S2.Chip0,0,1,0
UADAQFEE:UTaX_4AT_S2.Chip1,0,-1,4
UADAQFEE:UTaX_4AT_S2.Chip2,0,3,4
UADAQFEE:UTaX_4AT_S2.Chip3,0,3,2
UADAQFEE:UTaX_4AT_S3.Chip0,0,1,2
UADAQFEE:UTaX_4AT_S3.Chip1,0,-2,-2
UADAQFEE:UTaX_4AT_S3.Chip2,0,1,2
UADAQFEE:UTaX_4AT_S3.Chip3,0,3,4
UADAQFEE:UTaX_5AT_M1.Chip0,0,1,3
UADAQFEE:UTaX_5AT_M1.Chip1,0,2,1
UADAQFEE:UTaX_5AT_M1.Chip2,0,3,1
UADAQFEE:UTaX_5AT_M1.Chip3,0,-2,-6
UADAQFEE:UTaX_5AT_M2.Chip0,0,-2,0
UADAQFEE:UTaX_5AT_M2.Chip1,0,-2,0
UADAQFEE:UTaX_5AT_M2.Chip2,0,1,-2
UADAQFEE:UTaX_5AT_M2.Chip3,0,2,2
UADAQFEE:UTaX_5AT_M3.Chip0,0,-2,-2
UADAQFEE:UTaX_5AT_M3.Chip1,0,2,-2
UADAQFEE:UTaX_5AT_M3.Chip2,0,0,-2
UADAQFEE:UTaX_5AT_M3.Chip3,0,1,-4
UADAQFEE:UTaX_5AT_M4.Chip0,0,-2,-1
UADAQFEE:UTaX_5AT_M4.Chip1,0,4,-1
UADAQFEE:UTaX_5AT_M4.Chip2,0,-4,0
UADAQFEE:UTaX_5AT_M4.Chip3,0,2,2
UADAQFEE:UTaX_5AT_S1.Chip0,0,-4,-8
UADAQFEE:UTaX_5AT_S1.Chip1,0,-1,-3
UADAQFEE:UTaX_5AT_S1.Chip2,0,1,-2
UADAQFEE:UTaX_5AT_S1.Chip3,0,-1,1
UADAQFEE:UTaX_5AT_S2.Chip0,0,-3,-1
UADAQFEE:UTaX_5AT_S2.Chip1,0,0,0
UADAQFEE:UTaX_5AT_S2.Chip2,1,-2,-3
UADAQFEE:UTaX_5AT_S2.Chip3,0,1,3
UADAQFEE:UTaX_5AT_S3.Chip0,0,2,-1
UADAQFEE:UTaX_5AT_S3.Chip1,0,3,2
UADAQFEE:UTaX_5AT_S3.Chip2,0,1,1
UADAQFEE:UTaX_5AT_S3.Chip3,0,1,1
UADAQFEE:UTaX_6AT_M1.Chip0,0,-2,1
UADAQFEE:UTaX_6AT_M1.Chip1,0,1,1
UADAQFEE:UTaX_6AT_M1.Chip2,0,1,1
UADAQFEE:UTaX_6AT_M2.Chip0,0,1,-2
UADAQFEE:UTaX_6AT_M2.Chip1,0,2,-1
UADAQFEE:UTaX_6AT_M2.Chip2,0,3,-2
UADAQFEE:UTaX_6AT_M2.Chip3,0,1,0
UADAQFEE:UTaX_6AT_M3.Chip0,0,1,3
UADAQFEE:UTaX_6AT_M3.Chip1,0,3,-2
UADAQFEE:UTaX_6AT_M3.Chip2,0,1,-2
UADAQFEE:UTaX_6AT_M3.Chip3,0,-5,-2
UADAQFEE:UTaX_6AT_M4.Chip0,0,0,-4
UADAQFEE:UTaX_6AT_M4.Chip1,0,-1,-1
UADAQFEE:UTaX_6AT_M4.Chip2,0,3,1
UADAQFEE:UTaX_6AT_M4.Chip3,0,1,3
UADAQFEE:UTaX_6AT_S1.Chip0,0,2,1
UADAQFEE:UTaX_6AT_S1.Chip1,0,5,4
UADAQFEE:UTaX_6AT_S1.Chip2,0,2,0
UADAQFEE:UTaX_6AT_S1.Chip3,0,0,-1
UADAQFEE:UTaX_6AT_S2.Chip0,1,1,2
UADAQFEE:UTaX_6AT_S2.Chip1,0,0,-3
UADAQFEE:UTaX_6AT_S2.Chip2,0,-4,0
UADAQFEE:UTaX_6AT_S2.Chip3,0,0,-6
UADAQFEE:UTaX_6AT_S3.Chip0,0,-16,-7
UADAQFEE:UTaX_6AT_S3.Chip1,0,0,-4
UADAQFEE:UTaX_6AT_S3.Chip2,0,1,1
UADAQFEE:UTaX_6AT_S3.Chip3,0,2,2
UADAQFEE:UTaU_4AT_M1.Chip0,0,2,-2
UADAQFEE:UTaU_4AT_M1.Chip1,0,1,2
UADAQFEE:UTaU_4AT_M1.Chip2,0,-1,1
UADAQFEE:UTaU_4AT_M1.Chip3,0,0,1
UADAQFEE:UTaU_4AT_M2.Chip0,1,-4,-3
UADAQFEE:UTaU_4AT_M2.Chip1,0,2,1
UADAQFEE:UTaU_4AT_M2.Chip2,0,-3,-7
UADAQFEE:UTaU_4AT_M2.Chip3,0,2,-3
UADAQFEE:UTaU_4AT_M3.Chip0,0,0,-1
UADAQFEE:UTaU_4AT_M3.Chip1,0,3,0
UADAQFEE:UTaU_4AT_M3.Chip2,0,1,-1
UADAQFEE:UTaU_4AT_M3.Chip3,0,1,1
UADAQFEE:UTaU_4AT_S1.Chip0,0,-3,3
UADAQFEE:UTaU_4AT_S1.Chip1,0,-2,-1
UADAQFEE:UTaU_4AT_S1.Chip2,0,-1,3
UADAQFEE:UTaU_4AT_S1.Chip3,0,2,-1
UADAQFEE:UTaU_4AT_S2.Chip0,0,1,3
UADAQFEE:UTaU_4AT_S2.Chip1,0,-3,-2
UADAQFEE:UTaU_4AT_S2.Chip2,0,1,2
UADAQFEE:UTaU_4AT_S2.Chip3,0,-1,2
UADAQFEE:UTaU_4AT_S3.Chip0,0,-1,-5
UADAQFEE:UTaU_4AT_S3.Chip1,0,1,-1
UADAQFEE:UTaU_4AT_S3.Chip2,0,-9,-3
UADAQFEE:UTaU_4AT_S3.Chip3,1,0,3
UADAQFEE:UTaU_5AT_M1.Chip0,1,0,1
UADAQFEE:UTaU_5AT_M1.Chip1,0,-4,2
UADAQFEE:UTaU_5AT_M1.Chip2,1,0,2
UADAQFEE:UTaU_5AT_M1.Chip3,0,5,-4
UADAQFEE:UTaU_5AT_M2.Chip0,0,-2,-1
UADAQFEE:UTaU_5AT_M2.Chip1,0,2,3
UADAQFEE:UTaU_5AT_M2.Chip2,0,0,0
UADAQFEE:UTaU_5AT_M2.Chip3,0,0,0
UADAQFEE:UTaU_5AT_M3.Chip0,0,3,1
UADAQFEE:UTaU_5AT_M3.Chip1,0,-4,-5
UADAQFEE:UTaU_5AT_M3.Chip2,0,1,3
UADAQFEE:UTaU_5AT_M3.Chip3,0,-1,-1
UADAQFEE:UTaU_5AT_M4.Chip0,0,-1,0
UADAQFEE:UTaU_5AT_M4.Chip1,0,3,2
UADAQFEE:UTaU_5AT_M4.Chip2,0,3,4
UADAQFEE:UTaU_5AT_M4.Chip3,0,-3,-1
UADAQFEE:UTaU_5AT_S1.Chip0,0,0,-3
UADAQFEE:UTaU_5AT_S1.Chip1,0,0,0
UADAQFEE:UTaU_5AT_S1.Chip2,0,-8,-9
UADAQFEE:UTaU_5AT_S1.Chip3,1,2,0
UADAQFEE:UTaU_5AT_S2.Chip0,0,0,1
UADAQFEE:UTaU_5AT_S2.Chip1,0,1,2
UADAQFEE:UTaU_5AT_S2.Chip2,0,1,3
UADAQFEE:UTaU_5AT_S2.Chip3,0,2,3
UADAQFEE:UTaU_5AT_S3.Chip0,0,-3,-3
UADAQFEE:UTaU_5AT_S3.Chip1,0,3,-2
UADAQFEE:UTaU_5AT_S3.Chip2,0,2,1
UADAQFEE:UTaU_5AT_S3.Chip3,0,2,1
UADAQFEE:UTaU_6AT_M1.Chip0,0,2,2
UADAQFEE:UTaU_6AT_M1.Chip1,0,1,-1
UADAQFEE:UTaU_6AT_M1.Chip2,0,-1,-2
UADAQFEE:UTaU_6AT_M1.Chip3,0,-6,-3
UADAQFEE:UTaU_6AT_M2.Chip0,0,1,-2
UADAQFEE:UTaU_6AT_M2.Chip1,0,-4,-4
UADAQFEE:UTaU_6AT_M2.Chip2,0,-3,-2
UADAQFEE:UTaU_6AT_M2.Chip3,0,-3,-1
UADAQFEE:UTaU_6AT_M3.Chip0,0,-4,1
UADAQFEE:UTaU_6AT_M3.Chip1,0,1,0
UADAQFEE:UTaU_6AT_M3.Chip2,0,1,-3
UADAQFEE:UTaU_6AT_M3.Chip3,0,2,3
UADAQFEE:UTaU_6AT_M4.Chip0,0,-4,1
UADAQFEE:UTaU_6AT_M4.Chip1,0,-1,2
UADAQFEE:UTaU_6AT_M4.Chip2,0,2,2
UADAQFEE:UTaU_6AT_M4.Chip3,0,2,1
UADAQFEE:UTaU_6AT_S1.Chip0,0,1,2
UADAQFEE:UTaU_6AT_S1.Chip1,0,0,2
UADAQFEE:UTaU_6AT_S1.Chip2,0,0,0
UADAQFEE:UTaU_6AT_S1.Chip3,0,1,3
UADAQFEE:UTaU_6AT_S2.Chip0,0,2,-6
UADAQFEE:UTaU_6AT_S2.Chip1,0,1,-3
UADAQFEE:UTaU_6AT_S2.Chip2,0,1,1
UADAQFEE:UTaU_6AT_S2.Chip3,0,3,2
UADAQFEE:UTaU_6AT_S3.Chip0,0,-1,2
UADAQFEE:UTaU_6AT_S3.Chip1,0,1,1
UADAQFEE:UTaU_6AT_S3.Chip2,0,0,-3
UADAQFEE:UTaU_6AT_S3.Chip3,0,0,1
UADAQFEE:UTaX_7AT_M1.Chip0,0,0,-2
UADAQFEE:UTaX_7AT_M1.Chip1,0,-1,-5
UADAQFEE:UTaX_7AT_M1.Chip2,0,-6,-1
UADAQFEE:UTaX_7AT_M1.Chip3,0,3,1
UADAQFEE:UTaX_7AT_M2.Chip0,0,-2,0
UADAQFEE:UTaX_7AT_M2.Chip1,0,-2,2
UADAQFEE:UTaX_7AT_M2.Chip2,0,-3,-2
UADAQFEE:UTaX_7AT_M2.Chip3,0,1,-3
UADAQFEE:UTaX_7AT_M3.Chip0,0,1,4
UADAQFEE:UTaX_7AT_M3.Chip1,0,-1,0
UADAQFEE:UTaX_7AT_M3.Chip2,0,0,1
UADAQFEE:UTaX_7AT_M3.Chip3,0,4,0
UADAQFEE:UTaX_7AT_M4.Chip0,0,-1,2
UADAQFEE:UTaX_7AT_M4.Chip1,0,2,1
UADAQFEE:UTaX_7AT_M4.Chip2,0,0,0
UADAQFEE:UTaX_7AT_M4.Chip3,0,2,3
UADAQFEE:UTaX_7AT_S1.Chip0,0,1,0
UADAQFEE:UTaX_7AT_S1.Chip1,0,-3,1
UADAQFEE:UTaX_7AT_S1.Chip2,0,2,3
UADAQFEE:UTaX_7AT_S1.Chip3,0,-3,-2
UADAQFEE:UTaX_7AT_S2.Chip0,0,-1,0
UADAQFEE:UTaX_7AT_S2.Chip1,0,0,0
UADAQFEE:UTaX_7AT_S2.Chip2,0,2,0
UADAQFEE:UTaX_7AT_S2.Chip3,0,-2,-1
UADAQFEE:UTaX_7AT_S3.Chip0,0,2,0
UADAQFEE:UTaX_7AT_S3.Chip1,0,0,-1
UADAQFEE:UTaX_7AT_S3.Chip2,0,-1,-1
UADAQFEE:UTaX_7AT_S3.Chip3,0,-2,-2
UADAQFEE:UTaX_8AT_M1.Chip0,0,-1,-1
UADAQFEE:UTaX_8AT_M1.Chip1,0,1,2
UADAQFEE:UTaX_8AT_M1.Chip2,0,-1,2
UADAQFEE:UTaX_8AT_M1.Chip3,0,0,0
UADAQFEE:UTaX_8AT_M3.Chip0,0,1,6
UADAQFEE:UTaX_8AT_M3.Chip1,0,2,-1
UADAQFEE:UTaX_8AT_M3.Chip2,0,-1,2
UADAQFEE:UTaX_8AT_M3.Chip3,0,2,-5
UADAQFEE:UTaX_8AT_M4.Chip0,0,-4,-7
UADAQFEE:UTaX_8AT_M4.Chip1,0,2,-3
UADAQFEE:UTaX_8AT_M4.Chip2,0,1,0
UADAQFEE:UTaX_8AT_M4.Chip3,0,1,2
UADAQFEE:UTaX_8AT_S1.Chip0,0,-11,-2
UADAQFEE:UTaX_8AT_S1.Chip1,0,1,-1
UADAQFEE:UTaX_8AT_S1.Chip2,0,1,1
UADAQFEE:UTaX_8AT_S1.Chip3,0,-2,1
UADAQFEE:UTaX_8AT_S2.Chip0,0,-4,-1
UADAQFEE:UTaX_8AT_S2.Chip1,0,2,1
UADAQFEE:UTaX_8AT_S2.Chip2,0,-1,-3
UADAQFEE:UTaX_8AT_S2.Chip3,0,3,2
UADAQFEE:UTaX_8AT_S3.Chip0,0,0,0
UADAQFEE:UTaX_8AT_S3.Chip1,0,-2,3
UADAQFEE:UTaX_8AT_S3.Chip2,0,-2,-2
UADAQFEE:UTaX_8AT_S3.Chip3,0,1,3
UADAQFEE:UTaU_7AT_M1.Chip0,0,0,3
UADAQFEE:UTaU_7AT_M1.Chip1,0,-1,0
UADAQFEE:UTaU_7AT_M1.Chip2,0,3,1
UADAQFEE:UTaU_7AT_M1.Chip3,0,0,1
UADAQFEE:UTaU_7AT_M2.Chip0,0,-2,-3
UADAQFEE:UTaU_7AT_M2.Chip1,0,-5,-2
UADAQFEE:UTaU_7AT_M2.Chip2,0,-1,-6
UADAQFEE:UTaU_7AT_M2.Chip3,0,1,0
UADAQFEE:UTaU_7AT_M3.Chip0,0,1,-5
UADAQFEE:UTaU_7AT_M3.Chip1,0,-2,-7
UADAQFEE:UTaU_7AT_M3.Chip2,0,1,1
UADAQFEE:UTaU_7AT_M3.Chip3,0,-3,4
UADAQFEE:UTaU_7AT_M4.Chip0,0,-2,-2
UADAQFEE:UTaU_7AT_M4.Chip1,0,1,-2
UADAQFEE:UTaU_7AT_M4.Chip2,0,0,-1
UADAQFEE:UTaU_7AT_M4.Chip3,0,5,4
UADAQFEE:UTaU_7AT_S1.Chip0,0,1,-1
UADAQFEE:UTaU_7AT_S1.Chip1,0,0,3
UADAQFEE:UTaU_7AT_S1.Chip2,0,-3,-7
UADAQFEE:UTaU_7AT_S1.Chip3,0,2,1
UADAQFEE:UTaU_7AT_S2.Chip0,0,1,3
UADAQFEE:UTaU_7AT_S2.Chip1,0,-1,-4
UADAQFEE:UTaU_7AT_S2.Chip2,0,1,4
UADAQFEE:UTaU_7AT_S2.Chip3,0,-2,0
UADAQFEE:UTaU_7AT_S3.Chip0,0,-1,1
UADAQFEE:UTaU_7AT_S3.Chip1,0,-2,1
UADAQFEE:UTaU_7AT_S3.Chip2,0,2,3
UADAQFEE:UTaU_7AT_S3.Chip3,0,-4,-1
UADAQFEE:UTaU_8AT_M1.Chip0,0,-1,-1
UADAQFEE:UTaU_8AT_M1.Chip1,0,-2,-1
UADAQFEE:UTaU_8AT_M1.Chip2,0,-4,-2
UADAQFEE:UTaU_8AT_M1.Chip3,0,-3,1
UADAQFEE:UTaU_8AT_M3.Chip0,0,0,2
UADAQFEE:UTaU_8AT_M3.Chip1,0,1,4
UADAQFEE:UTaU_8AT_M3.Chip2,0,-15,-14
UADAQFEE:UTaU_8AT_M3.Chip3,0,-2,-1
UADAQFEE:UTaU_8AT_M4.Chip0,0,4,-2
UADAQFEE:UTaU_8AT_M4.Chip1,0,2,2
UADAQFEE:UTaU_8AT_M4.Chip2,0,1,1
UADAQFEE:UTaU_8AT_M4.Chip3,0,1,1
UADAQFEE:UTaU_8AT_S1.Chip0,0,-4,1
UADAQFEE:UTaU_8AT_S1.Chip1,0,3,-1
UADAQFEE:UTaU_8AT_S1.Chip2,0,0,0
UADAQFEE:UTaU_8AT_S1.Chip3,0,0,1
UADAQFEE:UTaU_8AT_S2.Chip0,0,1,1
UADAQFEE:UTaU_8AT_S2.Chip1,0,-2,3
UADAQFEE:UTaU_8AT_S2.Chip2,0,0,-3
UADAQFEE:UTaU_8AT_S2.Chip3,0,-5,2
UADAQFEE:UTaU_8AT_S3.Chip0,0,-2,3
UADAQFEE:UTaU_8AT_S3.Chip1,0,-3,-1
UADAQFEE:UTaU_8AT_S3.Chip2,0,0,2
UADAQFEE:UTaU_8AT_S3.Chip3,0,0,-2
UADAQFEE:UTaX_1AB_M1E.Chip0,0,0,1
UADAQFEE:UTaX_1AB_M1E.Chip1,0,2,2
UADAQFEE:UTaX_1AB_M1E.Chip2,0,1,2
UADAQFEE:UTaX_1AB_M1E.Chip3,0,1,1
UADAQFEE:UTaX_1AB_M1W.Chip0,0,-1,-4
UADAQFEE:UTaX_1AB_M1W.Chip1,0,0,4
UADAQFEE:UTaX_1AB_M1W.Chip2,0,-3,1
UADAQFEE:UTaX_1AB_M1W.Chip3,0,-1,0
UADAQFEE:UTaX_1AB_M2.Chip0,0,1,1
UADAQFEE:UTaX_1AB_M2.Chip1,0,2,-1
UADAQFEE:UTaX_1AB_M2.Chip2,0,-7,-1
UADAQFEE:UTaX_1AB_M2.Chip3,0,0,-3
UADAQFEE:UTaX_1AB_M3.Chip0,0,-3,2
UADAQFEE:UTaX_1AB_M3.Chip1,0,-3,-3
UADAQFEE:UTaX_1AB_M3.Chip2,0,1,3
UADAQFEE:UTaX_1AB_M3.Chip3,0,3,2
UADAQFEE:UTaX_1AB_M4.Chip0,0,1,3
UADAQFEE:UTaX_1AB_M4.Chip1,0,3,2
UADAQFEE:UTaX_1AB_M4.Chip2,1,-1,3
UADAQFEE:UTaX_1AB_M4.Chip3,0,3,1
UADAQFEE:UTaX_1AB_S1E.Chip0,0,3,2
UADAQFEE:UTaX_1AB_S1E.Chip1,0,1,1
UADAQFEE:UTaX_1AB_S1E.Chip2,0,3,1
UADAQFEE:UTaX_1AB_S1E.Chip3,0,1,-3
UADAQFEE:UTaX_1AB_S1W.Chip0,0,1,0
UADAQFEE:UTaX_1AB_S1W.Chip1,0,3,-4
UADAQFEE:UTaX_1AB_S1W.Chip2,0,-4,-1
UADAQFEE:UTaX_1AB_S1W.Chip3,0,-1,-3
UADAQFEE:UTaX_1AB_S2E.Chip0,0,-1,3
UADAQFEE:UTaX_1AB_S2E.Chip1,0,1,-4
UADAQFEE:UTaX_1AB_S2E.Chip2,0,-1,1
UADAQFEE:UTaX_1AB_S2E.Chip3,0,-1,1
UADAQFEE:UTaX_1AB_S2W.Chip0,0,1,2
UADAQFEE:UTaX_1AB_S2W.Chip1,0,2,2
UADAQFEE:UTaX_1AB_S2W.Chip2,0,-3,-2
UADAQFEE:UTaX_1AB_S2W.Chip3,0,-4,0
UADAQFEE:UTaX_1AB_S3.Chip0,0,2,1
UADAQFEE:UTaX_1AB_S3.Chip1,0,2,-2
UADAQFEE:UTaX_1AB_S3.Chip2,0,-6,-2
UADAQFEE:UTaX_1AB_S3.Chip3,0,0,-2
UADAQFEE:UTaX_1AB_S4.Chip0,0,0,-1
UADAQFEE:UTaX_1AB_S4.Chip1,0,1,0
UADAQFEE:UTaX_1AB_S4.Chip2,0,2,1
UADAQFEE:UTaX_1AB_S4.Chip3,0,-1,1
UADAQFEE:UTaX_2AB_M1E.Chip0,0,1,2
UADAQFEE:UTaX_2AB_M1E.Chip1,0,3,-5
UADAQFEE:UTaX_2AB_M1E.Chip2,0,-3,-3
UADAQFEE:UTaX_2AB_M1E.Chip3,0,-2,1
UADAQFEE:UTaX_2AB_M1W.Chip0,0,0,2
UADAQFEE:UTaX_2AB_M1W.Chip1,0,1,0
UADAQFEE:UTaX_2AB_M1W.Chip2,0,3,2
UADAQFEE:UTaX_2AB_M1W.Chip3,0,-8,-1
UADAQFEE:UTaX_2AB_M2.Chip0,0,-1,3
UADAQFEE:UTaX_2AB_M2.Chip1,0,1,-4
UADAQFEE:UTaX_2AB_M2.Chip2,0,1,0
UADAQFEE:UTaX_2AB_M2.Chip3,0,2,2
UADAQFEE:UTaX_2AB_M3.Chip0,0,0,-2
UADAQFEE:UTaX_2AB_M3.Chip1,0,1,-1
UADAQFEE:UTaX_2AB_M3.Chip2,0,1,0
UADAQFEE:UTaX_2AB_M3.Chip3,0,-1,-2
UADAQFEE:UTaX_2AB_M4.Chip0,0,1,2
UADAQFEE:UTaX_2AB_M4.Chip1,0,1,1
UADAQFEE:UTaX_2AB_M4.Chip2,0,1,0
UADAQFEE:UTaX_2AB_M4.Chip3,0,0,1
UADAQFEE:UTaX_2AB_S1E.Chip0,0,1,0
UADAQFEE:UTaX_2AB_S1E.Chip1,0,-2,-3
UADAQFEE:UTaX_2AB_S1E.Chip2,0,-4,-2
UADAQFEE:UTaX_2AB_S1E.Chip3,0,-1,-1
UADAQFEE:UTaX_2AB_S1W.Chip0,0,0,0
UADAQFEE:UTaX_2AB_S1W.Chip1,0,2,0
UADAQFEE:UTaX_2AB_S1W.Chip2,0,-2,1
UADAQFEE:UTaX_2AB_S1W.Chip3,0,0,2
UADAQFEE:UTaX_2AB_S2.Chip0,0,-1,1
UADAQFEE:UTaX_2AB_S2.Chip1,0,-1,1
UADAQFEE:UTaX_2AB_S2.Chip2,0,3,0
UADAQFEE:UTaX_2AB_S2.Chip3,0,1,2
UADAQFEE:UTaX_2AB_S3.Chip0,0,2,2
UADAQFEE:UTaX_2AB_S3.Chip1,0,-2,-5
UADAQFEE:UTaX_2AB_S3.Chip2,0,1,2
UADAQFEE:UTaX_2AB_S3.Chip3,0,2,0
UADAQFEE:UTaX_3AB_M1.Chip0,0,-1,-5
UADAQFEE:UTaX_3AB_M1.Chip1,0,0,-3
UADAQFEE:UTaX_3AB_M1.Chip2,0,0,-5
UADAQFEE:UTaX_3AB_M1.Chip3,0,-3,-4
UADAQFEE:UTaX_3AB_M2.Chip0,0,-10,-5
UADAQFEE:UTaX_3AB_M2.Chip1,0,0,2
UADAQFEE:UTaX_3AB_M2.Chip2,0,0,1
UADAQFEE:UTaX_3AB_M2.Chip3,0,1,1
UADAQFEE:UTaX_3AB_M3.Chip0,0,-4,-3
UADAQFEE:UTaX_3AB_M3.Chip1,0,2,1
UADAQFEE:UTaX_3AB_M3.Chip2,0,0,-2
UADAQFEE:UTaX_3AB_M3.Chip3,1,-1,0
UADAQFEE:UTaX_3AB_M4.Chip0,0,-1,2
UADAQFEE:UTaX_3AB_M4.Chip1,0,-5,-3
UADAQFEE:UTaX_3AB_M4.Chip2,0,1,2
UADAQFEE:UTaX_3AB_M4.Chip3,0,3,0
UADAQFEE:UTaX_3AB_S1.Chip0,0,0,2
UADAQFEE:UTaX_3AB_S1.Chip1,0,0,1
UADAQFEE:UTaX_3AB_S1.Chip2,0,-3,0
UADAQFEE:UTaX_3AB_S1.Chip3,0,2,1
UADAQFEE:UTaX_3AB_S2.Chip0,0,-4,-1
UADAQFEE:UTaX_3AB_S2.Chip1,0,-3,-1
UADAQFEE:UTaX_3AB_S2.Chip2,0,-3,-1
UADAQFEE:UTaX_3AB_S2.Chip3,0,-2,-1
UADAQFEE:UTaX_3AB_S3.Chip0,0,2,1
UADAQFEE:UTaX_3AB_S3.Chip1,0,-2,-2
UADAQFEE:UTaX_3AB_S3.Chip2,0,1,-1
UADAQFEE:UTaX_3AB_S3.Chip3,0,-6,-2
UADAQFEE:UTaU_1AB_M1W.Chip0,0,-2,-2
UADAQFEE:UTaU_1AB_M1W.Chip1,-1,-3,-1
UADAQFEE:UTaU_1AB_M1W.Chip2,0,0,2
UADAQFEE:UTaU_1AB_M1W.Chip3,0,1,2
UADAQFEE:UTaU_1AB_M2.Chip0,0,0,1
UADAQFEE:UTaU_1AB_M2.Chip1,0,0,3
UADAQFEE:UTaU_1AB_M2.Chip2,0,-1,-1
UADAQFEE:UTaU_1AB_M2.Chip3,0,-2,1
UADAQFEE:UTaU_1AB_M3.Chip0,0,3,2
UADAQFEE:UTaU_1AB_M3.Chip1,0,2,1
UADAQFEE:UTaU_1AB_M3.Chip2,0,-3,1
UADAQFEE:UTaU_1AB_M3.Chip3,0,-2,0
UADAQFEE:UTaU_1AB_M4.Chip0,0,-1,0
UADAQFEE:UTaU_1AB_M4.Chip1,0,2,1
UADAQFEE:UTaU_1AB_M4.Chip2,0,1,1
UADAQFEE:UTaU_1AB_M4.Chip3,0,3,2
UADAQFEE:UTaU_1AB_S1E.Chip0,-1,2,1
UADAQFEE:UTaU_1AB_S1E.Chip1,0,-3,-4
UADAQFEE:UTaU_1AB_S1E.Chip2,0,2,1
UADAQFEE:UTaU_1AB_S1E.Chip3,0,1,-4
UADAQFEE:UTaU_1AB_S1W.Chip0,0,-5,-3
UADAQFEE:UTaU_1AB_S1W.Chip1,0,0,4
UADAQFEE:UTaU_1AB_S1W.Chip2,0,2,3
UADAQFEE:UTaU_1AB_S1W.Chip3,0,1,0
UADAQFEE:UTaU_1AB_S2E.Chip0,0,3,3
UADAQFEE:UTaU_1AB_S2E.Chip1,0,-1,0
UADAQFEE:UTaU_1AB_S2E.Chip2,0,2,0
UADAQFEE:UTaU_1AB_S2E.Chip3,0,0,1
UADAQFEE:UTaU_1AB_S2W.Chip0,0,-1,0
UADAQFEE:UTaU_1AB_S2W.Chip1,0,0,-1
UADAQFEE:UTaU_1AB_S2W.Chip2,0,-1,3
UADAQFEE:UTaU_1AB_S2W.Chip3,0,0,2
UADAQFEE:UTaU_1AB_S3.Chip0,0,0,2
UADAQFEE:UTaU_1AB_S3.Chip1,0,-2,-2
UADAQFEE:UTaU_1AB_S3.Chip2,0,-2,1
UADAQFEE:UTaU_1AB_S3.Chip3,0,0,0
UADAQFEE:UTaU_1AB_S4.Chip0,0,-1,1
UADAQFEE:UTaU_1AB_S4.Chip1,0,1,2
UADAQFEE:UTaU_1AB_S4.Chip2,0,2,2
UADAQFEE:UTaU_1AB_S4.Chip3,0,2,2
UADAQFEE:UTaU_2AB_M1E.Chip0,0,3,2
UADAQFEE:UTaU_2AB_M1E.Chip1,0,2,2
UADAQFEE:UTaU_2AB_M1E.Chip2,0,3,1
UADAQFEE:UTaU_2AB_M1E.Chip3,0,-2,0
UADAQFEE:UTaU_2AB_M1W.Chip0,0,-2,1
UADAQFEE:UTaU_2AB_M1W.Chip1,0,2,1
UADAQFEE:UTaU_2AB_M1W.Chip2,-1,2,4
UADAQFEE:UTaU_2AB_M1W.Chip3,0,0,-5
UADAQFEE:UTaU_2AB_M2.Chip0,0,-1,2
UADAQFEE:UTaU_2AB_M2.Chip1,0,1,1
UADAQFEE:UTaU_2AB_M2.Chip2,0,-3,-1
UADAQFEE:UTaU_2AB_M2.Chip3,0,2,1
UADAQFEE:UTaU_2AB_M3.Chip0,0,0,1
UADAQFEE:UTaU_2AB_M3.Chip1,0,1,-1
UADAQFEE:UTaU_2AB_M3.Chip2,0,2,2
UADAQFEE:UTaU_2AB_M3.Chip3,0,3,2
UADAQFEE:UTaU_2AB_M4.Chip0,0,-6,-2
UADAQFEE:UTaU_2AB_M4.Chip1,0,-4,-1
UADAQFEE:UTaU_2AB_M4.Chip2,0,2,2
UADAQFEE:UTaU_2AB_M4.Chip3,0,0,2
UADAQFEE:UTaU_2AB_S1E.Chip0,0,2,3
UADAQFEE:UTaU_2AB_S1E.Chip1,0,-4,-9
UADAQFEE:UTaU_2AB_S1E.Chip2,0,1,-2
UADAQFEE:UTaU_2AB_S1E.Chip3,0,-3,1
UADAQFEE:UTaU_2AB_S1W.Chip0,0,-9,-4
UADAQFEE:UTaU_2AB_S1W.Chip1,0,-2,-6
UADAQFEE:UTaU_2AB_S1W.Chip2,0,-1,0
UADAQFEE:UTaU_2AB_S1W.Chip3,0,-8,-6
UADAQFEE:UTaU_2AB_S2.Chip0,0,0,-2
UADAQFEE:UTaU_2AB_S2.Chip1,0,3,3
UADAQFEE:UTaU_2AB_S2.Chip2,0,1,0
UADAQFEE:UTaU_2AB_S2.Chip3,0,2,2
UADAQFEE:UTaU_2AB_S3.Chip0,0,-4,-5
UADAQFEE:UTaU_2AB_S3.Chip1,0,2,0
UADAQFEE:UTaU_2AB_S3.Chip2,0,1,1
UADAQFEE:UTaU_2AB_S3.Chip3,0,0,0
UADAQFEE:UTaU_3AB_M1.Chip0,0,-3,1
UADAQFEE:UTaU_3AB_M1.Chip1,0,-2,-5
UADAQFEE:UTaU_3AB_M1.Chip2,0,-2,-3
UADAQFEE:UTaU_3AB_M1.Chip3,0,1,1
UADAQFEE:UTaU_3AB_M2.Chip1,0,0,-1
UADAQFEE:UTaU_3AB_M2.Chip2,0,1,-4
UADAQFEE:UTaU_3AB_M2.Chip3,0,1,2
UADAQFEE:UTaU_3AB_M3.Chip0,0,-2,-5
UADAQFEE:UTaU_3AB_M3.Chip1,0,1,0
UADAQFEE:UTaU_3AB_M3.Chip2,1,2,4
UADAQFEE:UTaU_3AB_M3.Chip3,0,-3,0
UADAQFEE:UTaU_3AB_M4.Chip0,0,1,1
UADAQFEE:UTaU_3AB_M4.Chip1,1,4,1
UADAQFEE:UTaU_3AB_M4.Chip2,0,1,3
UADAQFEE:UTaU_3AB_M4.Chip3,0,2,1
UADAQFEE:UTaU_3AB_S1.Chip0,0,-3,-2
UADAQFEE:UTaU_3AB_S1.Chip1,0,-3,-4
UADAQFEE:UTaU_3AB_S1.Chip2,0,-5,0
UADAQFEE:UTaU_3AB_S1.Chip3,0,-5,-2
UADAQFEE:UTaU_3AB_S2.Chip0,0,-2,0
UADAQFEE:UTaU_3AB_S2.Chip1,0,-2,-4
UADAQFEE:UTaU_3AB_S2.Chip2,0,-1,1
UADAQFEE:UTaU_3AB_S2.Chip3,0,2,0
UADAQFEE:UTaU_3AB_S3.Chip0,0,0,1
UADAQFEE:UTaU_3AB_S3.Chip1,0,1,0
UADAQFEE:UTaU_3AB_S3.Chip2,0,1,0
UADAQFEE:UTaU_3AB_S3.Chip3,0,-2,-2
UADAQFEE:UTaX_4AB_M1.Chip0,0,-1,-2
UADAQFEE:UTaX_4AB_M1.Chip1,0,1,1
UADAQFEE:UTaX_4AB_M1.Chip2,0,2,0
UADAQFEE:UTaX_4AB_M1.Chip3,0,-2,-2
UADAQFEE:UTaX_4AB_M2.Chip0,0,2,0
UADAQFEE:UTaX_4AB_M2.Chip1,0,1,1
UADAQFEE:UTaX_4AB_M2.Chip2,0,-1,1
UADAQFEE:UTaX_4AB_M2.Chip3,0,-1,-2
UADAQFEE:UTaX_4AB_M3.Chip0,0,-1,1
UADAQFEE:UTaX_4AB_M3.Chip1,0,0,2
UADAQFEE:UTaX_4AB_M3.Chip2,0,-5,-1
UADAQFEE:UTaX_4AB_M3.Chip3,0,-2,-4
UADAQFEE:UTaX_4AB_M4.Chip0,0,-4,-7
UADAQFEE:UTaX_4AB_M4.Chip1,0,0,2
UADAQFEE:UTaX_4AB_M4.Chip2,0,-3,-2
UADAQFEE:UTaX_4AB_M4.Chip3,0,1,-2
UADAQFEE:UTaX_4AB_S1.Chip0,0,-6,-6
UADAQFEE:UTaX_4AB_S1.Chip1,0,0,-2
UADAQFEE:UTaX_4AB_S1.Chip2,0,0,0
UADAQFEE:UTaX_4AB_S1.Chip3,0,-5,-4
UADAQFEE:UTaX_4AB_S2.Chip0,1,-2,0
UADAQFEE:UTaX_4AB_S2.Chip1,0,1,0
UADAQFEE:UTaX_4AB_S2.Chip2,0,-2,-1
UADAQFEE:UTaX_4AB_S2.Chip3,0,-1,3
UADAQFEE:UTaX_4AB_S3.Chip0,0,3,2
UADAQFEE:UTaX_4AB_S3.Chip1,0,-4,-1
UADAQFEE:UTaX_4AB_S3.Chip2,0,-1,2
UADAQFEE:UTaX_4AB_S3.Chip3,0,-2,-5
UADAQFEE:UTaX_5AB_M1.Chip0,0,1,-1
UADAQFEE:UTaX_5AB_M1.Chip1,0,-2,-4
UADAQFEE:UTaX_5AB_M1.Chip2,0,0,0
UADAQFEE:UTaX_5AB_M1.Chip3,0,1,-3
UADAQFEE:UTaX_5AB_M2.Chip0,0,0,1
UADAQFEE:UTaX_5AB_M2.Chip1,0,-1,1
UADAQFEE:UTaX_5AB_M2.Chip2,0,2,2
UADAQFEE:UTaX_5AB_M2.Chip3,0,1,-2
UADAQFEE:UTaX_5AB_M3.Chip0,0,2,-1
UADAQFEE:UTaX_5AB_M3.Chip1,0,-2,-5
UADAQFEE:UTaX_5AB_M3.Chip2,0,0,-3
UADAQFEE:UTaX_5AB_M3.Chip3,0,-5,-4
UADAQFEE:UTaX_5AB_M4.Chip0,0,-2,-3
UADAQFEE:UTaX_5AB_M4.Chip1,0,-5,-7
UADAQFEE:UTaX_5AB_M4.Chip2,0,1,2
UADAQFEE:UTaX_5AB_M4.Chip3,0,-1,-1
UADAQFEE:UTaX_5AB_S1.Chip0,0,0,1
UADAQFEE:UTaX_5AB_S1.Chip1,0,-1,2
UADAQFEE:UTaX_5AB_S1.Chip2,0,-2,-6
UADAQFEE:UTaX_5AB_S1.Chip3,0,3,1
UADAQFEE:UTaX_5AB_S2.Chip0,0,-1,0
UADAQFEE:UTaX_5AB_S2.Chip1,0,-2,-1
UADAQFEE:UTaX_5AB_S2.Chip2,0,-1,-7
UADAQFEE:UTaX_5AB_S2.Chip3,0,2,-1
UADAQFEE:UTaX_5AB_S3.Chip0,0,2,0
UADAQFEE:UTaX_5AB_S3.Chip1,0,1,1
UADAQFEE:UTaX_5AB_S3.Chip2,0,-1,1
UADAQFEE:UTaX_5AB_S3.Chip3,0,1,0
UADAQFEE:UTaX_6AB_M1.Chip0,0,1,-4
UADAQFEE:UTaX_6AB_M1.Chip1,0,-1,1
UADAQFEE:UTaX_6AB_M1.Chip2,0,-1,-2
UADAQFEE:UTaX_6AB_M1.Chip3,0,0,-2
UADAQFEE:UTaX_6AB_M2.Chip0,0,-4,-3
UADAQFEE:UTaX_6AB_M2.Chip1,0,-1,2
UADAQFEE:UTaX_6AB_M2.Chip2,0,-3,-5
UADAQFEE:UTaX_6AB_M2.Chip3,0,0,-2
UADAQFEE:UTaX_6AB_M3.Chip0,1,0,-2
UADAQFEE:UTaX_6AB_M3.Chip1,0,-3,4
UADAQFEE:UTaX_6AB_M3.Chip2,0,-3,-2
UADAQFEE:UTaX_6AB_M3.Chip3,0,1,1
UADAQFEE:UTaX_6AB_M4.Chip0,0,-1,0
UADAQFEE:UTaX_6AB_M4.Chip1,0,1,4
UADAQFEE:UTaX_6AB_M4.Chip2,0,2,-2
UADAQFEE:UTaX_6AB_M4.Chip3,0,4,3
UADAQFEE:UTaX_6AB_S1.Chip0,0,0,1
UADAQFEE:UTaX_6AB_S1.Chip1,0,1,0
UADAQFEE:UTaX_6AB_S1.Chip2,0,0,0
UADAQFEE:UTaX_6AB_S2.Chip0,0,2,-2
UADAQFEE:UTaX_6AB_S2.Chip1,0,-5,-4
UADAQFEE:UTaX_6AB_S2.Chip2,0,-2,4
UADAQFEE:UTaX_6AB_S2.Chip3,0,-3,-4
UADAQFEE:UTaX_6AB_S3.Chip0,0,-8,-1
UADAQFEE:UTaX_6AB_S3.Chip1,0,-3,-3
UADAQFEE:UTaX_6AB_S3.Chip2,0,-4,-1
UADAQFEE:UTaX_6AB_S3.Chip3,0,-3,0
UADAQFEE:UTaU_4AB_M1.Chip0,0,1,0
UADAQFEE:UTaU_4AB_M1.Chip1,0,0,-4
UADAQFEE:UTaU_4AB_M1.Chip2,0,1,3
UADAQFEE:UTaU_4AB_M1.Chip3,1,-3,-2
UADAQFEE:UTaU_4AB_M2.Chip0,0,-2,-2
UADAQFEE:UTaU_4AB_M2.Chip1,0,1,1
UADAQFEE:UTaU_4AB_M2.Chip2,0,-3,-1
UADAQFEE:UTaU_4AB_M2.Chip3,0,0,1
UADAQFEE:UTaU_4AB_M3.Chip0,0,-5,-6
UADAQFEE:UTaU_4AB_M3.Chip1,0,3,2
UADAQFEE:UTaU_4AB_M3.Chip2,0,-5,-7
UADAQFEE:UTaU_4AB_M3.Chip3,0,0,1
UADAQFEE:UTaU_4AB_M4.Chip0,0,0,-3
UADAQFEE:UTaU_4AB_M4.Chip1,0,0,2
UADAQFEE:UTaU_4AB_M4.Chip2,0,2,2
UADAQFEE:UTaU_4AB_M4.Chip3,0,-1,1
UADAQFEE:UTaU_4AB_S1.Chip0,0,3,4
UADAQFEE:UTaU_4AB_S1.Chip1,0,-4,-1
UADAQFEE:UTaU_4AB_S1.Chip2,0,-2,-1
UADAQFEE:UTaU_4AB_S1.Chip3,0,2,-1
UADAQFEE:UTaU_4AB_S2.Chip0,0,-1,1
UADAQFEE:UTaU_4AB_S2.Chip1,0,0,-1
UADAQFEE:UTaU_4AB_S2.Chip2,0,2,0
UADAQFEE:UTaU_4AB_S2.Chip3,0,2,2
UADAQFEE:UTaU_4AB_S3.Chip0,0,-2,-4
UADAQFEE:UTaU_4AB_S3.Chip1,0,-1,0
UADAQFEE:UTaU_4AB_S3.Chip2,1,1,1
UADAQFEE:UTaU_4AB_S3.Chip3,0,-4,-1
UADAQFEE:UTaU_5AB_M1.Chip0,0,2,3
UADAQFEE:UTaU_5AB_M1.Chip1,0,-7,-3
UADAQFEE:UTaU_5AB_M1.Chip2,0,-1,-5
UADAQFEE:UTaU_5AB_M1.Chip3,0,0,1
UADAQFEE:UTaU_5AB_M2.Chip0,0,1,1
UADAQFEE:UTaU_5AB_M2.Chip1,0,1,2
UADAQFEE:UTaU_5AB_M2.Chip2,0,-2,-4
UADAQFEE:UTaU_5AB_M2.Chip3,0,2,-2
UADAQFEE:UTaU_5AB_M3.Chip0,0,-5,-7
UADAQFEE:UTaU_5AB_M3.Chip1,0,-1,-2
UADAQFEE:UTaU_5AB_M3.Chip2,0,1,1
UADAQFEE:UTaU_5AB_M3.Chip3,0,1,1
UADAQFEE:UTaU_5AB_M4.Chip0,0,1,-3
UADAQFEE:UTaU_5AB_M4.Chip1,0,2,3
UADAQFEE:UTaU_5AB_M4.Chip2,0,2,1
UADAQFEE:UTaU_5AB_M4.Chip3,0,0,-3
UADAQFEE:UTaU_5AB_S1.Chip0,0,-2,0
UADAQFEE:UTaU_5AB_S1.Chip1,0,-3,1
UADAQFEE:UTaU_5AB_S1.Chip2,0,0,-4
UADAQFEE:UTaU_5AB_S1.Chip3,0,2,-1
UADAQFEE:UTaU_5AB_S2.Chip0,0,-5,-4
UADAQFEE:UTaU_5AB_S2.Chip1,0,-2,1
UADAQFEE:UTaU_5AB_S2.Chip2,0,0,2
UADAQFEE:UTaU_5AB_S2.Chip3,0,0,1
UADAQFEE:UTaU_6AB_M1.Chip0,0,-7,-6
UADAQFEE:UTaU_6AB_M1.Chip1,0,1,-1
UADAQFEE:UTaU_6AB_M1.Chip2,0,2,2
UADAQFEE:UTaU_6AB_M1.Chip3,0,3,1
UADAQFEE:UTaU_6AB_M2.Chip0,0,0,3
UADAQFEE:UTaU_6AB_M2.Chip1,0,-6,-7
UADAQFEE:UTaU_6AB_M2.Chip2,0,-1,2
UADAQFEE:UTaU_6AB_M2.Chip3,0,1,-2
UADAQFEE:UTaU_6AB_M3.Chip0,0,1,-2
UADAQFEE:UTaU_6AB_M3.Chip1,0,1,2
UADAQFEE:UTaU_6AB_M3.Chip2,0,-1,2
UADAQFEE:UTaU_6AB_M3.Chip3,0,2,3
UADAQFEE:UTaU_6AB_M4.Chip0,0,3,2
UADAQFEE:UTaU_6AB_M4.Chip1,0,-1,1
UADAQFEE:UTaU_6AB_M4.Chip2,0,-2,-1
UADAQFEE:UTaU_6AB_M4.Chip3,0,-1,3
UADAQFEE:UTaU_6AB_S1.Chip0,0,1,3
UADAQFEE:UTaU_6AB_S1.Chip1,0,1,3
UADAQFEE:UTaU_6AB_S1.Chip2,0,1,0
UADAQFEE:UTaU_6AB_S1.Chip3,0,3,-2
UADAQFEE:UTaU_6AB_S2.Chip0,0,-2,-3
UADAQFEE:UTaU_6AB_S2.Chip1,0,0,-3
UADAQFEE:UTaU_6AB_S2.Chip2,0,2,0
UADAQFEE:UTaU_6AB_S2.Chip3,0,3,-1
UADAQFEE:UTaU_6AB_S3.Chip0,0,-2,-4
UADAQFEE:UTaU_6AB_S3.Chip1,0,1,4
UADAQFEE:UTaU_6AB_S3.Chip2,0,0,0
UADAQFEE:UTaU_6AB_S3.Chip3,0,2,2
UADAQFEE:UTaX_7AB_M1.Chip0,0,4,-1
UADAQFEE:UTaX_7AB_M1.Chip1,0,-1,-1
UADAQFEE:UTaX_7AB_M1.Chip2,0,0,-6
UADAQFEE:UTaX_7AB_M1.Chip3,0,2,3
UADAQFEE:UTaX_7AB_M2.Chip0,0,4,2
UADAQFEE:UTaX_7AB_M2.Chip1,0,0,2
UADAQFEE:UTaX_7AB_M2.Chip2,0,4,2
UADAQFEE:UTaX_7AB_M2.Chip3,0,-2,0
UADAQFEE:UTaX_7AB_M3.Chip0,0,0,-2
UADAQFEE:UTaX_7AB_M3.Chip1,0,-1,0
UADAQFEE:UTaX_7AB_M3.Chip2,0,-3,-3
UADAQFEE:UTaX_7AB_M3.Chip3,0,-2,-2
UADAQFEE:UTaX_7AB_M4.Chip0,0,-3,-2
UADAQFEE:UTaX_7AB_M4.Chip1,0,0,3
UADAQFEE:UTaX_7AB_M4.Chip2,0,0,3
UADAQFEE:UTaX_7AB_M4.Chip3,0,3,2
UADAQFEE:UTaX_7AB_S1.Chip0,0,0,2
UADAQFEE:UTaX_7AB_S1.Chip1,0,3,-3
UADAQFEE:UTaX_7AB_S1.Chip2,0,1,-2
UADAQFEE:UTaX_7AB_S1.Chip3,0,-2,1
UADAQFEE:UTaX_7AB_S2.Chip0,0,1,1
UADAQFEE:UTaX_7AB_S2.Chip1,0,-2,-2
UADAQFEE:UTaX_7AB_S2.Chip2,0,1,3
UADAQFEE:UTaX_7AB_S2.Chip3,0,2,3
UADAQFEE:UTaX_7AB_S3.Chip0,0,-9,-6
UADAQFEE:UTaX_7AB_S3.Chip1,0,3,0
UADAQFEE:UTaX_7AB_S3.Chip2,0,-2,-3
UADAQFEE:UTaX_7AB_S3.Chip3,0,-1,1
UADAQFEE:UTaX_8AB_M1.Chip0,0,-3,-2
UADAQFEE:UTaX_8AB_M1.Chip1,0,1,-1
UADAQFEE:UTaX_8AB_M1.Chip2,0,1,4
UADAQFEE:UTaX_8AB_M1.Chip3,0,-2,1
UADAQFEE:UTaX_8AB_M2.Chip0,0,1,2
UADAQFEE:UTaX_8AB_M2.Chip1,0,1,1
UADAQFEE:UTaX_8AB_M2.Chip2,0,-1,-4
UADAQFEE:UTaX_8AB_M2.Chip3,0,2,-1
UADAQFEE:UTaX_8AB_M3.Chip0,0,1,2
UADAQFEE:UTaX_8AB_M3.Chip1,0,-1,-1
UADAQFEE:UTaX_8AB_M3.Chip2,0,3,2
UADAQFEE:UTaX_8AB_M3.Chip3,0,-2,1
UADAQFEE:UTaX_8AB_M4.Chip0,0,0,0
UADAQFEE:UTaX_8AB_M4.Chip1,0,-4,0
UADAQFEE:UTaX_8AB_M4.Chip2,0,-4,0
UADAQFEE:UTaX_8AB_M4.Chip3,0,-2,2
UADAQFEE:UTaX_8AB_S1.Chip0,0,-3,-2
UADAQFEE:UTaX_8AB_S1.Chip2,0,-3,-4
UADAQFEE:UTaX_8AB_S2.Chip0,0,2,19
UADAQFEE:UTaX_8AB_S2.Chip1,0,1,21
UADAQFEE:UTaX_8AB_S2.Chip2,0,-2,0
UADAQFEE:UTaX_8AB_S2.Chip3,0,1,-1
UADAQFEE:UTaX_8AB_S3.Chip0,0,1,-3
UADAQFEE:UTaX_8AB_S3.Chip1,0,1,2
UADAQFEE:UTaX_8AB_S3.Chip2,0,0,0
UADAQFEE:UTaX_8AB_S3.Chip3,0,0,0
UADAQFEE:UTaU_7AB_M1.Chip0,0,3,1
UADAQFEE:UTaU_7AB_M1.Chip1,0,-2,-1
UADAQFEE:UTaU_7AB_M1.Chip2,0,1,3
UADAQFEE:UTaU_7AB_M1.Chip3,0,1,1
UADAQFEE:UTaU_7AB_M2.Chip0,0,0,2
UADAQFEE:UTaU_7AB_M2.Chip1,0,-1,1
UADAQFEE:UTaU_7AB_M2.Chip2,0,0,1
UADAQFEE:UTaU_7AB_M2.Chip3,0,1,0
UADAQFEE:UTaU_7AB_M3.Chip0,1,2,4
UADAQFEE:UTaU_7AB_M3.Chip1,0,0,2
UADAQFEE:UTaU_7AB_M3.Chip2,0,0,1
UADAQFEE:UTaU_7AB_M3.Chip3,0,1,0
UADAQFEE:UTaU_7AB_M4.Chip0,0,-1,-1
UADAQFEE:UTaU_7AB_M4.Chip1,0,-4,-6
UADAQFEE:UTaU_7AB_M4.Chip2,0,0,2
UADAQFEE:UTaU_7AB_M4.Chip3,0,0,-1
UADAQFEE:UTaU_7AB_S1.Chip0,0,1,0
UADAQFEE:UTaU_7AB_S1.Chip1,0,1,0
UADAQFEE:UTaU_7AB_S1.Chip2,0,-1,2
UADAQFEE:UTaU_7AB_S1.Chip3,0,0,4
UADAQFEE:UTaU_7AB_S2.Chip0,0,1,3
UADAQFEE:UTaU_7AB_S2.Chip1,0,-2,-2
UADAQFEE:UTaU_7AB_S2.Chip2,0,1,1
UADAQFEE:UTaU_7AB_S2.Chip3,0,2,-1
UADAQFEE:UTaU_7AB_S3.Chip0,0,-1,0
UADAQFEE:UTaU_7AB_S3.Chip1,0,-1,0
UADAQFEE:UTaU_7AB_S3.Chip2,0,-3,-4
UADAQFEE:UTaU_7AB_S3.Chip3,0,-3,-3
UADAQFEE:UTaU_8AB_M1.Chip0,0,-3,-1
UADAQFEE:UTaU_8AB_M1.Chip1,0,0,-1
UADAQFEE:UTaU_8AB_M1.Chip2,0,1,2
UADAQFEE:UTaU_8AB_M1.Chip3,0,-4,0
UADAQFEE:UTaU_8AB_M2.Chip0,0,1,-1
UADAQFEE:UTaU_8AB_M2.Chip1,0,1,-1
UADAQFEE:UTaU_8AB_M2.Chip2,0,2,-1
UADAQFEE:UTaU_8AB_M2.Chip3,0,1,2
UADAQFEE:UTaU_8AB_M3.Chip0,0,-5,-3
UADAQFEE:UTaU_8AB_M3.Chip1,0,0,1
UADAQFEE:UTaU_8AB_M3.Chip2,0,-2,-1
UADAQFEE:UTaU_8AB_M3.Chip3,0,0,-3
UADAQFEE:UTaU_8AB_M4.Chip0,0,2,0
UADAQFEE:UTaU_8AB_M4.Chip1,0,-5,-4
UADAQFEE:UTaU_8AB_M4.Chip2,0,3,-1
UADAQFEE:UTaU_8AB_M4.Chip3,0,1,-2
UADAQFEE:UTaU_8AB_S1.Chip0,0,1,1
UADAQFEE:UTaU_8AB_S1.Chip1,0,-5,-8
UADAQFEE:UTaU_8AB_S1.Chip2,0,2,2
UADAQFEE:UTaU_8AB_S1.Chip3,0,-1,-3
UADAQFEE:UTaU_8AB_S2.Chip0,0,-1,-3
UADAQFEE:UTaU_8AB_S2.Chip1,0,-1,0
UADAQFEE:UTaU_8AB_S2.Chip2,0,1,-3
UADAQFEE:UTaU_8AB_S2.Chip3,0,-3,-4
UADAQFEE:UTaU_8AB_S3.Chip0,0,-1,3
UADAQFEE:UTaU_8AB_S3.Chip1,0,-1,-1
UADAQFEE:UTaU_8AB_S3.Chip2,0,0,-6
UADAQFEE:UTaU_8AB_S3.Chip3,0,0,2
UADAQFEE:UTbV_1AT_M1E.Chip0,0,-3,1
UADAQFEE:UTbV_1AT_M1E.Chip1,0,1,2
UADAQFEE:UTbV_1AT_M1E.Chip2,0,1,0
UADAQFEE:UTbV_1AT_M1E.Chip3,0,-2,0
UADAQFEE:UTbV_1AT_M1W.Chip0,0,-2,-3
UADAQFEE:UTbV_1AT_M1W.Chip1,0,-5,-4
UADAQFEE:UTbV_1AT_M1W.Chip2,0,0,0
UADAQFEE:UTbV_1AT_M1W.Chip3,0,2,-2
UADAQFEE:UTbV_1AT_M2.Chip0,0,-1,1
UADAQFEE:UTbV_1AT_M2.Chip1,0,0,1
UADAQFEE:UTbV_1AT_M2.Chip2,0,-1,-2
UADAQFEE:UTbV_1AT_M2.Chip3,0,-5,-2
UADAQFEE:UTbV_1AT_M3.Chip0,0,2,1
UADAQFEE:UTbV_1AT_M3.Chip1,0,-4,-4
UADAQFEE:UTbV_1AT_M3.Chip2,0,-3,0
UADAQFEE:UTbV_1AT_M3.Chip3,-1,-3,0
UADAQFEE:UTbV_1AT_M4.Chip0,0,0,0
UADAQFEE:UTbV_1AT_M4.Chip1,0,1,1
UADAQFEE:UTbV_1AT_M4.Chip2,0,1,3
UADAQFEE:UTbV_1AT_M4.Chip3,0,3,0
UADAQFEE:UTbV_1AT_S1E.Chip0,0,-11,-4
UADAQFEE:UTbV_1AT_S1E.Chip1,0,2,-1
UADAQFEE:UTbV_1AT_S1E.Chip2,0,1,1
UADAQFEE:UTbV_1AT_S1E.Chip3,0,1,2
UADAQFEE:UTbV_1AT_S1W.Chip0,0,-2,-3
UADAQFEE:UTbV_1AT_S1W.Chip1,0,2,2
UADAQFEE:UTbV_1AT_S1W.Chip2,0,3,4
UADAQFEE:UTbV_1AT_S1W.Chip3,-1,1,-1
UADAQFEE:UTbV_1AT_S2E.Chip0,0,-1,2
UADAQFEE:UTbV_1AT_S2E.Chip1,0,-4,-2
UADAQFEE:UTbV_1AT_S2E.Chip2,0,-2,-2
UADAQFEE:UTbV_1AT_S2E.Chip3,0,-4,1
UADAQFEE:UTbV_1AT_S2W.Chip0,0,2,-1
UADAQFEE:UTbV_1AT_S2W.Chip1,0,-8,-4
UADAQFEE:UTbV_1AT_S2W.Chip2,0,0,-1
UADAQFEE:UTbV_1AT_S2W.Chip3,0,3,2
UADAQFEE:UTbV_1AT_S3.Chip0,0,-1,-4
UADAQFEE:UTbV_1AT_S3.Chip1,0,-5,0
UADAQFEE:UTbV_1AT_S3.Chip2,0,-2,1
UADAQFEE:UTbV_1AT_S3.Chip3,0,1,1
UADAQFEE:UTbV_1AT_S4.Chip0,0,2,1
UADAQFEE:UTbV_1AT_S4.Chip1,0,0,1
UADAQFEE:UTbV_1AT_S4.Chip2,0,3,1
UADAQFEE:UTbV_1AT_S4.Chip3,0,0,-3
UADAQFEE:UTbV_2AT_M1E.Chip0,0,-1,0
UADAQFEE:UTbV_2AT_M1E.Chip1,0,-4,0
UADAQFEE:UTbV_2AT_M1E.Chip2,0,0,-2
UADAQFEE:UTbV_2AT_M1E.Chip3,0,1,1
UADAQFEE:UTbV_2AT_M1W.Chip0,0,-1,-4
UADAQFEE:UTbV_2AT_M1W.Chip1,0,1,2
UADAQFEE:UTbV_2AT_M1W.Chip2,0,-2,0
UADAQFEE:UTbV_2AT_M1W.Chip3,0,-1,0
UADAQFEE:UTbV_2AT_M2.Chip0,0,1,4
UADAQFEE:UTbV_2AT_M2.Chip1,0,4,3
UADAQFEE:UTbV_2AT_M2.Chip2,0,0,-2
UADAQFEE:UTbV_2AT_M2.Chip3,0,3,2
UADAQFEE:UTbV_2AT_M3.Chip0,0,1,0
UADAQFEE:UTbV_2AT_M3.Chip1,0,1,1
UADAQFEE:UTbV_2AT_M3.Chip2,0,-1,0
UADAQFEE:UTbV_2AT_M3.Chip3,0,-4,1
UADAQFEE:UTbV_2AT_M4.Chip0,0,1,0
UADAQFEE:UTbV_2AT_M4.Chip1,0,0,0
UADAQFEE:UTbV_2AT_M4.Chip2,0,0,2
UADAQFEE:UTbV_2AT_M4.Chip3,0,0,4
UADAQFEE:UTbV_2AT_S1E.Chip0,0,1,1
UADAQFEE:UTbV_2AT_S1E.Chip1,0,1,1
UADAQFEE:UTbV_2AT_S1E.Chip2,0,1,1
UADAQFEE:UTbV_2AT_S1E.Chip3,0,0,1
UADAQFEE:UTbV_2AT_S1W.Chip0,0,-6,-9
UADAQFEE:UTbV_2AT_S1W.Chip1,0,2,-3
UADAQFEE:UTbV_2AT_S1W.Chip2,0,1,2
UADAQFEE:UTbV_2AT_S1W.Chip3,0,-3,-3
UADAQFEE:UTbV_2AT_S2.Chip0,0,2,3
UADAQFEE:UTbV_2AT_S2.Chip1,0,1,1
UADAQFEE:UTbV_2AT_S2.Chip2,0,2,2
UADAQFEE:UTbV_2AT_S2.Chip3,0,-1,4
UADAQFEE:UTbV_2AT_S3.Chip0,0,-1,1
UADAQFEE:UTbV_2AT_S3.Chip1,0,1,0
UADAQFEE:UTbV_2AT_S3.Chip2,0,-1,0
UADAQFEE:UTbV_2AT_S3.Chip3,0,-1,-3
UADAQFEE:UTbV_3AT_M1.Chip0,0,1,-2
UADAQFEE:UTbV_3AT_M1.Chip1,0,-3,0
UADAQFEE:UTbV_3AT_M1.Chip2,0,4,-3
UADAQFEE:UTbV_3AT_M1.Chip3,0,2,1
UADAQFEE:UTbV_3AT_M2.Chip0,0,3,2
UADAQFEE:UTbV_3AT_M2.Chip1,0,2,2
UADAQFEE:UTbV_3AT_M2.Chip2,0,1,1
UADAQFEE:UTbV_3AT_M2.Chip3,0,1,2
UADAQFEE:UTbV_3AT_M3.Chip0,0,1,-2
UADAQFEE:UTbV_3AT_M3.Chip1,0,3,2
UADAQFEE:UTbV_3AT_M3.Chip2,0,3,4
UADAQFEE:UTbV_3AT_M3.Chip3,0,0,-3
UADAQFEE:UTbV_3AT_M4.Chip0,0,2,2
UADAQFEE:UTbV_3AT_M4.Chip1,0,-2,-1
UADAQFEE:UTbV_3AT_M4.Chip2,0,1,2
UADAQFEE:UTbV_3AT_M4.Chip3,0,3,3
UADAQFEE:UTbV_3AT_S1.Chip0,0,-6,-6
UADAQFEE:UTbV_3AT_S1.Chip1,0,0,-1
UADAQFEE:UTbV_3AT_S1.Chip2,0,2,1
UADAQFEE:UTbV_3AT_S1.Chip3,0,-4,-2
UADAQFEE:UTbV_3AT_S2.Chip0,0,-1,1
UADAQFEE:UTbV_3AT_S2.Chip1,0,3,0
UADAQFEE:UTbV_3AT_S2.Chip2,0,-1,-24
UADAQFEE:UTbV_3AT_S2.Chip3,0,2,3
UADAQFEE:UTbV_3AT_S3.Chip0,0,2,1
UADAQFEE:UTbV_3AT_S3.Chip1,0,4,0
UADAQFEE:UTbV_3AT_S3.Chip2,0,1,2
UADAQFEE:UTbV_3AT_S3.Chip3,0,-4,-4
UADAQFEE:UTbX_1AT_M1E.Chip0,0,-6,-5
UADAQFEE:UTbX_1AT_M1E.Chip1,0,0,2
UADAQFEE:UTbX_1AT_M1E.Chip2,0,-1,-3
UADAQFEE:UTbX_1AT_M1E.Chip3,0,1,1
UADAQFEE:UTbX_1AT_M1W.Chip0,0,-3,-1
UADAQFEE:UTbX_1AT_M1W.Chip1,0,-2,-1
UADAQFEE:UTbX_1AT_M1W.Chip2,0,-4,-1
UADAQFEE:UTbX_1AT_M1W.Chip3,0,1,-1
UADAQFEE:UTbX_1AT_M2.Chip0,0,1,5
UADAQFEE:UTbX_1AT_M2.Chip1,0,-2,1
UADAQFEE:UTbX_1AT_M2.Chip2,0,-4,0
UADAQFEE:UTbX_1AT_M2.Chip3,0,-2,-3
UADAQFEE:UTbX_1AT_M3.Chip0,0,2,-1
UADAQFEE:UTbX_1AT_M3.Chip1,0,0,-3
UADAQFEE:UTbX_1AT_M3.Chip2,0,2,3
UADAQFEE:UTbX_1AT_M3.Chip3,0,-2,-3
UADAQFEE:UTbX_1AT_M4.Chip0,0,1,2
UADAQFEE:UTbX_1AT_M4.Chip1,0,-1,1
UADAQFEE:UTbX_1AT_M4.Chip2,0,-1,-1
UADAQFEE:UTbX_1AT_M4.Chip3,0,-2,2
UADAQFEE:UTbX_1AT_S1E.Chip0,0,3,1
UADAQFEE:UTbX_1AT_S1E.Chip1,0,0,-2
UADAQFEE:UTbX_1AT_S1E.Chip2,0,0,-2
UADAQFEE:UTbX_1AT_S1E.Chip3,0,3,-2
UADAQFEE:UTbX_1AT_S1W.Chip0,0,0,0
UADAQFEE:UTbX_1AT_S1W.Chip1,0,-5,-2
UADAQFEE:UTbX_1AT_S1W.Chip2,0,-1,1
UADAQFEE:UTbX_1AT_S1W.Chip3,0,-5,-2
UADAQFEE:UTbX_1AT_S2E.Chip0,0,1,3
UADAQFEE:UTbX_1AT_S2E.Chip1,0,1,-1
UADAQFEE:UTbX_1AT_S2E.Chip2,0,0,1
UADAQFEE:UTbX_1AT_S2E.Chip3,0,-5,-5
UADAQFEE:UTbX_1AT_S2W.Chip0,0,0,0
UADAQFEE:UTbX_1AT_S2W.Chip1,0,-1,0
UADAQFEE:UTbX_1AT_S2W.Chip2,0,-2,-13
UADAQFEE:UTbX_1AT_S2W.Chip3,0,-5,-4
UADAQFEE:UTbX_1AT_S3.Chip0,0,2,1
UADAQFEE:UTbX_1AT_S3.Chip1,0,-2,-2
UADAQFEE:UTbX_1AT_S3.Chip2,0,-2,0
UADAQFEE:UTbX_1AT_S3.Chip3,0,0,0
UADAQFEE:UTbX_1AT_S4.Chip0,0,-4,-2
UADAQFEE:UTbX_1AT_S4.Chip1,0,-2,-2
UADAQFEE:UTbX_1AT_S4.Chip2,0,1,-2
UADAQFEE:UTbX_1AT_S4.Chip3,0,-2,2
UADAQFEE:UTbX_2AT_M1E.Chip0,0,-6,-7
UADAQFEE:UTbX_2AT_M1E.Chip1,-1,-1,-2
UADAQFEE:UTbX_2AT_M1E.Chip2,0,1,2
UADAQFEE:UTbX_2AT_M1E.Chip3,0,0,3
UADAQFEE:UTbX_2AT_M1W.Chip0,0,-9,-15
UADAQFEE:UTbX_2AT_M1W.Chip1,0,1,-1
UADAQFEE:UTbX_2AT_M1W.Chip2,0,-3,1
UADAQFEE:UTbX_2AT_M1W.Chip3,0,3,1
UADAQFEE:UTbX_2AT_M2.Chip0,0,-1,-11
UADAQFEE:UTbX_2AT_M2.Chip1,0,2,2
UADAQFEE:UTbX_2AT_M2.Chip2,0,1,2
UADAQFEE:UTbX_2AT_M2.Chip3,0,-1,-1
UADAQFEE:UTbX_2AT_M3.Chip0,0,-4,-3
UADAQFEE:UTbX_2AT_M3.Chip1,0,2,3
UADAQFEE:UTbX_2AT_M3.Chip2,0,1,-2
UADAQFEE:UTbX_2AT_M3.Chip3,0,3,1
UADAQFEE:UTbX_2AT_M4.Chip0,0,-2,2
UADAQFEE:UTbX_2AT_M4.Chip1,0,-1,-1
UADAQFEE:UTbX_2AT_M4.Chip2,0,1,1
UADAQFEE:UTbX_2AT_M4.Chip3,0,-1,-1
UADAQFEE:UTbX_2AT_S1E.Chip0,0,0,2
UADAQFEE:UTbX_2AT_S1E.Chip1,0,-1,1
UADAQFEE:UTbX_2AT_S1E.Chip2,0,0,1
UADAQFEE:UTbX_2AT_S1E.Chip3,0,1,2
UADAQFEE:UTbX_2AT_S1W.Chip0,1,0,-1
UADAQFEE:UTbX_2AT_S1W.Chip1,0,1,2
UADAQFEE:UTbX_2AT_S1W.Chip2,0,1,-1
UADAQFEE:UTbX_2AT_S1W.Chip3,0,1,1
UADAQFEE:UTbX_2AT_S2.Chip0,0,2,-1
UADAQFEE:UTbX_2AT_S2.Chip1,0,-2,2
UADAQFEE:UTbX_2AT_S2.Chip2,0,-3,-4
UADAQFEE:UTbX_2AT_S2.Chip3,0,1,2
UADAQFEE:UTbX_2AT_S3.Chip0,0,-1,-1
UADAQFEE:UTbX_2AT_S3.Chip1,0,1,-3
UADAQFEE:UTbX_2AT_S3.Chip2,0,-1,1
UADAQFEE:UTbX_2AT_S3.Chip3,0,3,2
UADAQFEE:UTbX_3AT_M1.Chip0,0,0,3
UADAQFEE:UTbX_3AT_M1.Chip1,0,-1,2
UADAQFEE:UTbX_3AT_M1.Chip2,1,3,3
UADAQFEE:UTbX_3AT_M1.Chip3,0,0,0
UADAQFEE:UTbX_3AT_M2.Chip0,1,0,1
UADAQFEE:UTbX_3AT_M2.Chip1,0,-2,-2
UADAQFEE:UTbX_3AT_M2.Chip2,1,0,2
UADAQFEE:UTbX_3AT_M2.Chip3,0,-3,-4
UADAQFEE:UTbX_3AT_M3.Chip0,0,-2,-2
UADAQFEE:UTbX_3AT_M3.Chip1,0,-1,-1
UADAQFEE:UTbX_3AT_M3.Chip2,0,-2,2
UADAQFEE:UTbX_3AT_M3.Chip3,0,-1,0
UADAQFEE:UTbX_3AT_M4.Chip0,0,-6,-4
UADAQFEE:UTbX_3AT_M4.Chip1,0,-4,-4
UADAQFEE:UTbX_3AT_M4.Chip2,0,-1,-3
UADAQFEE:UTbX_3AT_M4.Chip3,0,-3,-1
UADAQFEE:UTbX_3AT_S1.Chip0,0,-2,0
UADAQFEE:UTbX_3AT_S1.Chip1,0,-1,1
UADAQFEE:UTbX_3AT_S1.Chip2,0,-5,-3
UADAQFEE:UTbX_3AT_S1.Chip3,0,0,-3
UADAQFEE:UTbX_3AT_S2.Chip0,0,2,1
UADAQFEE:UTbX_3AT_S2.Chip1,0,2,2
UADAQFEE:UTbX_3AT_S2.Chip2,0,0,0
UADAQFEE:UTbX_3AT_S2.Chip3,0,-3,-3
UADAQFEE:UTbX_3AT_S3.Chip0,0,2,3
UADAQFEE:UTbX_3AT_S3.Chip1,0,-2,0
UADAQFEE:UTbX_3AT_S3.Chip2,0,1,2
UADAQFEE:UTbX_3AT_S3.Chip3,0,-2,1
UADAQFEE:UTbV_4AT_M1.Chip0,0,1,1
UADAQFEE:UTbV_4AT_M1.Chip1,0,-6,-11
UADAQFEE:UTbV_4AT_M1.Chip2,0,0,2
UADAQFEE:UTbV_4AT_M1.Chip3,0,-1,-2
UADAQFEE:UTbV_4AT_M2.Chip0,0,2,4
UADAQFEE:UTbV_4AT_M2.Chip1,0,3,2
UADAQFEE:UTbV_4AT_M2.Chip2,0,-2,-3
UADAQFEE:UTbV_4AT_M2.Chip3,0,-5,-2
UADAQFEE:UTbV_4AT_M3.Chip0,0,-2,-2
UADAQFEE:UTbV_4AT_M3.Chip1,0,-2,0
UADAQFEE:UTbV_4AT_M3.Chip2,0,-1,-1
UADAQFEE:UTbV_4AT_M3.Chip3,0,4,3
UADAQFEE:UTbV_4AT_M4.Chip0,0,-1,-1
UADAQFEE:UTbV_4AT_M4.Chip1,0,0,0
UADAQFEE:UTbV_4AT_M4.Chip2,0,-1,-2
UADAQFEE:UTbV_4AT_M4.Chip3,0,-2,-4
UADAQFEE:UTbV_4AT_S1.Chip0,0,-6,-1
UADAQFEE:UTbV_4AT_S1.Chip1,0,-4,-3
UADAQFEE:UTbV_4AT_S1.Chip2,0,0,0
UADAQFEE:UTbV_4AT_S1.Chip3,0,2,3
UADAQFEE:UTbV_4AT_S2.Chip0,0,1,0
UADAQFEE:UTbV_4AT_S2.Chip1,0,-2,1
UADAQFEE:UTbV_4AT_S2.Chip2,0,3,1
UADAQFEE:UTbV_4AT_S2.Chip3,0,-1,2
UADAQFEE:UTbV_4AT_S3.Chip0,0,3,1
UADAQFEE:UTbV_4AT_S3.Chip1,0,-2,-2
UADAQFEE:UTbV_4AT_S3.Chip2,0,-2,-1
UADAQFEE:UTbV_4AT_S3.Chip3,0,1,2
UADAQFEE:UTbV_5AT_M1.Chip0,0,1,2
UADAQFEE:UTbV_5AT_M1.Chip1,0,-1,1
UADAQFEE:UTbV_5AT_M1.Chip2,0,1,0
UADAQFEE:UTbV_5AT_M1.Chip3,0,0,-1
UADAQFEE:UTbV_5AT_M3.Chip0,0,0,-1
UADAQFEE:UTbV_5AT_M3.Chip1,0,-2,-3
UADAQFEE:UTbV_5AT_M3.Chip2,0,2,3
UADAQFEE:UTbV_5AT_M3.Chip3,0,-1,1
UADAQFEE:UTbV_5AT_M4.Chip0,0,1,1
UADAQFEE:UTbV_5AT_M4.Chip1,0,-2,1
UADAQFEE:UTbV_5AT_M4.Chip2,0,0,-3
UADAQFEE:UTbV_5AT_M4.Chip3,0,-1,-7
UADAQFEE:UTbV_5AT_S1.Chip0,0,1,-2
UADAQFEE:UTbV_5AT_S1.Chip1,0,-4,-2
UADAQFEE:UTbV_5AT_S1.Chip2,0,1,-1
UADAQFEE:UTbV_5AT_S1.Chip3,0,1,1
UADAQFEE:UTbV_5AT_S2.Chip0,0,0,0
UADAQFEE:UTbV_5AT_S2.Chip1,0,0,-5
UADAQFEE:UTbV_5AT_S2.Chip2,0,-5,2
UADAQFEE:UTbV_5AT_S2.Chip3,0,-2,-3
UADAQFEE:UTbV_5AT_S3.Chip0,0,-2,1
UADAQFEE:UTbV_5AT_S3.Chip1,1,2,2
UADAQFEE:UTbV_5AT_S3.Chip2,0,2,2
UADAQFEE:UTbV_5AT_S3.Chip3,0,0,2
UADAQFEE:UTbV_6AT_M1.Chip0,0,4,1
UADAQFEE:UTbV_6AT_M1.Chip1,0,1,-2
UADAQFEE:UTbV_6AT_M1.Chip2,0,3,3
UADAQFEE:UTbV_6AT_M1.Chip3,0,1,4
UADAQFEE:UTbV_6AT_M2.Chip1,0,-2,-1
UADAQFEE:UTbV_6AT_M2.Chip2,0,-2,1
UADAQFEE:UTbV_6AT_M2.Chip3,0,1,2
UADAQFEE:UTbV_6AT_M3.Chip0,0,2,1
UADAQFEE:UTbV_6AT_M3.Chip1,0,-1,-1
UADAQFEE:UTbV_6AT_M3.Chip2,0,-2,0
UADAQFEE:UTbV_6AT_M3.Chip3,0,-7,-3
UADAQFEE:UTbV_6AT_M4.Chip0,0,-4,0
UADAQFEE:UTbV_6AT_M4.Chip1,0,-3,-4
UADAQFEE:UTbV_6AT_M4.Chip2,0,-3,-2
UADAQFEE:UTbV_6AT_M4.Chip3,0,-2,0
UADAQFEE:UTbV_6AT_S2.Chip0,0,1,2
UADAQFEE:UTbV_6AT_S2.Chip1,0,-3,-2
UADAQFEE:UTbV_6AT_S2.Chip2,0,-1,0
UADAQFEE:UTbV_6AT_S2.Chip3,0,0,-2
UADAQFEE:UTbV_6AT_S3.Chip0,0,1,1
UADAQFEE:UTbV_6AT_S3.Chip1,0,2,1
UADAQFEE:UTbV_6AT_S3.Chip2,0,2,-1
UADAQFEE:UTbV_6AT_S3.Chip3,0,-3,2
UADAQFEE:UTbX_4AT_M1.Chip0,0,-5,-1
UADAQFEE:UTbX_4AT_M1.Chip1,0,-3,-2
UADAQFEE:UTbX_4AT_M1.Chip2,0,3,2
UADAQFEE:UTbX_4AT_M1.Chip3,0,-2,-2
UADAQFEE:UTbX_4AT_M2.Chip0,0,2,2
UADAQFEE:UTbX_4AT_M2.Chip1,0,-4,-5
UADAQFEE:UTbX_4AT_M2.Chip2,0,0,-2
UADAQFEE:UTbX_4AT_M2.Chip3,0,-3,1
UADAQFEE:UTbX_4AT_M3.Chip0,0,2,2
UADAQFEE:UTbX_4AT_M3.Chip1,0,2,1
UADAQFEE:UTbX_4AT_M3.Chip2,0,2,1
UADAQFEE:UTbX_4AT_M3.Chip3,0,0,-4
UADAQFEE:UTbX_4AT_M4.Chip0,0,-6,-2
UADAQFEE:UTbX_4AT_M4.Chip1,0,-1,-2
UADAQFEE:UTbX_4AT_M4.Chip2,0,3,1
UADAQFEE:UTbX_4AT_M4.Chip3,0,-1,-1
UADAQFEE:UTbX_4AT_S1.Chip0,0,3,0
UADAQFEE:UTbX_4AT_S1.Chip1,0,1,0
UADAQFEE:UTbX_4AT_S1.Chip2,0,4,1
UADAQFEE:UTbX_4AT_S1.Chip3,1,4,0
UADAQFEE:UTbX_4AT_S2.Chip0,0,1,2
UADAQFEE:UTbX_4AT_S2.Chip1,0,-2,-2
UADAQFEE:UTbX_4AT_S2.Chip2,0,1,-2
UADAQFEE:UTbX_4AT_S2.Chip3,0,1,1
UADAQFEE:UTbX_4AT_S3.Chip0,0,2,0
UADAQFEE:UTbX_4AT_S3.Chip1,0,2,1
UADAQFEE:UTbX_4AT_S3.Chip2,0,-7,-6
UADAQFEE:UTbX_4AT_S3.Chip3,0,2,-1
UADAQFEE:UTbX_5AT_M1.Chip0,0,3,1
UADAQFEE:UTbX_5AT_M1.Chip1,0,-2,-3
UADAQFEE:UTbX_5AT_M1.Chip2,0,1,0
UADAQFEE:UTbX_5AT_M1.Chip3,0,-2,-6
UADAQFEE:UTbX_5AT_M2.Chip0,0,-1,-2
UADAQFEE:UTbX_5AT_M2.Chip1,0,-2,1
UADAQFEE:UTbX_5AT_M2.Chip2,0,-5,-8
UADAQFEE:UTbX_5AT_M2.Chip3,0,3,1
UADAQFEE:UTbX_5AT_S1.Chip1,0,-3,-2
UADAQFEE:UTbX_5AT_S1.Chip2,0,-1,0
UADAQFEE:UTbX_5AT_S1.Chip3,0,-2,1
UADAQFEE:UTbX_5AT_S2.Chip0,0,-7,-2
UADAQFEE:UTbX_5AT_S2.Chip1,0,1,2
UADAQFEE:UTbX_5AT_S2.Chip2,0,-6,1
UADAQFEE:UTbX_5AT_S2.Chip3,0,-4,-5
UADAQFEE:UTbX_6AT_M1.Chip0,0,4,3
UADAQFEE:UTbX_6AT_M1.Chip1,0,3,2
UADAQFEE:UTbX_6AT_M1.Chip2,0,-4,0
UADAQFEE:UTbX_6AT_M1.Chip3,1,2,3
UADAQFEE:UTbX_6AT_M2.Chip0,0,0,2
UADAQFEE:UTbX_6AT_M2.Chip1,0,1,-1
UADAQFEE:UTbX_6AT_M2.Chip2,0,2,0
UADAQFEE:UTbX_6AT_M2.Chip3,0,1,1
UADAQFEE:UTbX_6AT_M3.Chip0,0,-4,-1
UADAQFEE:UTbX_6AT_M3.Chip1,0,-2,-2
UADAQFEE:UTbX_6AT_M3.Chip2,-1,-2,-2
UADAQFEE:UTbX_6AT_M3.Chip3,0,-1,-2
UADAQFEE:UTbX_6AT_M4.Chip0,0,2,4
UADAQFEE:UTbX_6AT_M4.Chip1,0,2,1
UADAQFEE:UTbX_6AT_M4.Chip2,0,-4,1
UADAQFEE:UTbX_6AT_M4.Chip3,0,2,-2
UADAQFEE:UTbX_6AT_S1.Chip0,0,-2,-3
UADAQFEE:UTbX_6AT_S1.Chip1,0,3,3
UADAQFEE:UTbX_6AT_S1.Chip2,0,-2,3
UADAQFEE:UTbX_6AT_S1.Chip3,0,1,-2
UADAQFEE:UTbX_6AT_S2.Chip0,0,-3,-2
UADAQFEE:UTbX_6AT_S2.Chip1,0,-4,-3
UADAQFEE:UTbX_6AT_S2.Chip2,0,-2,-1
UADAQFEE:UTbX_6AT_S2.Chip3,0,-1,0
UADAQFEE:UTbX_6AT_S3.Chip0,0,2,0
UADAQFEE:UTbX_6AT_S3.Chip1,0,0,0
UADAQFEE:UTbX_6AT_S3.Chip2,0,-1,4
UADAQFEE:UTbX_6AT_S3.Chip3,0,-1,-3
UADAQFEE:UTbV_7AT_M1.Chip0,0,-1,-5
UADAQFEE:UTbV_7AT_M1.Chip1,0,3,1
UADAQFEE:UTbV_7AT_M1.Chip2,0,-1,-4
UADAQFEE:UTbV_7AT_M1.Chip3,0,0,-1
UADAQFEE:UTbV_7AT_M2.Chip0,0,0,-1
UADAQFEE:UTbV_7AT_M2.Chip1,0,-5,-2
UADAQFEE:UTbV_7AT_M2.Chip2,0,-3,2
UADAQFEE:UTbV_7AT_M2.Chip3,0,3,4
UADAQFEE:UTbV_7AT_M3.Chip0,0,1,-1
UADAQFEE:UTbV_7AT_M3.Chip1,0,1,-6
UADAQFEE:UTbV_7AT_M3.Chip2,0,0,2
UADAQFEE:UTbV_7AT_M3.Chip3,0,1,2
UADAQFEE:UTbV_7AT_M4.Chip0,0,-1,0
UADAQFEE:UTbV_7AT_M4.Chip1,0,1,2
UADAQFEE:UTbV_7AT_M4.Chip2,0,0,0
UADAQFEE:UTbV_7AT_M4.Chip3,0,-4,-2
UADAQFEE:UTbV_7AT_S1.Chip0,0,-4,-4
UADAQFEE:UTbV_7AT_S1.Chip1,0,-1,-5
UADAQFEE:UTbV_7AT_S1.Chip2,0,-4,-1
UADAQFEE:UTbV_7AT_S1.Chip3,0,-4,-5
UADAQFEE:UTbV_7AT_S2.Chip0,0,-3,-4
UADAQFEE:UTbV_7AT_S2.Chip1,0,-3,-2
UADAQFEE:UTbV_7AT_S2.Chip2,0,-2,-1
UADAQFEE:UTbV_7AT_S2.Chip3,0,2,1
UADAQFEE:UTbV_7AT_S3.Chip0,0,3,2
UADAQFEE:UTbV_7AT_S3.Chip1,0,0,2
UADAQFEE:UTbV_7AT_S3.Chip2,0,0,-2
UADAQFEE:UTbV_7AT_S3.Chip3,0,2,2
UADAQFEE:UTbV_8AT_M1.Chip0,0,-2,-1
UADAQFEE:UTbV_8AT_M1.Chip1,0,0,2
UADAQFEE:UTbV_8AT_M1.Chip2,0,0,1
UADAQFEE:UTbV_8AT_M1.Chip3,0,2,2
UADAQFEE:UTbV_8AT_M2.Chip0,0,-2,-2
UADAQFEE:UTbV_8AT_M2.Chip1,0,2,0
UADAQFEE:UTbV_8AT_M2.Chip2,0,-4,0
UADAQFEE:UTbV_8AT_M2.Chip3,0,3,2
UADAQFEE:UTbV_8AT_M3.Chip0,0,2,0
UADAQFEE:UTbV_8AT_M3.Chip1,0,-4,-9
UADAQFEE:UTbV_8AT_M3.Chip2,0,2,4
UADAQFEE:UTbV_8AT_M3.Chip3,0,-2,-2
UADAQFEE:UTbV_8AT_M4.Chip0,0,-7,-7
UADAQFEE:UTbV_8AT_M4.Chip1,0,1,-1
UADAQFEE:UTbV_8AT_M4.Chip2,0,2,0
UADAQFEE:UTbV_8AT_M4.Chip3,0,-9,-1
UADAQFEE:UTbV_8AT_S1.Chip0,0,2,1
UADAQFEE:UTbV_8AT_S1.Chip1,0,-4,-1
UADAQFEE:UTbV_8AT_S1.Chip2,0,-8,-5
UADAQFEE:UTbV_8AT_S1.Chip3,0,1,2
UADAQFEE:UTbV_8AT_S2.Chip0,0,-1,2
UADAQFEE:UTbV_8AT_S2.Chip1,0,1,2
UADAQFEE:UTbV_8AT_S2.Chip2,0,2,2
UADAQFEE:UTbV_8AT_S2.Chip3,0,-3,2
UADAQFEE:UTbV_8AT_S3.Chip0,0,-2,-1
UADAQFEE:UTbV_8AT_S3.Chip1,0,-1,1
UADAQFEE:UTbV_8AT_S3.Chip2,0,1,-1
UADAQFEE:UTbV_8AT_S3.Chip3,0,3,-1
UADAQFEE:UTbV_9AT_M1.Chip0,0,-2,1
UADAQFEE:UTbV_9AT_M1.Chip1,0,1,0
UADAQFEE:UTbV_9AT_M1.Chip2,0,0,2
UADAQFEE:UTbV_9AT_M1.Chip3,0,-1,-1
UADAQFEE:UTbV_9AT_M2.Chip0,0,3,3
UADAQFEE:UTbV_9AT_M2.Chip1,0,1,-1
UADAQFEE:UTbV_9AT_M2.Chip2,0,-1,4
UADAQFEE:UTbV_9AT_M2.Chip3,0,-4,-3
UADAQFEE:UTbV_9AT_M3.Chip0,0,1,0
UADAQFEE:UTbV_9AT_M3.Chip1,0,-2,-3
UADAQFEE:UTbV_9AT_M3.Chip2,0,3,0
UADAQFEE:UTbV_9AT_M3.Chip3,0,2,2
UADAQFEE:UTbV_9AT_M4.Chip0,0,-1,-1
UADAQFEE:UTbV_9AT_M4.Chip1,0,-7,-7
UADAQFEE:UTbV_9AT_M4.Chip2,0,-1,-1
UADAQFEE:UTbV_9AT_M4.Chip3,0,2,3
UADAQFEE:UTbV_9AT_S1.Chip0,0,-2,-7
UADAQFEE:UTbV_9AT_S1.Chip1,0,0,-2
UADAQFEE:UTbV_9AT_S1.Chip2,0,1,0
UADAQFEE:UTbV_9AT_S1.Chip3,0,1,-1
UADAQFEE:UTbV_9AT_S2.Chip0,0,1,2
UADAQFEE:UTbV_9AT_S2.Chip1,0,2,2
UADAQFEE:UTbV_9AT_S2.Chip2,0,1,-4
UADAQFEE:UTbV_9AT_S2.Chip3,0,1,1
UADAQFEE:UTbV_9AT_S3.Chip0,0,-3,1
UADAQFEE:UTbV_9AT_S3.Chip1,0,2,-1
UADAQFEE:UTbV_9AT_S3.Chip2,0,3,2
UADAQFEE:UTbV_9AT_S3.Chip3,0,0,1
UADAQFEE:UTbX_7AT_M1.Chip0,0,1,3
UADAQFEE:UTbX_7AT_M1.Chip1,0,-1,2
UADAQFEE:UTbX_7AT_M1.Chip2,0,2,2
UADAQFEE:UTbX_7AT_M1.Chip3,0,-2,-2
UADAQFEE:UTbX_7AT_M2.Chip0,0,-12,-6
UADAQFEE:UTbX_7AT_M2.Chip1,0,-4,-2
UADAQFEE:UTbX_7AT_M2.Chip2,0,1,1
UADAQFEE:UTbX_7AT_M3.Chip0,0,1,-2
UADAQFEE:UTbX_7AT_M3.Chip1,0,1,1
UADAQFEE:UTbX_7AT_M3.Chip2,0,0,2
UADAQFEE:UTbX_7AT_M3.Chip3,0,2,-2
UADAQFEE:UTbX_7AT_M4.Chip0,1,0,2
UADAQFEE:UTbX_7AT_M4.Chip1,0,1,-2
UADAQFEE:UTbX_7AT_M4.Chip2,0,1,1
UADAQFEE:UTbX_7AT_M4.Chip3,0,2,3
UADAQFEE:UTbX_7AT_S1.Chip0,0,-1,2
UADAQFEE:UTbX_7AT_S1.Chip1,0,-1,-2
UADAQFEE:UTbX_7AT_S1.Chip2,0,2,1
UADAQFEE:UTbX_7AT_S1.Chip3,0,1,3
UADAQFEE:UTbX_7AT_S2.Chip0,0,-5,-4
UADAQFEE:UTbX_7AT_S2.Chip1,0,-1,2
UADAQFEE:UTbX_7AT_S2.Chip2,0,2,2
UADAQFEE:UTbX_7AT_S2.Chip3,1,4,1
UADAQFEE:UTbX_7AT_S3.Chip0,0,-3,-1
UADAQFEE:UTbX_7AT_S3.Chip1,0,-3,-3
UADAQFEE:UTbX_7AT_S3.Chip2,0,0,-4
UADAQFEE:UTbX_7AT_S3.Chip3,0,2,0
UADAQFEE:UTbX_8AT_M1.Chip0,0,-1,-3
UADAQFEE:UTbX_8AT_M1.Chip1,0,-2,-1
UADAQFEE:UTbX_8AT_M1.Chip2,0,-2,-2
UADAQFEE:UTbX_8AT_M1.Chip3,0,-3,2
UADAQFEE:UTbX_8AT_M2.Chip0,0,3,2
UADAQFEE:UTbX_8AT_M2.Chip1,0,1,-2
UADAQFEE:UTbX_8AT_M2.Chip2,0,0,3
UADAQFEE:UTbX_8AT_M2.Chip3,0,-4,-5
UADAQFEE:UTbX_8AT_M3.Chip0,0,-5,-3
UADAQFEE:UTbX_8AT_M3.Chip1,0,2,-2
UADAQFEE:UTbX_8AT_M3.Chip2,0,0,0
UADAQFEE:UTbX_8AT_M3.Chip3,0,-2,-1
UADAQFEE:UTbX_8AT_M4.Chip0,0,-3,-3
UADAQFEE:UTbX_8AT_M4.Chip1,0,-2,1
UADAQFEE:UTbX_8AT_M4.Chip2,0,2,2
UADAQFEE:UTbX_8AT_M4.Chip3,0,-1,-2
UADAQFEE:UTbX_8AT_S1.Chip0,0,-5,-7
UADAQFEE:UTbX_8AT_S1.Chip1,0,2,1
UADAQFEE:UTbX_8AT_S1.Chip2,0,-8,-11
UADAQFEE:UTbX_8AT_S1.Chip3,0,2,-1
UADAQFEE:UTbX_8AT_S2.Chip0,0,-1,-1
UADAQFEE:UTbX_8AT_S2.Chip1,0,1,-3
UADAQFEE:UTbX_8AT_S2.Chip2,0,1,-1
UADAQFEE:UTbX_8AT_S2.Chip3,0,1,2
UADAQFEE:UTbX_8AT_S3.Chip0,0,-6,-3
UADAQFEE:UTbX_8AT_S3.Chip1,0,3,0
UADAQFEE:UTbX_8AT_S3.Chip2,0,0,1
UADAQFEE:UTbX_8AT_S3.Chip3,0,1,1
UADAQFEE:UTbX_9AT_M1.Chip0,0,0,0
UADAQFEE:UTbX_9AT_M1.Chip1,0,2,1
UADAQFEE:UTbX_9AT_M1.Chip2,0,1,-2
UADAQFEE:UTbX_9AT_M1.Chip3,0,1,2
UADAQFEE:UTbX_9AT_M2.Chip0,0,2,1
UADAQFEE:UTbX_9AT_M2.Chip1,0,3,1
UADAQFEE:UTbX_9AT_M2.Chip2,0,-5,-5
UADAQFEE:UTbX_9AT_M2.Chip3,0,-2,-1
UADAQFEE:UTbX_9AT_M3.Chip0,0,-1,-8
UADAQFEE:UTbX_9AT_M3.Chip1,0,2,4
UADAQFEE:UTbX_9AT_M3.Chip2,0,1,-2
UADAQFEE:UTbX_9AT_M3.Chip3,0,2,5
UADAQFEE:UTbX_9AT_M4.Chip0,0,-2,-3
UADAQFEE:UTbX_9AT_M4.Chip1,0,-1,2
UADAQFEE:UTbX_9AT_M4.Chip2,0,-2,2
UADAQFEE:UTbX_9AT_M4.Chip3,0,-1,0
UADAQFEE:UTbX_9AT_S1.Chip0,0,1,-1
UADAQFEE:UTbX_9AT_S1.Chip2,0,-2,-2
UADAQFEE:UTbX_9AT_S1.Chip3,0,-3,-2
UADAQFEE:UTbX_9AT_S2.Chip0,0,-2,0
UADAQFEE:UTbX_9AT_S2.Chip1,0,-2,0
UADAQFEE:UTbX_9AT_S2.Chip2,0,0,-2
UADAQFEE:UTbX_9AT_S2.Chip3,0,4,2
UADAQFEE:UTbX_9AT_S3.Chip0,0,1,1
UADAQFEE:UTbX_9AT_S3.Chip1,0,-3,2
UADAQFEE:UTbX_9AT_S3.Chip2,0,0,1
UADAQFEE:UTbX_9AT_S3.Chip3,0,1,1
UADAQFEE:UTbV_1AB_M1E.Chip0,0,1,3
UADAQFEE:UTbV_1AB_M1E.Chip1,0,-2,1
UADAQFEE:UTbV_1AB_M1E.Chip2,0,1,2
UADAQFEE:UTbV_1AB_M1E.Chip3,0,2,2
UADAQFEE:UTbV_1AB_M1W.Chip0,0,1,1
UADAQFEE:UTbV_1AB_M1W.Chip1,0,2,1
UADAQFEE:UTbV_1AB_M1W.Chip2,0,-1,-2
UADAQFEE:UTbV_1AB_M1W.Chip3,0,-3,2
UADAQFEE:UTbV_1AB_M2.Chip0,0,1,1
UADAQFEE:UTbV_1AB_M2.Chip1,0,1,3
UADAQFEE:UTbV_1AB_M2.Chip2,0,1,3
UADAQFEE:UTbV_1AB_M2.Chip3,0,0,0
UADAQFEE:UTbV_1AB_M3.Chip0,0,1,1
UADAQFEE:UTbV_1AB_M3.Chip1,0,-4,-1
UADAQFEE:UTbV_1AB_M3.Chip2,1,-1,1
UADAQFEE:UTbV_1AB_M3.Chip3,0,2,0
UADAQFEE:UTbV_1AB_M4.Chip0,0,3,1
UADAQFEE:UTbV_1AB_M4.Chip1,0,2,2
UADAQFEE:UTbV_1AB_M4.Chip2,0,1,0
UADAQFEE:UTbV_1AB_M4.Chip3,0,0,1
UADAQFEE:UTbV_1AB_S1E.Chip0,0,-1,1
UADAQFEE:UTbV_1AB_S1E.Chip1,0,0,2
UADAQFEE:UTbV_1AB_S1E.Chip2,0,0,4
UADAQFEE:UTbV_1AB_S1E.Chip3,0,1,-2
UADAQFEE:UTbV_1AB_S1W.Chip0,0,1,-3
UADAQFEE:UTbV_1AB_S1W.Chip1,0,2,3
UADAQFEE:UTbV_1AB_S1W.Chip2,0,1,-1
UADAQFEE:UTbV_1AB_S1W.Chip3,0,-2,-3
UADAQFEE:UTbV_1AB_S2E.Chip1,0,2,3
UADAQFEE:UTbV_1AB_S2E.Chip2,0,-4,-2
UADAQFEE:UTbV_1AB_S2E.Chip3,0,-2,-2
UADAQFEE:UTbV_1AB_S2W.Chip0,0,-5,-1
UADAQFEE:UTbV_1AB_S2W.Chip1,0,-1,-6
UADAQFEE:UTbV_1AB_S2W.Chip2,0,-2,3
UADAQFEE:UTbV_1AB_S2W.Chip3,0,-1,1
UADAQFEE:UTbV_1AB_S3.Chip0,0,2,1
UADAQFEE:UTbV_1AB_S3.Chip1,0,-4,-11
UADAQFEE:UTbV_1AB_S3.Chip2,0,4,-3
UADAQFEE:UTbV_1AB_S3.Chip3,0,-4,-2
UADAQFEE:UTbV_1AB_S4.Chip0,0,2,2
UADAQFEE:UTbV_1AB_S4.Chip1,0,1,-1
UADAQFEE:UTbV_1AB_S4.Chip2,0,-3,0
UADAQFEE:UTbV_1AB_S4.Chip3,0,1,2
UADAQFEE:UTbV_2AB_M1E.Chip0,0,0,-1
UADAQFEE:UTbV_2AB_M1E.Chip1,0,2,1
UADAQFEE:UTbV_2AB_M1E.Chip2,0,1,2
UADAQFEE:UTbV_2AB_M1E.Chip3,0,-3,-3
UADAQFEE:UTbV_2AB_M1W.Chip0,0,0,-3
UADAQFEE:UTbV_2AB_M1W.Chip1,0,1,-3
UADAQFEE:UTbV_2AB_M1W.Chip2,0,1,1
UADAQFEE:UTbV_2AB_M1W.Chip3,0,-2,-1
UADAQFEE:UTbV_2AB_M2.Chip0,0,-3,3
UADAQFEE:UTbV_2AB_M2.Chip1,0,-2,-3
UADAQFEE:UTbV_2AB_M2.Chip2,0,-4,0
UADAQFEE:UTbV_2AB_M2.Chip3,0,-3,-2
UADAQFEE:UTbV_2AB_M3.Chip0,0,2,1
UADAQFEE:UTbV_2AB_M3.Chip1,0,-4,-4
UADAQFEE:UTbV_2AB_M3.Chip2,0,3,2
UADAQFEE:UTbV_2AB_M3.Chip3,0,3,-1
UADAQFEE:UTbV_2AB_M4.Chip0,0,1,-2
UADAQFEE:UTbV_2AB_M4.Chip1,0,2,1
UADAQFEE:UTbV_2AB_M4.Chip2,0,0,1
UADAQFEE:UTbV_2AB_M4.Chip3,0,-2,-5
UADAQFEE:UTbV_2AB_S1E.Chip0,-16,-12,-10
UADAQFEE:UTbV_2AB_S1E.Chip1,-30,-30,-29
UADAQFEE:UTbV_2AB_S1E.Chip2,-15,-29,-27
UADAQFEE:UTbV_2AB_S1E.Chip3,-11,-2,-13
UADAQFEE:UTbV_2AB_S1W.Chip0,-14,-29,-18
UADAQFEE:UTbV_2AB_S1W.Chip1,-19,-27,-12
UADAQFEE:UTbV_2AB_S1W.Chip2,-14,-6,-29
UADAQFEE:UTbV_2AB_S1W.Chip3,-15,-11,-8
UADAQFEE:UTbV_2AB_S2.Chip0,0,3,2
UADAQFEE:UTbV_2AB_S2.Chip1,0,3,4
UADAQFEE:UTbV_2AB_S2.Chip2,0,1,-4
UADAQFEE:UTbV_2AB_S2.Chip3,0,1,2
UADAQFEE:UTbV_2AB_S3.Chip0,0,-1,2
UADAQFEE:UTbV_2AB_S3.Chip1,0,3,2
UADAQFEE:UTbV_2AB_S3.Chip2,0,1,1
UADAQFEE:UTbV_2AB_S3.Chip3,0,-2,-5
UADAQFEE:UTbV_3AB_M1.Chip0,0,3,4
UADAQFEE:UTbV_3AB_M1.Chip1,0,1,0
UADAQFEE:UTbV_3AB_M1.Chip2,0,-1,3
UADAQFEE:UTbV_3AB_M1.Chip3,0,0,1
UADAQFEE:UTbV_3AB_M2.Chip0,0,0,-3
UADAQFEE:UTbV_3AB_M2.Chip1,0,1,2
UADAQFEE:UTbV_3AB_M2.Chip2,0,-1,-2
UADAQFEE:UTbV_3AB_M2.Chip3,0,-3,-1
UADAQFEE:UTbV_3AB_M3.Chip0,0,-1,1
UADAQFEE:UTbV_3AB_M3.Chip1,0,-2,0
UADAQFEE:UTbV_3AB_M3.Chip2,0,3,3
UADAQFEE:UTbV_3AB_M3.Chip3,0,5,3
UADAQFEE:UTbV_3AB_M4.Chip0,0,-1,2
UADAQFEE:UTbV_3AB_M4.Chip1,0,-2,1
UADAQFEE:UTbV_3AB_M4.Chip2,0,1,0
UADAQFEE:UTbV_3AB_M4.Chip3,0,1,2
UADAQFEE:UTbV_3AB_S1.Chip0,0,-1,2
UADAQFEE:UTbV_3AB_S1.Chip1,0,2,0
UADAQFEE:UTbV_3AB_S1.Chip2,0,-3,-25
UADAQFEE:UTbV_3AB_S1.Chip3,0,2,1
UADAQFEE:UTbV_3AB_S2.Chip0,0,-2,-2
UADAQFEE:UTbV_3AB_S2.Chip1,0,0,2
UADAQFEE:UTbV_3AB_S2.Chip2,0,1,1
UADAQFEE:UTbV_3AB_S2.Chip3,0,-2,-1
UADAQFEE:UTbX_1AB_M1E.Chip0,0,0,2
UADAQFEE:UTbX_1AB_M1E.Chip1,0,2,1
UADAQFEE:UTbX_1AB_M1E.Chip2,0,-2,-2
UADAQFEE:UTbX_1AB_M1E.Chip3,0,-1,2
UADAQFEE:UTbX_1AB_M1W.Chip0,0,1,-2
UADAQFEE:UTbX_1AB_M1W.Chip1,0,3,0
UADAQFEE:UTbX_1AB_M1W.Chip2,0,1,-3
UADAQFEE:UTbX_1AB_M1W.Chip3,0,0,1
UADAQFEE:UTbX_1AB_M2.Chip0,0,3,4
UADAQFEE:UTbX_1AB_M2.Chip1,0,1,2
UADAQFEE:UTbX_1AB_M2.Chip2,0,3,1
UADAQFEE:UTbX_1AB_M2.Chip3,0,-1,-2
UADAQFEE:UTbX_1AB_M3.Chip0,0,-8,-3
UADAQFEE:UTbX_1AB_M3.Chip1,0,-4,-4
UADAQFEE:UTbX_1AB_M3.Chip2,0,1,5
UADAQFEE:UTbX_1AB_M3.Chip3,0,-2,-6
UADAQFEE:UTbX_1AB_M4.Chip0,0,-3,0
UADAQFEE:UTbX_1AB_M4.Chip1,0,5,3
UADAQFEE:UTbX_1AB_M4.Chip2,0,1,2
UADAQFEE:UTbX_1AB_M4.Chip3,0,-1,-2
UADAQFEE:UTbX_1AB_S1E.Chip0,1,-5,-1
UADAQFEE:UTbX_1AB_S1E.Chip1,0,3,1
UADAQFEE:UTbX_1AB_S1E.Chip2,0,3,4
UADAQFEE:UTbX_1AB_S1E.Chip3,1,-2,-5
UADAQFEE:UTbX_1AB_S1W.Chip0,1,1,-3
UADAQFEE:UTbX_1AB_S1W.Chip1,1,2,1
UADAQFEE:UTbX_1AB_S1W.Chip2,1,-3,-2
UADAQFEE:UTbX_1AB_S1W.Chip3,1,-1,0
UADAQFEE:UTbX_1AB_S3.Chip0,0,1,1
UADAQFEE:UTbX_1AB_S3.Chip1,0,-2,-3
UADAQFEE:UTbX_1AB_S3.Chip2,0,1,2
UADAQFEE:UTbX_1AB_S3.Chip3,0,4,4
UADAQFEE:UTbX_1AB_S4.Chip0,0,1,0
UADAQFEE:UTbX_1AB_S4.Chip1,0,-2,-1
UADAQFEE:UTbX_1AB_S4.Chip2,0,-2,-6
UADAQFEE:UTbX_1AB_S4.Chip3,0,-4,-2
UADAQFEE:UTbX_2AB_M1E.Chip0,0,-1,1
UADAQFEE:UTbX_2AB_M1E.Chip1,0,2,-3
UADAQFEE:UTbX_2AB_M1E.Chip2,0,2,3
UADAQFEE:UTbX_2AB_M1E.Chip3,0,-4,-5
UADAQFEE:UTbX_2AB_M1W.Chip0,0,-2,-4
UADAQFEE:UTbX_2AB_M1W.Chip1,0,-6,-4
UADAQFEE:UTbX_2AB_M1W.Chip2,0,2,3
UADAQFEE:UTbX_2AB_M1W.Chip3,0,-3,-3
UADAQFEE:UTbX_2AB_M2.Chip0,0,1,1
UADAQFEE:UTbX_2AB_M2.Chip1,0,-3,0
UADAQFEE:UTbX_2AB_M2.Chip2,0,1,0
UADAQFEE:UTbX_2AB_M2.Chip3,0,-4,-1
UADAQFEE:UTbX_2AB_M3.Chip0,-2,-5,-2
UADAQFEE:UTbX_2AB_M3.Chip1,-2,-5,-4
UADAQFEE:UTbX_2AB_M3.Chip3,2,-5,-4
UADAQFEE:UTbX_2AB_M4.Chip0,0,0,-1
UADAQFEE:UTbX_2AB_M4.Chip1,0,2,2
UADAQFEE:UTbX_2AB_M4.Chip2,0,-1,0
UADAQFEE:UTbX_2AB_M4.Chip3,0,-3,-7
UADAQFEE:UTbX_2AB_S1E.Chip0,0,2,4
UADAQFEE:UTbX_2AB_S1E.Chip1,0,1,4
UADAQFEE:UTbX_2AB_S1E.Chip2,0,1,-1
UADAQFEE:UTbX_2AB_S1E.Chip3,0,-2,0
UADAQFEE:UTbX_2AB_S1W.Chip0,0,0,-3
UADAQFEE:UTbX_2AB_S1W.Chip1,0,-1,-2
UADAQFEE:UTbX_2AB_S1W.Chip2,0,1,-2
UADAQFEE:UTbX_2AB_S1W.Chip3,0,-1,3
UADAQFEE:UTbX_2AB_S2.Chip0,0,-1,-1
UADAQFEE:UTbX_2AB_S2.Chip1,0,1,2
UADAQFEE:UTbX_2AB_S2.Chip2,0,-2,-1
UADAQFEE:UTbX_2AB_S2.Chip3,0,-2,-2
UADAQFEE:UTbX_2AB_S3.Chip0,0,-5,-2
UADAQFEE:UTbX_2AB_S3.Chip1,0,-2,-2
UADAQFEE:UTbX_2AB_S3.Chip2,0,-5,2
UADAQFEE:UTbX_2AB_S3.Chip3,0,-2,1
UADAQFEE:UTbX_3AB_M1.Chip0,0,-7,-1
UADAQFEE:UTbX_3AB_M1.Chip1,0,1,3
UADAQFEE:UTbX_3AB_M1.Chip2,0,3,3
UADAQFEE:UTbX_3AB_M1.Chip3,0,-3,-3
UADAQFEE:UTbX_3AB_M2.Chip0,0,-3,-1
UADAQFEE:UTbX_3AB_M2.Chip1,0,2,-2
UADAQFEE:UTbX_3AB_M2.Chip2,0,-2,2
UADAQFEE:UTbX_3AB_M2.Chip3,0,-2,1
UADAQFEE:UTbX_3AB_M3.Chip0,0,0,0
UADAQFEE:UTbX_3AB_M3.Chip1,0,0,-1
UADAQFEE:UTbX_3AB_M3.Chip2,0,-1,1
UADAQFEE:UTbX_3AB_M3.Chip3,0,2,1
UADAQFEE:UTbX_3AB_M4.Chip0,0,1,-3
UADAQFEE:UTbX_3AB_M4.Chip1,0,1,-4
UADAQFEE:UTbX_3AB_M4.Chip2,0,-1,0
UADAQFEE:UTbX_3AB_M4.Chip3,0,-1,-1
UADAQFEE:UTbX_3AB_S1.Chip0,0,4,2
UADAQFEE:UTbX_3AB_S1.Chip1,0,-4,1
UADAQFEE:UTbX_3AB_S1.Chip2,0,-2,-4
UADAQFEE:UTbX_3AB_S1.Chip3,0,0,3
UADAQFEE:UTbX_3AB_S2.Chip0,0,0,0
UADAQFEE:UTbX_3AB_S2.Chip1,0,0,2
UADAQFEE:UTbX_3AB_S2.Chip2,0,-2,-1
UADAQFEE:UTbX_3AB_S2.Chip3,0,4,3
UADAQFEE:UTbX_3AB_S3.Chip0,0,0,2
UADAQFEE:UTbX_3AB_S3.Chip1,0,-4,0
UADAQFEE:UTbX_3AB_S3.Chip2,0,-1,1
UADAQFEE:UTbX_3AB_S3.Chip3,0,1,2
UADAQFEE:UTbV_4AB_M1.Chip0,0,-5,-4
UADAQFEE:UTbV_4AB_M1.Chip1,0,0,0
UADAQFEE:UTbV_4AB_M1.Chip2,0,0,-2
UADAQFEE:UTbV_4AB_M1.Chip3,0,-1,-1
UADAQFEE:UTbV_4AB_M2.Chip0,0,1,3
UADAQFEE:UTbV_4AB_M2.Chip1,0,2,2
UADAQFEE:UTbV_4AB_M2.Chip2,0,2,2
UADAQFEE:UTbV_4AB_M2.Chip3,0,-2,-2
UADAQFEE:UTbV_4AB_M3.Chip0,0,0,-3
UADAQFEE:UTbV_4AB_M3.Chip1,0,-1,-3
UADAQFEE:UTbV_4AB_M3.Chip2,0,-1,0
UADAQFEE:UTbV_4AB_M3.Chip3,0,-2,0
UADAQFEE:UTbV_4AB_M4.Chip0,0,1,-3
UADAQFEE:UTbV_4AB_M4.Chip1,0,-4,-4
UADAQFEE:UTbV_4AB_M4.Chip2,0,-3,-2
UADAQFEE:UTbV_4AB_M4.Chip3,0,0,-2
UADAQFEE:UTbV_4AB_S1.Chip0,0,1,-3
UADAQFEE:UTbV_4AB_S1.Chip1,0,2,2
UADAQFEE:UTbV_4AB_S1.Chip2,0,0,0
UADAQFEE:UTbV_4AB_S1.Chip3,0,0,2
UADAQFEE:UTbV_4AB_S2.Chip0,0,1,1
UADAQFEE:UTbV_4AB_S2.Chip1,0,-9,-5
UADAQFEE:UTbV_4AB_S2.Chip2,0,-2,-5
UADAQFEE:UTbV_4AB_S2.Chip3,1,-3,-4
UADAQFEE:UTbV_4AB_S3.Chip0,0,-1,0
UADAQFEE:UTbV_4AB_S3.Chip1,0,-3,-2
UADAQFEE:UTbV_4AB_S3.Chip2,0,1,-3
UADAQFEE:UTbV_4AB_S3.Chip3,0,1,0
UADAQFEE:UTbV_5AB_M1.Chip0,0,-3,-3
UADAQFEE:UTbV_5AB_M1.Chip1,0,-2,-5
UADAQFEE:UTbV_5AB_M1.Chip3,0,0,1
UADAQFEE:UTbV_5AB_M3.Chip0,0,1,-2
UADAQFEE:UTbV_5AB_M3.Chip1,0,-1,-3
UADAQFEE:UTbV_5AB_M3.Chip2,0,2,4
UADAQFEE:UTbV_5AB_M3.Chip3,0,3,2
UADAQFEE:UTbV_5AB_S1.Chip0,0,-2,-4
UADAQFEE:UTbV_5AB_S1.Chip1,0,1,2
UADAQFEE:UTbV_5AB_S1.Chip2,0,-4,-4
UADAQFEE:UTbV_5AB_S1.Chip3,0,-1,4
UADAQFEE:UTbV_5AB_S2.Chip0,0,2,0
UADAQFEE:UTbV_5AB_S2.Chip1,0,-2,-2
UADAQFEE:UTbV_5AB_S2.Chip2,0,0,0
UADAQFEE:UTbV_5AB_S2.Chip3,0,-1,1
UADAQFEE:UTbV_5AB_S3.Chip0,0,1,1
UADAQFEE:UTbV_5AB_S3.Chip1,0,1,1
UADAQFEE:UTbV_5AB_S3.Chip2,0,2,2
UADAQFEE:UTbV_5AB_S3.Chip3,0,1,-1
UADAQFEE:UTbV_6AB_M1.Chip0,0,-2,-2
UADAQFEE:UTbV_6AB_M1.Chip1,0,1,2
UADAQFEE:UTbV_6AB_M1.Chip2,0,2,4
UADAQFEE:UTbV_6AB_M1.Chip3,-1,-2,-3
UADAQFEE:UTbV_6AB_M2.Chip0,0,2,1
UADAQFEE:UTbV_6AB_M2.Chip1,0,1,0
UADAQFEE:UTbV_6AB_M2.Chip2,0,-1,1
UADAQFEE:UTbV_6AB_M2.Chip3,0,0,-5
UADAQFEE:UTbV_6AB_M3.Chip0,0,0,0
UADAQFEE:UTbV_6AB_M3.Chip1,0,-2,0
UADAQFEE:UTbV_6AB_M3.Chip2,0,-3,-3
UADAQFEE:UTbV_6AB_M3.Chip3,0,2,3
UADAQFEE:UTbV_6AB_M4.Chip0,0,1,-1
UADAQFEE:UTbV_6AB_M4.Chip1,0,0,1
UADAQFEE:UTbV_6AB_M4.Chip2,0,1,1
UADAQFEE:UTbV_6AB_M4.Chip3,0,-2,-3
UADAQFEE:UTbV_6AB_S1.Chip0,0,-5,-6
UADAQFEE:UTbV_6AB_S1.Chip1,0,-3,-3
UADAQFEE:UTbV_6AB_S1.Chip2,0,0,4
UADAQFEE:UTbV_6AB_S1.Chip3,0,0,1
UADAQFEE:UTbV_6AB_S2.Chip0,0,4,3
UADAQFEE:UTbV_6AB_S2.Chip1,0,-3,3
UADAQFEE:UTbV_6AB_S2.Chip2,0,0,4
UADAQFEE:UTbV_6AB_S2.Chip3,0,-1,2
UADAQFEE:UTbV_6AB_S3.Chip0,0,2,3
UADAQFEE:UTbV_6AB_S3.Chip1,0,0,-3
UADAQFEE:UTbV_6AB_S3.Chip2,0,0,3
UADAQFEE:UTbV_6AB_S3.Chip3,0,-5,-1
UADAQFEE:UTbX_4AB_M1.Chip0,0,0,-1
UADAQFEE:UTbX_4AB_M1.Chip1,0,2,-1
UADAQFEE:UTbX_4AB_M1.Chip2,0,0,-1
UADAQFEE:UTbX_4AB_M1.Chip3,0,1,2
UADAQFEE:UTbX_4AB_M2.Chip0,0,3,-3
UADAQFEE:UTbX_4AB_M2.Chip1,0,1,1
UADAQFEE:UTbX_4AB_M2.Chip2,0,3,2
UADAQFEE:UTbX_4AB_M2.Chip3,0,1,0
UADAQFEE:UTbX_4AB_M3.Chip0,0,2,2
UADAQFEE:UTbX_4AB_M3.Chip1,0,2,1
UADAQFEE:UTbX_4AB_M3.Chip2,0,1,2
UADAQFEE:UTbX_4AB_M3.Chip3,0,0,-2
UADAQFEE:UTbX_4AB_M4.Chip0,0,0,3
UADAQFEE:UTbX_4AB_M4.Chip1,0,-4,0
UADAQFEE:UTbX_4AB_M4.Chip2,0,1,-1
UADAQFEE:UTbX_4AB_M4.Chip3,0,0,1
UADAQFEE:UTbX_4AB_S1.Chip0,0,0,2
UADAQFEE:UTbX_4AB_S1.Chip1,0,-1,-3
UADAQFEE:UTbX_4AB_S1.Chip2,0,0,1
UADAQFEE:UTbX_4AB_S1.Chip3,0,-1,-1
UADAQFEE:UTbX_4AB_S2.Chip0,0,-1,-1
UADAQFEE:UTbX_4AB_S2.Chip1,0,0,0
UADAQFEE:UTbX_4AB_S2.Chip2,0,-2,-3
UADAQFEE:UTbX_4AB_S2.Chip3,0,-5,-2
UADAQFEE:UTbX_4AB_S3.Chip0,0,-2,-2
UADAQFEE:UTbX_4AB_S3.Chip1,0,4,3
UADAQFEE:UTbX_4AB_S3.Chip2,0,1,0
UADAQFEE:UTbX_4AB_S3.Chip3,0,-2,-3
UADAQFEE:UTbX_5AB_M1.Chip0,0,-3,-1
UADAQFEE:UTbX_5AB_M1.Chip1,0,1,1
UADAQFEE:UTbX_5AB_M1.Chip2,0,0,-4
UADAQFEE:UTbX_5AB_M1.Chip3,0,2,0
UADAQFEE:UTbX_5AB_M2.Chip0,0,0,2
UADAQFEE:UTbX_5AB_M2.Chip1,0,1,-1
UADAQFEE:UTbX_5AB_M2.Chip2,0,1,0
UADAQFEE:UTbX_5AB_M2.Chip3,0,2,1
UADAQFEE:UTbX_5AB_M3.Chip0,0,2,1
UADAQFEE:UTbX_5AB_M3.Chip1,1,1,1
UADAQFEE:UTbX_5AB_M3.Chip2,1,2,0
UADAQFEE:UTbX_5AB_M3.Chip3,0,-3,-3
UADAQFEE:UTbX_5AB_S1.Chip0,1,2,0
UADAQFEE:UTbX_5AB_S1.Chip1,0,2,0
UADAQFEE:UTbX_5AB_S1.Chip2,0,1,2
UADAQFEE:UTbX_5AB_S1.Chip3,0,1,-2
UADAQFEE:UTbX_5AB_S2.Chip0,0,2,2
UADAQFEE:UTbX_5AB_S2.Chip1,0,2,0
UADAQFEE:UTbX_5AB_S2.Chip2,0,0,0
UADAQFEE:UTbX_5AB_S2.Chip3,0,1,1
UADAQFEE:UTbX_5AB_S3.Chip0,0,1,1
UADAQFEE:UTbX_5AB_S3.Chip1,0,1,-1
UADAQFEE:UTbX_5AB_S3.Chip2,0,0,-2
UADAQFEE:UTbX_5AB_S3.Chip3,0,-1,-2
UADAQFEE:UTbX_6AB_M1.Chip0,1,2,0
UADAQFEE:UTbX_6AB_M1.Chip1,0,-2,-2
UADAQFEE:UTbX_6AB_M1.Chip2,1,-3,-5
UADAQFEE:UTbX_6AB_M1.Chip3,0,2,0
UADAQFEE:UTbX_6AB_M2.Chip0,0,-1,-2
UADAQFEE:UTbX_6AB_M2.Chip1,0,2,0
UADAQFEE:UTbX_6AB_M2.Chip2,0,-1,2
UADAQFEE:UTbX_6AB_M2.Chip3,0,-1,1
UADAQFEE:UTbX_6AB_M3.Chip0,0,-1,1
UADAQFEE:UTbX_6AB_M3.Chip1,0,-2,0
UADAQFEE:UTbX_6AB_M3.Chip2,0,1,-1
UADAQFEE:UTbX_6AB_M3.Chip3,0,1,0
UADAQFEE:UTbX_6AB_M4.Chip0,0,-1,-1
UADAQFEE:UTbX_6AB_M4.Chip1,0,2,4
UADAQFEE:UTbX_6AB_M4.Chip2,0,-1,2
UADAQFEE:UTbX_6AB_M4.Chip3,0,1,1
UADAQFEE:UTbX_6AB_S1.Chip0,0,-1,-3
UADAQFEE:UTbX_6AB_S1.Chip1,0,-4,-3
UADAQFEE:UTbX_6AB_S1.Chip2,1,3,4
UADAQFEE:UTbX_6AB_S1.Chip3,0,1,-4
UADAQFEE:UTbX_6AB_S2.Chip0,0,-2,-1
UADAQFEE:UTbX_6AB_S2.Chip1,0,-3,-7
UADAQFEE:UTbX_6AB_S2.Chip2,0,3,3
UADAQFEE:UTbX_6AB_S2.Chip3,0,-3,-3
UADAQFEE:UTbX_6AB_S3.Chip0,0,-4,-3
UADAQFEE:UTbX_6AB_S3.Chip1,0,1,1
UADAQFEE:UTbX_6AB_S3.Chip2,0,1,1
UADAQFEE:UTbX_6AB_S3.Chip3,0,-1,-5
UADAQFEE:UTbV_7AB_M1.Chip0,0,1,0
UADAQFEE:UTbV_7AB_M1.Chip1,0,-1,1
UADAQFEE:UTbV_7AB_M1.Chip2,0,-1,1
UADAQFEE:UTbV_7AB_M1.Chip3,0,-5,-4
UADAQFEE:UTbV_7AB_M3.Chip0,0,2,4
UADAQFEE:UTbV_7AB_M3.Chip1,0,-9,-5
UADAQFEE:UTbV_7AB_M3.Chip2,0,-1,-1
UADAQFEE:UTbV_7AB_M3.Chip3,0,0,1
UADAQFEE:UTbV_7AB_S2.Chip0,0,-1,-1
UADAQFEE:UTbV_7AB_S2.Chip1,0,-3,2
UADAQFEE:UTbV_7AB_S2.Chip2,0,0,2
UADAQFEE:UTbV_7AB_S2.Chip3,0,3,3
UADAQFEE:UTbV_7AB_S3.Chip0,0,0,-2
UADAQFEE:UTbV_7AB_S3.Chip1,0,-2,-1
UADAQFEE:UTbV_7AB_S3.Chip2,0,2,3
UADAQFEE:UTbV_7AB_S3.Chip3,0,-2,-3
UADAQFEE:UTbV_8AB_M1.Chip0,0,2,4
UADAQFEE:UTbV_8AB_M1.Chip1,0,-1,0
UADAQFEE:UTbV_8AB_M1.Chip2,1,0,1
UADAQFEE:UTbV_8AB_M1.Chip3,0,1,2
UADAQFEE:UTbV_8AB_M2.Chip0,0,-4,-1
UADAQFEE:UTbV_8AB_M2.Chip1,0,5,2
UADAQFEE:UTbV_8AB_M2.Chip2,0,0,-2
UADAQFEE:UTbV_8AB_M2.Chip3,0,-2,1
UADAQFEE:UTbV_8AB_M4.Chip0,0,-1,-4
UADAQFEE:UTbV_8AB_M4.Chip1,0,-5,-3
UADAQFEE:UTbV_8AB_M4.Chip2,0,-2,0
UADAQFEE:UTbV_8AB_M4.Chip3,0,0,-3
UADAQFEE:UTbV_8AB_S1.Chip0,0,2,2
UADAQFEE:UTbV_8AB_S1.Chip1,0,2,2
UADAQFEE:UTbV_8AB_S1.Chip2,0,2,-2
UADAQFEE:UTbV_8AB_S1.Chip3,0,-1,-2
UADAQFEE:UTbV_8AB_S2.Chip0,0,-3,0
UADAQFEE:UTbV_8AB_S2.Chip1,0,-4,-1
UADAQFEE:UTbV_8AB_S2.Chip2,1,1,0
UADAQFEE:UTbV_8AB_S2.Chip3,0,3,1
UADAQFEE:UTbV_8AB_S3.Chip0,0,-1,3
UADAQFEE:UTbV_8AB_S3.Chip1,0,1,1
UADAQFEE:UTbV_8AB_S3.Chip2,0,0,1
UADAQFEE:UTbV_8AB_S3.Chip3,0,1,-1
UADAQFEE:UTbV_9AB_M1.Chip0,0,-2,-5
UADAQFEE:UTbV_9AB_M1.Chip1,0,-2,0
UADAQFEE:UTbV_9AB_M1.Chip2,0,-1,0
UADAQFEE:UTbV_9AB_M1.Chip3,0,2,-1
UADAQFEE:UTbV_9AB_M2.Chip0,0,1,1
UADAQFEE:UTbV_9AB_M2.Chip1,0,-2,1
UADAQFEE:UTbV_9AB_M2.Chip2,0,-1,-1
UADAQFEE:UTbV_9AB_M2.Chip3,0,1,1
UADAQFEE:UTbV_9AB_M3.Chip0,0,0,1
UADAQFEE:UTbV_9AB_M3.Chip1,0,-4,2
UADAQFEE:UTbV_9AB_M3.Chip2,0,0,-1
UADAQFEE:UTbV_9AB_M3.Chip3,0,1,-2
UADAQFEE:UTbV_9AB_M4.Chip0,0,3,0
UADAQFEE:UTbV_9AB_M4.Chip1,0,-3,-1
UADAQFEE:UTbV_9AB_M4.Chip2,0,2,2
UADAQFEE:UTbV_9AB_M4.Chip3,0,0,2
UADAQFEE:UTbV_9AB_S1.Chip0,0,0,0
UADAQFEE:UTbV_9AB_S1.Chip1,0,3,1
UADAQFEE:UTbV_9AB_S1.Chip2,0,0,-6
UADAQFEE:UTbV_9AB_S1.Chip3,0,1,3
UADAQFEE:UTbV_9AB_S2.Chip0,0,0,-1
UADAQFEE:UTbV_9AB_S2.Chip1,0,-2,0
UADAQFEE:UTbV_9AB_S2.Chip2,0,1,-5
UADAQFEE:UTbV_9AB_S2.Chip3,0,0,-1
UADAQFEE:UTbV_9AB_S3.Chip0,0,2,2
UADAQFEE:UTbV_9AB_S3.Chip1,0,1,0
UADAQFEE:UTbV_9AB_S3.Chip2,0,-4,-3
UADAQFEE:UTbV_9AB_S3.Chip3,0,2,-2
UADAQFEE:UTbX_7AB_M1.Chip0,-1,3,3
UADAQFEE:UTbX_7AB_M1.Chip1,0,-5,-3
UADAQFEE:UTbX_7AB_M1.Chip2,0,2,0
UADAQFEE:UTbX_7AB_M1.Chip3,0,0,-1
UADAQFEE:UTbX_7AB_M3.Chip0,0,-6,-7
UADAQFEE:UTbX_7AB_M3.Chip1,0,0,3
UADAQFEE:UTbX_7AB_M3.Chip2,1,0,1
UADAQFEE:UTbX_7AB_M3.Chip3,0,-2,1
UADAQFEE:UTbX_7AB_S2.Chip0,0,-1,1
UADAQFEE:UTbX_7AB_S2.Chip1,0,2,1
UADAQFEE:UTbX_7AB_S3.Chip0,1,1,1
UADAQFEE:UTbX_7AB_S3.Chip1,0,0,2
UADAQFEE:UTbX_7AB_S3.Chip2,0,1,-3
UADAQFEE:UTbX_7AB_S3.Chip3,0,1,1
UADAQFEE:UTbX_8AB_M1.Chip0,0,2,3
UADAQFEE:UTbX_8AB_M1.Chip1,0,0,-2
UADAQFEE:UTbX_8AB_M1.Chip2,0,-2,1
UADAQFEE:UTbX_8AB_M1.Chip3,0,2,2
UADAQFEE:UTbX_8AB_M2.Chip0,0,2,3
UADAQFEE:UTbX_8AB_M2.Chip1,0,-1,1
UADAQFEE:UTbX_8AB_M2.Chip2,0,-4,-6
UADAQFEE:UTbX_8AB_M2.Chip3,0,1,2
UADAQFEE:UTbX_8AB_M3.Chip0,0,0,1
UADAQFEE:UTbX_8AB_M3.Chip1,0,0,0
UADAQFEE:UTbX_8AB_M3.Chip2,0,-2,1
UADAQFEE:UTbX_8AB_M3.Chip3,0,-1,-2
UADAQFEE:UTbX_8AB_M4.Chip0,0,-4,-2
UADAQFEE:UTbX_8AB_M4.Chip1,0,-3,1
UADAQFEE:UTbX_8AB_M4.Chip2,0,1,3
UADAQFEE:UTbX_8AB_M4.Chip3,0,1,1
UADAQFEE:UTbX_8AB_S1.Chip0,0,-1,0
UADAQFEE:UTbX_8AB_S1.Chip1,0,-8,-6
UADAQFEE:UTbX_8AB_S1.Chip2,0,-2,2
UADAQFEE:UTbX_8AB_S1.Chip3,0,-1,0
UADAQFEE:UTbX_8AB_S2.Chip0,0,1,1
UADAQFEE:UTbX_8AB_S2.Chip1,0,-4,-7
UADAQFEE:UTbX_8AB_S2.Chip2,-1,1,0
UADAQFEE:UTbX_8AB_S2.Chip3,0,1,1
UADAQFEE:UTbX_8AB_S3.Chip0,0,2,5
UADAQFEE:UTbX_8AB_S3.Chip1,0,2,2
UADAQFEE:UTbX_8AB_S3.Chip2,0,-1,0
UADAQFEE:UTbX_8AB_S3.Chip3,0,-1,-2
UADAQFEE:UTbX_9AB_M1.Chip0,0,-4,-3
UADAQFEE:UTbX_9AB_M1.Chip1,0,0,-3
UADAQFEE:UTbX_9AB_M1.Chip2,0,1,-1
UADAQFEE:UTbX_9AB_M1.Chip3,0,2,3
UADAQFEE:UTbX_9AB_M2.Chip0,0,3,4
UADAQFEE:UTbX_9AB_M2.Chip1,0,0,-3
UADAQFEE:UTbX_9AB_M2.Chip2,0,-4,-4
UADAQFEE:UTbX_9AB_M2.Chip3,0,-1,3
UADAQFEE:UTbX_9AB_M3.Chip0,0,0,-4
UADAQFEE:UTbX_9AB_M3.Chip1,0,-3,-1
UADAQFEE:UTbX_9AB_M3.Chip2,0,-1,1
UADAQFEE:UTbX_9AB_M3.Chip3,0,-5,-4
UADAQFEE:UTbX_9AB_M4.Chip0,0,-1,-3
UADAQFEE:UTbX_9AB_M4.Chip1,0,1,1
UADAQFEE:UTbX_9AB_M4.Chip2,0,1,2
UADAQFEE:UTbX_9AB_M4.Chip3,0,2,3
UADAQFEE:UTbX_9AB_S1.Chip0,0,2,2
UADAQFEE:UTbX_9AB_S1.Chip1,0,2,2
UADAQFEE:UTbX_9AB_S1.Chip2,1,3,5
UADAQFEE:UTbX_9AB_S1.Chip3,0,5,1
UADAQFEE:UTbX_9AB_S2.Chip0,0,2,4
UADAQFEE:UTbX_9AB_S2.Chip1,0,1,3
UADAQFEE:UTbX_9AB_S2.Chip2,0,0,-2
UADAQFEE:UTbX_9AB_S2.Chip3,0,-1,-1
UADAQFEE:UTbX_9AB_S3.Chip0,0,2,3
UADAQFEE:UTbX_9AB_S3.Chip1,0,0,-1
UADAQFEE:UTbX_9AB_S3.Chip2,0,2,-2
UADAQFEE:UTbX_9AB_S3.Chip3,0,3,1
